84

7
Clark Cross
Kris Mueller
Delgado North
Tracie Rubio
Morgan Cross
Edward O'Connel
Kris Maynard
2 7 1 3 4 6 5
3 5 4 2 7 6 1
2 4 5 7 3 6 1
6 3 5 7 4 2 1
4 6 5 2 7 1 3
7 3 1 6 4 5 2
5 6 2 1 4 3 7
2 4 1 5 3 7 6
1 3 7 6 4 2 5
2 1 7 6 5 3 4
1 2 7 3 6 5 4
3 5 6 4 1 7 2
1 5 2 6 3 7 4
2 1 5 7 3 4 6
6 4 2 5 3 1 7
3 5 2 7 6 1 4
2 7 6 1 5 3 4
1 3 2 5 6 7 4
4 3 6 7 2 5 1
5 4 1 3 6 7 2
4 2 1 6 3 7 5
4 7 2 6 3 5 1
1 7 3 2 6 5 4
2 4 3 5 1 7 6
4 5 1 2 3 6 7
3 5 7 1 2 4 6
1 2 7 5 3 4 6

7
Lindsey Paul
Floyd Oleson
Julian O'Connel
Caitlin Proctor
Roland Delgado
Clark Livingston
Celia Bright
1 6 2 7 5 4 3
7 5 2 1 6 4 3
4 7 1 3 2 6 5
5 1 7 4 3 2 6
5 6 2 4 1 3 7
5 2 3 7 1 4 6
7 4 2 6 3 5 1
5 3 2 6 7 1 4
4 5 3 7 6 1 2
4 2 6 1 7 3 5
5 4 1 2 3 6 7
3 1 7 2 4 5 6
4 6 1 3 2 5 7
1 2 6 7 5 4 3
7 6 3 1 4 2 5
6 4 3 2 5 1 7
5 7 2 4 3 6 1
3 1 7 4 2 6 5
7 2 1 6 4 5 3
7 6 1 3 5 2 4
6 1 5 3 4 2 7
2 7 3 1 4 6 5
4 6 2 5 7 3 1

9
Daniel Bright
Loretta Hancock
Clark Mercer
Tracie Oleson
Lindsey Dodson
Celia Goodwin
Erick Carver
Maria Mueller
Tracie Cross
4 6 1 3 7 8 2 5 9
3 8 4 6 7 5 2 9 1
9 6 2 4 1 8 7 3 5
5 8 3 7 2 6 1 4 9
3 9 6 5 2 4 8 1 7
2 9 3 1 4 5 7 6 8
7 3 5 8 1 2 9 4 6
6 1 7 5 9 2 3 8 4
6 4 8 2 1 7 5 3 9
6 8 2 9 4 1 3 5 7
2 5 7 8 6 3 1 9 4
6 5 9 3 7 4 8 1 2
7 9 1 2 3 6 8 4 5
6 7 8 3 9 2 5 1 4
7 8 5 4 2 9 1 3 6
9 3 1 8 6 2 5 7 4
9 6 4 7 8 3 1 2 5
9 5 1 3 6 7 8 4 2
8 4 5 7 6 3 2 9 1
9 4 6 5 1 3 7 2 8
1 4 8 6 5 9 3 7 2
9 1 7 3 2 8 4 5 6
4 8 6 1 9 3 7 2 5
2 5 9 1 4 7 8 6 3
1 6 5 3 9 2 8 7 4
7 4 6 8 3 9 5 1 2
2 5 1 8 3 6 7 4 9
2 9 3 1 7 8 5 4 6
2 3 6 8 7 5 1 4 9
1 7 8 9 5 3 4 6 2
4 1 6 5 9 7 3 8 2
6 2 3 5 8 4 7 1 9
9 2 1 6 8 7 5 4 3
5 7 1 3 8 2 6 9 4
3 5 8 4 6 7 9 2 1
4 9 7 3 1 5 8 2 6
4 7 5 2 1 6 8 3 9
7 4 3 2 1 6 8 9 5
7 1 6 8 4 3 5 9 2
9 3 1 5 6 7 8 2 4
3 7 2 6 1 8 5 9 4
9 1 8 3 6 2 5 7 4
6 7 4 9 2 1 3 5 8
3 5 9 4 2 8 6 1 7
4 1 8 3 9 7 2 6 5
4 6 5 1 2 9 8 7 3
4 2 7 5 1 9 3 6 8

10
Floyd Rivers
Morgan Rivers
Larry North
Roland Paul
Marie Henson
Julian Mercer
Clark Henson
Delgado Dodson
Julian Barber
Julian Mueller
6 3 1 4 5 10 7 9 8 2
3 8 4 10 5 1 2 9 6 7
5 4 6 1 3 7 2 8 9 10
6 8 5 1 2 7 10 3 4 9
6 4 2 3 8 7 10 1 5 9
3 2 9 4 5 7 1 8 10 6
4 6 9 7 3 2 5 8 10 1
4 5 9 7 3 10 8 6 2 1
1 3 6 9 4 10 2 8 7 5
4 6 10 5 7 8 3 2 1 9
9 8 6 7 10 5 1 3 2 4
4 10 7 9 8 2 6 3 1 5
3 5 7 8 4 1 2 6 10 9
4 5 6 1 8 10 7 9 2 3
10 1 9 7 2 8 6 5 4 3
7 8 6 1 4 10 5 3 9 2
3 2 6 10 8 4 7 1 5 9
9 3 8 2 7 4 10 1 5 6
3 2 6 10 7 1 5 8 9 4
5 7 2 1 3 9 8 6 4 10
9 4 1 8 6 7 3 10 5 2
10 8 7 5 2 3 1 9 6 4
9 4 2 10 6 1 7 8 3 5
10 6 1 4 8 2 5 9 7 3
1 8 3 10 5 9 4 2 7 6
1 4 7 2 3 8 9 6 10 5
1 8 3 5 10 9 7 4 6 2
7 9 4 3 1 5 2 6 10 8
2 3 1 5 10 9 6 7 4 8
2 9 6 7 8 1 3 5 4 10
1 9 4 8 6 10 2 3 5 7
1 4 3 5 6 7 8 9 2 10
8 6 3 4 2 1 9 5 10 7
6 1 4 7 9 3 10 5 8 2
5 10 3 8 4 7 2 6 1 9
1 10 5 6 9 4 7 8 3 2
10 3 8 1 7 9 6 4 2 5
5 8 3 9 2 4 7 6 1 10
6 10 2 5 1 7 4 8 9 3
6 10 8 3 7 5 2 1 9 4
10 7 2 9 4 3 8 1 5 6
1 3 7 4 6 8 2 10 5 9
2 7 5 8 4 10 1 6 9 3
8 5 7 1 4 3 10 9 2 6
6 8 9 1 7 4 5 2 10 3
8 3 9 7 4 2 10 6 5 1

4
Carla Barber
Celia Rubio
Edward Rubio
Lindsey North
4 2 3 1
2 3 1 4
4 3 2 1
1 3 2 4
4 3 1 2
4 3 2 1
2 1 4 3
1 4 3 2
3 1 2 4
1 3 4 2
3 1 4 2
2 1 3 4
1 3 2 4
2 1 3 4
2 4 1 3
4 3 2 1
3 4 1 2
2 4 1 3
1 2 3 4
3 2 1 4
1 3 2 4
4 1 2 3
3 2 4 1
2 1 4 3
2 4 3 1
3 2 4 1
3 4 2 1
1 4 3 2
3 1 4 2
3 1 2 4
1 3 4 2
4 1 3 2
3 1 4 2
3 1 4 2
4 1 2 3
1 4 3 2
3 1 4 2
1 4 3 2
2 1 3 4
3 1 4 2
3 2 1 4
4 3 1 2
1 3 4 2
3 1 4 2
1 3 4 2
3 2 4 1

10
Kris North
Clark Proctor
Floyd Benson
Daniel Carver
Julian O'Connel
Carla Oleson
Larry Goodwin
Edward Bright
Clark Rivers
Kelsey Cross
3 8 1 6 2 5 9 10 7 4
6 10 4 7 8 2 9 1 5 3
4 5 7 6 1 10 2 8 9 3
9 5 3 7 2 4 6 1 10 8
2 9 8 6 3 5 10 7 1 4
6 1 5 9 8 7 10 2 4 3
10 6 5 1 7 4 2 8 9 3
2 1 7 4 6 10 3 8 5 9
10 5 7 1 8 6 4 3 2 9
4 3 5 2 8 7 9 6 10 1
10 1 6 5 8 4 3 7 2 9
5 3 1 9 4 7 10 2 8 6
2 5 9 10 7 8 1 4 6 3
5 3 8 6 9 2 7 1 10 4
5 10 2 6 7 1 8 9 4 3
7 2 6 9 8 4 1 3 5 10
8 6 4 10 2 9 7 3 5 1
10 3 5 9 4 7 6 8 2 1
9 5 10 6 8 1 3 7 2 4
9 4 5 1 8 10 2 7 3 6
10 5 8 1 9 4 7 2 6 3

8
Lisa Henson
Linda Jefferson
Kelsey North
Daniel Livingston
Edward Paul
Roland Delgado
Roland Henson
Loretta Rivers
1 2 3 8 6 5 7 4
6 1 5 2 3 7 4 8
2 4 7 8 5 6 3 1
7 6 2 3 8 4 5 1
1 3 5 6 4 8 2 7
8 4 3 1 5 7 6 2
4 2 6 7 8 3 5 1
6 4 2 5 1 7 3 8
7 4 5 6 2 8 1 3
5 7 4 1 2 8 6 3
1 2 3 7 4 8 5 6
6 1 5 4 7 3 2 8
8 5 3 4 6 7 1 2
7 1 3 2 8 6 4 5
3 7 5 2 6 4 1 8
3 7 5 4 8 2 6 1
7 8 5 1 2 3 4 6
1 5 4 6 3 8 7 2
6 3 5 2 1 7 4 8
3 5 2 6 1 8 7 4
7 3 1 4 6 2 5 8
3 1 5 6 2 7 4 8
5 4 6 3 1 8 2 7
5 6 1 7 4 8 3 2
3 1 5 8 6 4 2 7
3 2 5 8 1 7 4 6
4 2 5 8 6 7 3 1
5 6 7 3 2 4 1 8
8 5 6 2 7 4 1 3
3 1 4 2 6 8 7 5
6 1 3 7 2 4 5 8
6 4 8 5 2 1 7 3
8 5 4 3 2 7 6 1
7 4 5 2 8 6 3 1

8
Marie Barber
Clark Mead
Angelina Steward
Lindsey Hancock
Larry Goodwin
Michael Steward
Clark Moyer
Roland Delgado
8 7 4 1 6 3 2 5
7 8 4 5 3 6 2 1
3 6 2 8 1 5 7 4
1 3 2 5 8 4 6 7
2 5 8 3 4 6 7 1
5 7 8 4 3 2 1 6
4 5 1 7 2 3 6 8
6 7 8 4 3 5 1 2
6 2 1 7 5 4 3 8
5 6 3 1 7 4 8 2
7 8 3 1 5 6 2 4
8 6 3 5 7 1 4 2
1 3 7 6 5 2 4 8
8 1 3 5 7 2 4 6
3 2 5 7 1 8 4 6
4 8 2 6 5 3 1 7
3 2 5 8 7 4 1 6
4 8 6 7 5 1 2 3
8 5 2 6 3 1 7 4
5 6 3 4 1 7 8 2
8 3 7 4 6 2 5 1
4 3 6 1 7 8 2 5
8 2 7 6 5 3 1 4
3 8 6 1 2 4 7 5
1 3 2 8 7 5 6 4
6 8 5 2 4 3 1 7
4 1 7 6 5 3 8 2
6 3 5 2 8 7 1 4
5 4 7 8 6 2 1 3
4 3 1 2 7 6 8 5
3 5 6 2 4 1 8 7
7 1 6 8 3 4 2 5
6 5 4 8 7 3 2 1
4 8 2 5 3 6 1 7
6 5 8 2 4 7 1 3
1 7 5 4 6 2 8 3
7 1 5 3 6 4 2 8
1 5 4 7 6 3 2 8
7 1 4 6 3 8 5 2
6 4 3 8 5 2 7 1
5 6 4 2 8 1 3 7

4
Larry Russell
Cesar Proctor
Tracie Rivers
Edward Mercer
2 1 3 4
1 3 4 2
2 4 1 3
1 2 3 4
1 2 3 4
4 3 2 1
3 2 4 1
3 1 4 2
1 4 2 3
4 3 2 1
1 3 2 4
4 1 2 3
4 3 1 2
4 1 3 2
2 3 4 1
3 1 4 2
1 2 3 4
4 1 3 2
1 3 4 2
1 3 2 4
2 4 3 1
3 4 2 1
4 3 2 1
2 4 3 1
3 4 2 1
3 2 4 1
2 3 4 1
1 4 2 3
1 4 3 2
3 2 1 4
3 4 2 1
4 1 2 3
3 4 2 1
1 2 4 3
4 2 1 3
1 4 3 2
4 3 2 1
1 4 3 2
4 1 2 3
1 2 3 4
4 1 3 2
1 2 4 3
3 4 1 2
3 4 2 1
1 2 3 4
4 1 2 3
2 1 3 4
1 4 3 2
4 1 2 3

4
Michael Paul
Angelina Delgado
Michael Dodson
Erick Proctor
3 1 2 4
3 2 1 4
4 3 2 1
3 1 2 4
1 2 3 4
2 4 1 3
2 4 3 1
4 2 1 3
3 2 1 4
4 2 3 1
4 2 3 1
3 2 4 1
2 1 3 4
2 1 4 3
1 4 2 3
1 2 4 3
4 3 1 2
3 1 2 4
3 4 1 2
1 2 4 3
3 1 4 2
4 3 1 2
3 1 4 2
4 2 1 3
1 3 2 4
2 1 4 3
4 3 1 2
3 1 4 2
3 4 2 1
2 1 3 4
1 2 4 3
4 3 2 1
4 2 3 1
2 1 4 3
1 3 2 4
2 1 3 4
2 3 4 1
2 3 1 4
1 4 2 3
1 4 3 2
4 2 1 3
2 3 4 1

10
Marie Carver
Chelsea Maynard
Maria Benson
Lisa Russell
Cesar Mercer
Chelsea Hardin
Roland Mead
Clark Dodson
Erick Henson
Lisa Russell
3 2 9 10 4 8 6 5 7 1
3 6 5 8 7 2 9 1 4 10
5 8 10 7 6 4 2 1 3 9
7 4 10 8 5 3 6 1 2 9
8 2 7 10 9 5 4 6 1 3
9 10 5 1 4 3 6 8 7 2
7 10 8 6 3 5 1 9 2 4
6 1 10 8 9 4 2 5 3 7
10 1 6 5 8 7 4 2 9 3
8 7 4 5 1 6 10 9 2 3
1 8 6 3 5 7 4 2 10 9
10 6 5 8 4 1 3 9 7 2
10 9 6 1 4 8 2 5 7 3
5 4 3 9 7 10 8 6 1 2
4 3 5 8 10 2 6 9 7 1
6 2 3 5 1 7 9 10 4 8
4 7 3 1 9 2 10 8 6 5
3 8 6 9 1 10 5 4 7 2
7 10 6 1 8 2 3 9 5 4
2 5 1 7 6 8 10 3 9 4
2 8 7 6 9 1 10 3 4 5
6 8 2 1 5 10 3 7 9 4
5 10 4 8 3 2 7 6 9 1
3 7 10 4 8 1 2 9 6 5

4
Linda O'Connel
Linda Barber
Floyd Cross
Loretta Carver
1 3 4 2
1 2 4 3
4 2 3 1
1 2 4 3
4 1 3 2
2 3 4 1
4 2 1 3
4 3 1 2
1 3 2 4
3 1 4 2
2 1 3 4
4 1 2 3
4 1 2 3
1 4 2 3
2 1 4 3
1 3 4 2
4 2 3 1
4 2 1 3
3 2 4 1
3 2 1 4
1 2 4 3
3 2 1 4
3 2 1 4
1 4 3 2
3 4 1 2
3 4 2 1
4 3 2 1
1 3 2 4
2 4 1 3
2 1 3 4
4 3 1 2
1 4 2 3
4 1 2 3
3 1 4 2
2 4 1 3
4 2 3 1
1 2 3 4
2 3 4 1
4 3 2 1
1 4 3 2
4 1 3 2

9
Caitlin Carver
Loretta Hancock
Kris Mercer
Chelsea Maynard
Morgan O'Connel
Lindsey Hancock
Marie Maynard
Roland Mead
Edward Jefferson
6 1 2 8 9 4 5 3 7
1 2 6 9 8 7 5 3 4
8 5 7 2 6 9 1 4 3
5 9 4 3 1 7 8 2 6
3 5 8 1 4 7 9 2 6
2 1 3 7 4 6 9 5 8
7 8 5 3 6 1 9 2 4
6 4 8 9 3 2 5 7 1
7 5 3 2 6 9 4 1 8
3 1 7 4 9 5 8 2 6
8 1 7 6 3 4 5 2 9
8 5 2 7 1 9 3 4 6
8 4 6 3 2 1 7 9 5
1 2 5 7 4 9 6 3 8
9 5 7 4 2 3 1 8 6
7 2 1 6 3 4 5 9 8
9 5 7 4 2 6 3 1 8
3 8 9 5 4 2 7 1 6
1 8 4 3 5 7 6 2 9
5 4 1 8 7 6 3 2 9
7 9 4 5 8 6 3 1 2
1 6 4 2 5 3 9 7 8
3 4 8 5 6 1 2 7 9
2 1 6 7 5 4 3 9 8
7 3 4 8 2 5 9 6 1
5 7 6 4 3 8 9 2 1
2 7 9 6 3 4 5 8 1
3 9 4 7 6 1 2 5 8
7 5 9 2 4 3 1 8 6
3 7 1 9 8 5 2 6 4
6 1 8 9 2 3 5 7 4

4
Linda Hancock
Vanessa Goodwin
Cesar Maynard
Lisa Oleson
3 2 4 1
3 1 4 2
4 1 2 3
4 3 2 1
1 2 4 3
1 2 4 3
4 2 3 1
1 3 4 2
2 1 3 4
2 3 4 1
4 2 1 3
2 1 4 3
2 3 1 4
2 4 3 1
1 2 3 4
1 2 4 3
1 2 3 4
3 1 4 2
2 1 3 4
3 2 1 4
3 2 4 1
1 2 3 4
1 4 3 2
2 4 1 3
3 1 4 2
4 3 1 2
1 2 4 3

9
Morgan Henson
Linda Steward
Tracie Livingston
Kris Maynard
Carla Oleson
Lisa Dodson
Caitlin Oleson
Edward Goodwin
Delgado Livingston
8 7 1 4 6 9 2 3 5
8 6 9 5 2 1 4 3 7
7 2 1 6 4 9 5 3 8
3 6 4 9 5 1 2 7 8
6 3 2 5 9 8 4 7 1
4 6 5 1 8 7 2 9 3
9 5 8 6 1 4 3 7 2
6 2 8 9 5 7 3 4 1
7 9 5 1 4 8 2 6 3
1 6 5 2 7 3 8 9 4
7 4 2 1 3 9 8 5 6
3 8 1 9 2 6 4 7 5
6 4 7 9 3 5 1 8 2
2 1 6 9 5 3 8 7 4
2 8 1 3 4 6 7 5 9
5 3 6 4 8 7 9 2 1
2 1 7 8 3 9 6 5 4
3 2 6 4 5 1 9 8 7
5 3 1 6 2 4 9 8 7
7 9 6 3 4 1 5 2 8
6 8 9 7 5 2 3 1 4
3 6 5 4 9 2 1 8 7
9 7 2 6 4 5 3 1 8
4 9 7 1 8 6 3 2 5
2 5 3 9 8 7 6 4 1
2 6 8 5 9 4 3 1 7
6 8 3 1 9 5 7 4 2
9 7 1 5 3 2 8 6 4
8 5 2 1 9 6 7 4 3
8 4 5 6 3 7 1 2 9
5 3 6 4 2 7 1 9 8
9 4 3 6 8 1 2 5 7
6 4 9 8 1 5 3 2 7
8 6 9 1 3 5 2 7 4
2 4 7 1 9 6 5 8 3
7 2 6 9 4 5 3 8 1
6 7 8 5 2 3 9 1 4
8 1 3 2 9 4 6 7 5

4
Clark Mercer
Lisa Carver
Cesar Henson
Chelsea Dodson
1 3 4 2
3 1 4 2
3 1 4 2
4 1 2 3
2 4 1 3
4 1 2 3
3 1 2 4
3 4 2 1
3 4 1 2
3 2 1 4
3 2 4 1
4 3 2 1
3 2 1 4
4 3 2 1
2 3 4 1
2 1 3 4
1 3 2 4
2 3 4 1
1 2 3 4
1 4 3 2
3 1 2 4

8
Celia Jefferson
Angelina Hancock
Carla O'Connel
Erick Russell
Edward Barber
Loretta Livingston
Erick Benson
Kris Shay
4 5 8 6 3 2 1 7
5 6 4 1 2 3 8 7
4 7 8 5 6 1 3 2
8 6 3 4 7 2 1 5
3 1 6 5 8 4 2 7
2 8 3 7 1 5 6 4
7 2 4 6 5 1 8 3
4 5 1 7 3 6 2 8
6 3 8 1 5 4 7 2
3 7 5 6 1 4 8 2
1 4 2 7 6 5 3 8
4 5 7 3 8 1 6 2
7 4 6 5 2 8 1 3
4 3 6 2 1 7 8 5
8 2 7 6 3 5 1 4
3 1 4 8 2 5 7 6
7 3 5 1 6 8 2 4
3 2 1 5 7 6 8 4
6 7 2 1 3 4 5 8
2 7 4 5 3 6 1 8
1 2 6 7 4 8 3 5
1 5 8 7 6 2 4 3

9
Maria Delgado
Linda Mead
Kelsey Mueller
Caitlin North
Chelsea Mercer
Celia Russell
Lindsey Rubio
Celia O'Connel
Lindsey Oleson
7 9 8 4 2 5 6 3 1
4 9 2 6 1 3 7 8 5
9 1 2 3 6 8 7 5 4
1 5 9 6 8 7 3 4 2
8 9 6 2 3 1 7 4 5
9 1 5 4 2 3 7 6 8
8 6 2 4 5 3 7 9 1
2 9 4 6 5 8 3 1 7
4 1 6 2 5 8 7 3 9
7 1 2 4 5 9 3 8 6
5 1 4 6 9 2 7 3 8
8 5 4 3 9 6 2 1 7
3 6 7 1 9 4 2 8 5
3 2 6 9 8 1 7 4 5
1 4 2 6 3 8 7 5 9
5 6 3 4 8 1 7 2 9
7 1 6 2 3 4 8 5 9
1 7 6 5 2 8 3 9 4
7 4 1 6 8 3 9 2 5
9 1 6 5 7 8 2 3 4
9 5 6 8 2 1 3 7 4
7 3 6 1 5 8 2 9 4
9 8 4 7 1 3 2 6 5
1 5 2 4 8 6 3 9 7
2 7 6 8 1 5 3 9 4
5 7 1 9 3 6 8 4 2
7 4 1 9 6 8 5 3 2
3 6 4 2 8 9 1 7 5
8 3 5 2 1 6 7 4 9
8 9 1 2 7 3 5 6 4
7 3 6 1 8 9 5 4 2
5 1 7 9 8 6 4 2 3
2 7 1 5 6 8 3 4 9
5 2 8 1 3 9 6 4 7
9 6 2 8 3 1 7 5 4
6 8 5 2 4 3 1 9 7
9 6 4 8 5 7 2 1 3
1 8 6 3 5 2 4 9 7
8 3 7 9 2 1 6 4 5
7 1 4 9 3 8 5 6 2
3 7 2 8 1 5 6 9 4

8
Daniel Russell
Caitlin Jefferson
Carla Barber
Morgan Proctor
Edward Russell
Chelsea Hancock
Erick Livingston
Linda Dodson
5 3 7 6 8 4 2 1
7 1 8 6 5 2 4 3
4 1 2 3 8 5 6 7
5 7 8 4 3 6 1 2
6 2 7 3 8 4 1 5
7 1 5 2 4 6 8 3
6 4 7 5 2 8 3 1
3 8 2 7 5 6 1 4
1 8 2 6 5 4 7 3
1 3 5 8 4 7 6 2
5 1 4 8 3 7 2 6
6 1 7 4 5 2 3 8
5 7 4 8 2 6 1 3
7 5 3 4 6 2 1 8
6 1 5 3 4 8 2 7
7 8 5 1 4 6 3 2
5 3 1 8 4 7 2 6
1 6 3 8 2 5 4 7
6 3 8 7 2 5 1 4
5 1 6 2 3 8 4 7
8 3 6 2 5 4 1 7
6 5 8 1 4 7 2 3
5 7 4 1 3 8 2 6
4 5 3 1 8 6 7 2
1 2 7 4 6 3 5 8
8 6 1 2 4 7 5 3
3 4 2 8 7 6 1 5
7 8 6 2 1 3 5 4
3 1 2 8 4 5 6 7
1 6 4 5 7 8 2 3
4 2 5 3 7 6 8 1
3 1 4 2 5 7 6 8
7 8 4 2 5 6 1 3
1 8 6 5 2 7 3 4
8 7 3 4 1 2 5 6
2 5 7 6 8 3 4 1
4 2 8 3 5 7 6 1
3 1 7 4 2 6 5 8
1 5 2 7 6 3 4 8
8 7 6 3 4 5 2 1
4 6 2 7 1 3 5 8
3 4 2 1 8 5 7 6
4 7 2 6 1 5 3 8
4 2 1 6 7 8 3 5
1 5 8 4 3 7 6 2

10
Linda Hancock
Celia Carver
Chelsea Mercer
Julian Proctor
Delgado Carver
Kris Cross
Maria Hancock
Kelsey Mead
Chelsea Paul
Edward North
6 1 3 9 7 10 2 4 8 5
6 3 7 2 4 5 9 8 10 1
10 3 7 2 5 9 1 6 8 4
1 6 5 2 10 7 4 9 3 8
1 9 6 4 8 7 3 10 5 2
2 7 10 6 5 9 1 3 8 4
5 2 6 3 7 9 1 4 8 10
6 3 7 2 10 4 1 8 9 5
5 2 8 9 10 6 3 7 1 4
9 3 6 8 7 10 2 1 5 4
8 5 1 10 6 3 9 7 2 4
9 2 4 1 8 7 6 3 5 10
6 4 10 3 8 5 1 9 7 2
3 5 4 7 10 8 9 6 2 1
8 10 4 1 9 6 2 3 5 7
2 10 8 9 3 1 7 5 4 6
2 7 6 8 5 3 4 1 10 9
5 3 4 1 9 10 6 8 7 2
9 5 10 7 4 1 8 2 3 6
9 10 2 6 5 8 4 7 3 1
5 3 10 6 1 4 9 7 2 8
7 1 4 8 5 10 3 9 2 6
6 3 8 9 7 5 10 2 1 4
9 3 5 10 8 4 2 7 6 1
1 6 2 4 3 9 8 10 7 5
6 7 5 10 1 9 2 8 4 3
5 4 6 8 2 9 7 10 3 1
8 9 10 5 6 2 3 4 1 7
10 2 8 1 9 5 4 7 3 6
3 10 1 4 5 2 6 8 7 9
6 9 4 10 8 5 1 7 3 2
7 10 8 3 2 4 5 1 6 9

4
Edward Mercer
Erick Mercer
Chelsea Goodwin
Kelsey Benson
1 4 3 2
4 1 3 2
1 3 2 4
2 1 4 3
3 1 4 2
1 2 3 4
4 2 1 3
1 3 4 2
2 1 4 3
4 3 2 1
3 1 4 2
1 4 3 2
3 1 4 2
1 4 3 2
4 3 2 1
3 4 2 1
4 2 1 3
2 3 1 4
3 4 1 2
4 3 2 1
1 4 3 2
4 1 3 2
3 2 4 1
2 4 3 1
3 4 2 1
4 2 3 1
3 1 2 4
1 4 3 2
3 4 1 2
3 4 1 2
1 4 2 3
1 3 4 2
4 2 1 3
2 1 4 3
3 2 1 4
4 1 2 3
3 2 4 1
3 2 1 4
1 2 4 3
4 1 2 3
1 4 3 2
1 3 4 2
2 1 4 3
2 1 4 3
2 3 1 4
2 1 4 3
4 1 2 3

5
Carla Mead
Cesar Henson
Kris Livingston
Floyd Hardin
Floyd Goodwin
3 1 2 4 5
2 5 4 3 1
2 5 3 4 1
4 1 2 3 5
4 1 5 2 3
3 4 5 2 1
2 3 5 4 1
4 5 3 1 2
5 2 3 4 1
4 2 1 5 3
1 3 2 5 4
5 1 4 3 2
2 5 1 3 4
1 5 4 2 3
2 3 1 5 4
2 1 4 3 5
5 4 1 2 3
1 5 2 3 4
4 5 3 2 1
2 3 4 1 5
4 2 5 3 1
5 1 2 4 3
1 4 5 2 3
3 4 1 2 5
3 4 1 2 5
3 5 4 1 2
3 5 2 1 4
4 5 3 1 2
2 5 4 1 3
2 3 4 5 1

6
Lindsey Bright
Caitlin Hardin
Linda Proctor
Roland Mueller
Daniel Henson
Linda Steward
1 4 5 6 2 3
3 6 5 4 2 1
1 6 2 5 3 4
1 5 6 3 2 4
1 3 6 2 4 5
2 4 5 6 1 3
4 2 5 1 3 6
3 6 2 1 5 4
2 4 1 5 3 6
5 3 2 4 1 6
6 5 4 1 2 3
5 6 2 4 1 3
6 2 5 4 1 3
2 3 6 4 1 5
2 3 6 5 4 1
3 4 6 1 5 2
1 6 5 2 3 4
4 5 2 6 1 3
6 2 4 3 1 5
6 2 4 5 3 1
1 4 5 3 6 2
1 2 5 3 6 4
6 1 2 5 3 4
4 6 5 1 3 2
3 2 4 1 5 6
3 2 1 6 5 4
1 2 5 3 4 6
1 4 3 5 6 2
1 5 6 4 2 3
2 4 3 5 6 1
1 2 5 3 4 6
1 4 5 6 2 3
2 5 1 6 3 4
3 6 4 1 2 5
2 1 4 6 3 5
1 3 5 4 2 6
4 6 2 5 1 3

5
Chelsea Paul
Julian Carver
Floyd Paul
Floyd Delgado
Loretta Mead
4 3 5 2 1
1 5 4 2 3
2 3 4 1 5
1 4 2 5 3
1 4 3 5 2
4 1 2 3 5
2 5 4 3 1
3 1 4 2 5
2 5 4 3 1
5 4 2 1 3
5 3 1 4 2
2 1 3 5 4
2 3 4 5 1
2 3 1 5 4
5 4 1 2 3
3 2 5 4 1
1 2 4 3 5
4 5 3 2 1
4 2 3 1 5
4 2 3 1 5
2 4 1 3 5
3 2 4 1 5
4 3 2 1 5
2 3 4 1 5
1 4 3 5 2
3 4 1 2 5
3 4 2 1 5
3 1 4 5 2
3 1 2 5 4
3 2 5 1 4
3 2 1 4 5
4 3 2 1 5
5 3 1 4 2
4 5 1 2 3
2 5 1 3 4
2 3 5 1 4
5 2 3 1 4
5 1 4 2 3

4
Roland Jefferson
Lindsey Cross
Tracie Goodwin
Erick Paul
3 2 4 1
1 2 3 4
3 2 4 1
4 1 2 3
4 3 1 2
3 2 4 1
2 1 4 3
2 1 4 3
4 1 3 2
4 3 1 2
3 4 2 1
4 2 3 1
1 4 2 3
1 4 3 2
3 4 1 2
2 1 4 3
1 2 4 3
4 2 1 3
4 1 3 2
3 1 4 2
1 4 3 2
4 2 3 1
4 2 1 3
3 1 2 4
2 1 3 4
4 3 2 1
4 1 2 3
3 1 4 2
4 3 1 2
3 1 2 4
1 4 2 3
4 3 1 2
3 1 2 4
2 4 1 3
2 4 1 3
1 2 4 3
3 2 1 4
3 2 1 4
3 4 1 2
1 3 2 4
3 1 2 4
1 4 2 3
1 4 2 3
4 1 3 2
3 1 2 4
3 2 1 4
1 2 3 4

9
Marie Mercer
Celia Mueller
Kelsey Shay
Maria Carver
Morgan Goodwin
Lisa Paul
Celia O'Connel
Maria Henson
Delgado Maynard
1 9 4 8 7 5 2 3 6
2 4 7 5 1 6 8 9 3
5 4 1 9 3 8 6 7 2
2 8 4 9 1 6 3 5 7
9 4 8 5 6 1 3 2 7
3 4 8 6 1 9 2 5 7
8 2 6 7 1 9 4 5 3
6 1 5 2 8 9 7 3 4
7 5 9 6 8 4 1 3 2
1 2 5 7 6 9 4 3 8
4 7 6 8 5 1 9 2 3
5 9 2 8 3 1 4 7 6
1 3 8 6 4 9 5 7 2
6 4 8 1 5 3 9 2 7
1 4 7 2 3 8 6 9 5
5 7 9 3 4 1 8 2 6
1 2 7 5 4 8 9 6 3
9 3 1 8 5 7 4 2 6
2 6 3 8 5 1 9 7 4
5 4 7 6 8 1 3 2 9
9 8 1 5 6 7 4 3 2
2 6 1 9 4 8 5 3 7
3 2 4 6 8 9 1 7 5
5 3 4 1 7 9 6 2 8
7 5 1 9 8 4 6 2 3
3 4 5 9 6 2 7 8 1
9 3 7 2 5 6 4 8 1
3 4 9 1 6 7 8 5 2
9 5 2 1 3 6 7 4 8
8 6 2 9 3 7 4 1 5
5 7 4 9 3 8 6 2 1
3 6 7 1 5 9 4 8 2
2 8 5 3 4 9 6 7 1
6 3 7 9 5 4 8 1 2
7 3 9 5 6 8 1 2 4
5 2 6 4 7 8 9 3 1
3 6 5 2 8 7 4 9 1
9 4 1 5 7 6 2 8 3
8 2 4 7 9 3 5 6 1
1 2 9 5 3 7 4 8 6
3 2 7 1 9 8 4 6 5
3 7 6 8 2 9 5 1 4
8 3 4 7 9 5 6 2 1
7 6 5 4 3 2 8 1 9
5 2 7 4 9 1 3 8 6

4
Angelina Bright
Carla Hardin
Carla Barber
Erick Hardin
2 1 4 3
3 1 2 4
1 4 2 3
1 2 4 3
2 1 3 4
4 1 3 2
3 2 4 1
2 1 4 3
1 3 2 4
4 3 1 2
1 2 4 3
2 4 1 3
1 4 2 3
3 4 1 2
4 1 2 3
2 4 1 3
2 1 4 3
3 1 2 4
2 3 1 4
3 4 2 1
2 1 3 4
4 3 2 1
1 4 3 2
2 4 1 3
3 1 2 4
4 1 3 2
2 1 4 3
4 3 2 1
4 3 2 1
4 2 1 3
3 4 2 1

8
Clark Hardin
Roland Mercer
Celia Livingston
Clark Hancock
Caitlin Shay
Linda Hardin
Carla O'Connel
Clark Rivers
7 5 8 6 1 4 2 3
7 5 2 1 4 3 6 8
1 6 2 7 5 3 8 4
5 6 1 7 3 8 2 4
4 6 2 8 1 7 5 3
5 6 3 2 1 4 8 7
3 1 5 7 6 4 2 8
4 2 8 6 5 3 7 1
8 7 5 2 6 3 1 4
1 2 5 3 7 6 8 4
6 8 7 4 1 5 3 2
6 3 7 4 8 2 1 5
1 6 4 5 2 7 3 8
1 4 7 3 5 8 2 6
4 6 3 5 1 2 8 7
4 1 8 3 7 2 6 5
6 7 8 3 2 1 4 5
6 8 5 1 4 2 7 3
6 5 2 3 8 1 4 7
7 4 8 2 6 5 3 1
7 3 4 2 1 5 6 8
1 6 7 4 3 8 5 2
1 7 2 5 6 8 4 3
8 1 4 5 3 6 2 7
2 1 8 7 5 3 6 4
7 6 8 1 3 4 2 5
3 2 1 8 7 6 5 4
7 3 4 1 8 2 5 6
2 4 8 3 5 6 1 7
4 1 3 6 5 8 2 7
8 3 4 5 6 1 7 2
7 4 5 8 1 2 6 3
6 2 7 5 1 3 4 8
6 4 5 8 3 1 2 7
5 8 6 4 2 3 7 1
4 5 1 7 2 8 3 6
4 6 5 2 7 8 3 1
7 6 2 5 3 4 1 8
1 6 5 8 2 3 7 4
5 1 8 7 4 2 3 6
2 8 5 7 6 1 4 3
1 4 2 6 7 8 3 5
3 5 4 7 2 6 8 1
4 7 2 6 1 8 3 5
5 8 4 7 1 6 2 3
2 8 5 7 6 1 3 4
8 3 7 4 6 5 2 1

7
Julian Delgado
Erick Shay
Kelsey Henson
Cesar Jefferson
Maria Hancock
Daniel Bright
Julian Jefferson
3 2 5 1 4 7 6
4 7 5 3 2 6 1
1 7 4 5 2 3 6
5 4 1 6 2 3 7
1 2 3 7 5 4 6
7 2 5 1 3 4 6
5 4 6 7 2 1 3
7 2 1 5 4 3 6
3 2 1 5 6 7 4
6 3 7 5 4 1 2
5 2 4 1 6 7 3
4 5 2 1 6 7 3
7 6 3 5 1 2 4
1 3 7 4 2 6 5
4 3 1 5 7 6 2
6 5 3 1 4 7 2
6 3 1 4 5 7 2
6 1 4 7 5 3 2
5 4 2 7 1 6 3
5 7 6 2 3 4 1
7 6 1 4 3 5 2
3 1 6 2 4 5 7
4 1 6 2 7 3 5

9
Cesar Livingston
Tracie Steward
Roland Mueller
Lindsey North
Vanessa Carver
Roland Rivers
Cesar Hancock
Loretta Hancock
Caitlin Mueller
3 8 7 2 9 4 1 6 5
4 3 8 6 9 7 2 5 1
7 5 1 6 4 2 9 8 3
6 8 9 3 5 7 4 2 1
1 7 5 3 2 8 4 9 6
2 3 9 5 4 1 8 6 7
1 4 6 7 9 5 2 3 8
3 9 1 6 8 2 5 4 7
4 2 7 9 6 5 3 8 1
5 7 6 1 2 4 3 9 8
4 5 7 2 3 1 8 6 9
5 2 9 6 4 1 3 7 8
5 6 2 8 1 7 3 9 4
5 6 4 3 2 9 7 8 1
4 2 1 9 3 6 8 7 5
5 9 2 4 1 8 7 6 3
8 5 9 4 7 3 2 6 1
1 5 6 4 8 9 2 3 7
8 2 7 4 3 5 6 9 1
3 4 2 9 8 1 5 6 7
1 3 8 2 5 6 9 7 4
7 1 4 2 6 9 3 8 5
9 5 3 7 2 6 1 8 4

7
Julian North
Kelsey Mercer
Maria Mercer
Chelsea Mueller
Lisa Oleson
Chelsea Cross
Angelina Proctor
2 4 1 7 5 6 3
1 7 3 6 4 2 5
2 7 5 6 4 3 1
5 1 3 6 4 2 7
6 5 1 7 4 3 2
1 6 7 3 4 5 2
2 7 5 3 1 6 4
2 5 4 1 3 6 7
3 2 6 5 1 4 7
2 5 3 7 6 1 4
4 6 1 7 2 3 5
6 4 3 5 2 1 7
3 6 7 1 5 4 2
7 1 2 6 4 3 5
3 1 2 4 6 5 7
7 6 3 2 1 5 4
5 4 2 1 7 3 6
5 6 7 2 3 4 1
6 7 3 2 1 4 5
7 4 2 3 6 1 5
4 7 6 2 3 5 1
2 6 3 4 1 7 5
5 6 7 2 4 1 3
2 4 3 1 5 6 7
4 5 1 2 7 6 3
7 5 4 2 6 3 1
4 2 5 6 7 1 3
5 3 1 4 7 2 6
5 4 1 6 3 7 2
1 3 2 7 6 5 4
4 7 2 6 3 1 5
7 4 1 3 6 5 2
4 3 7 6 5 1 2
4 5 2 6 3 7 1
6 1 7 4 5 2 3

4
Kelsey Jefferson
Carla Carver
Caitlin Proctor
Maria Goodwin
4 3 2 1
4 2 1 3
4 3 1 2
3 1 2 4
4 1 2 3
1 4 2 3
2 3 4 1
3 2 1 4
4 1 2 3
2 4 3 1
4 1 3 2
3 2 1 4
4 1 3 2
2 4 1 3
2 1 3 4
3 2 4 1
3 1 4 2
3 2 1 4
3 4 2 1
3 2 1 4
3 4 1 2
2 4 3 1
2 3 1 4
3 2 1 4
2 3 1 4
4 1 3 2
2 3 4 1
1 4 3 2
3 4 1 2
2 4 3 1

5
Kelsey Jefferson
Clark Proctor
Morgan Bright
Clark Delgado
Carla Paul
2 5 3 1 4
2 1 3 5 4
1 2 4 3 5
1 2 5 3 4
1 2 4 3 5
5 4 3 1 2
5 3 2 1 4
3 5 4 1 2
5 3 1 4 2
2 1 5 4 3
1 3 2 4 5
3 1 4 5 2
3 5 4 2 1
4 2 5 1 3
5 1 3 4 2
5 4 1 3 2
1 2 5 3 4
1 4 2 3 5
5 4 3 2 1
4 3 5 1 2
5 1 4 2 3
4 2 3 1 5
5 3 4 1 2
3 4 5 2 1
1 5 2 3 4
2 5 3 4 1
1 3 5 4 2
5 2 4 3 1
2 1 3 4 5
5 4 2 1 3
5 3 4 2 1
3 4 2 1 5
3 2 4 5 1
1 2 4 3 5
2 3 5 1 4
3 2 4 1 5

7
Carla Goodwin
Delgado Moyer
Lindsey Benson
Angelina Mead
Carla Russell
Roland Bright
Carla Goodwin
5 3 1 6 4 2 7
5 7 3 4 6 1 2
7 6 4 3 5 1 2
7 1 2 4 6 3 5
5 4 2 6 3 7 1
7 1 4 5 6 2 3
6 1 4 2 5 7 3
5 1 3 7 6 2 4
2 1 7 4 6 5 3
6 5 3 7 1 2 4
6 7 5 1 3 2 4
2 4 3 5 1 7 6
1 5 6 7 3 2 4
2 5 1 7 4 3 6
5 4 7 2 1 3 6
4 6 1 2 5 3 7
6 1 7 5 2 3 4
4 3 5 6 1 2 7
7 5 6 4 3 1 2
5 6 7 3 1 2 4
3 1 5 2 4 7 6
4 1 5 7 6 2 3
6 4 2 1 5 7 3
3 6 7 2 4 1 5
4 1 3 5 2 6 7
7 2 4 6 1 3 5
4 2 6 3 5 7 1
2 3 1 7 4 5 6
6 4 2 7 5 3 1
5 6 4 7 1 3 2
4 2 3 5 7 1 6
3 4 2 5 7 1 6
7 2 4 1 5 6 3
3 7 2 4 6 1 5
1 6 2 7 5 3 4
2 7 3 5 4 1 6
3 6 7 4 1 5 2
1 2 3 5 6 7 4
5 6 1 4 3 2 7
3 2 5 6 7 4 1
6 5 7 4 3 1 2

4
Linda Barber
Carla Livingston
Lindsey Oleson
Larry Livingston
3 4 1 2
1 3 2 4
3 4 2 1
3 4 1 2
2 3 1 4
2 1 4 3
4 1 2 3
3 4 1 2
3 1 4 2
1 3 4 2
2 1 3 4
3 2 4 1
1 3 4 2
4 3 2 1
1 3 4 2
4 3 2 1
1 2 3 4
2 1 4 3
3 4 2 1
4 2 3 1
2 3 1 4
2 1 3 4
2 1 4 3
4 1 2 3
4 1 3 2
4 1 2 3
1 3 4 2
2 1 4 3
4 1 2 3
4 3 1 2
3 1 4 2
4 3 2 1
2 1 3 4
1 2 4 3
1 4 2 3
2 1 4 3
4 2 3 1

7
Carla Mead
Roland Hancock
Daniel Maynard
Roland Henson
Morgan Shay
Cesar Rubio
Roland Benson
6 3 2 5 4 1 7
7 4 1 5 6 3 2
1 7 6 4 2 5 3
4 5 6 2 7 1 3
3 5 2 1 6 4 7
6 2 3 4 1 5 7
1 7 5 6 3 2 4
2 5 6 4 1 7 3
3 5 6 1 4 7 2
3 4 5 6 7 1 2
2 5 7 1 3 4 6
2 4 5 1 7 3 6
3 1 5 2 4 7 6
2 5 3 1 7 4 6
7 3 1 4 5 2 6
6 4 7 2 5 3 1
1 4 3 2 6 7 5
4 2 5 6 3 1 7
2 6 3 7 4 5 1
7 2 6 1 3 5 4
4 6 3 5 2 1 7
2 1 4 5 7 6 3
3 2 5 6 7 1 4
7 5 4 1 2 3 6

9
Tracie Hardin
Carla Bright
Clark Mercer
Kris Mercer
Kris Steward
Cesar Benson
Kelsey Henson
Kris Dodson
Vanessa Russell
7 1 5 9 3 4 6 2 8
6 4 7 1 2 9 8 3 5
1 4 8 5 9 3 2 7 6
6 7 9 3 5 4 2 8 1
7 4 1 6 8 2 3 9 5
6 9 8 1 4 3 2 5 7
4 2 7 8 6 5 9 3 1
5 3 1 8 9 6 4 7 2
6 8 5 2 1 3 7 9 4
4 1 8 9 2 5 7 6 3
6 9 2 5 3 4 8 7 1
1 2 8 3 4 7 5 6 9
5 6 3 2 9 8 1 4 7
8 1 4 7 3 9 2 5 6
9 7 4 8 1 5 3 2 6
6 4 8 1 3 2 9 5 7
7 6 2 5 4 8 3 1 9
1 3 2 6 4 9 7 5 8
2 5 3 4 9 7 8 1 6
3 6 4 2 1 5 7 8 9

4
Michael Rivers
Vanessa North
Daniel Russell
Michael Hancock
3 1 2 4
1 2 3 4
2 3 4 1
3 2 1 4
1 4 2 3
4 2 3 1
1 4 2 3
4 3 2 1
3 1 4 2
3 1 2 4
4 2 1 3
4 1 2 3
1 2 4 3
4 2 1 3
4 1 2 3
4 2 3 1
4 1 3 2
2 1 3 4
2 4 3 1
3 1 4 2
3 1 2 4
1 2 4 3
3 1 4 2
4 2 1 3
4 3 1 2
2 3 1 4
2 1 4 3
2 4 3 1
3 2 1 4
3 4 2 1
2 4 3 1
1 2 3 4
4 3 2 1
3 2 4 1

9
Lindsey Oleson
Lindsey Steward
Angelina Oleson
Angelina Carver
Celia Bright
Larry Delgado
Angelina Jefferson
Carla North
Celia Russell
8 3 4 2 6 1 9 7 5
7 9 6 2 4 3 1 5 8
4 1 3 7 9 8 5 2 6
8 4 1 5 9 7 6 2 3
8 6 7 4 9 1 2 5 3
9 7 6 4 3 2 8 1 5
5 8 3 1 6 2 4 9 7
5 8 2 9 4 6 7 3 1
9 5 8 4 1 6 3 7 2
4 5 9 7 8 3 6 2 1
2 1 8 7 3 9 4 5 6
3 9 4 1 2 5 7 6 8
9 3 8 5 7 2 6 4 1
5 6 2 8 3 4 9 1 7
9 7 6 4 5 2 1 8 3
8 5 1 9 3 6 4 2 7
3 7 1 4 5 2 8 6 9
2 9 7 6 8 3 5 4 1
7 8 4 3 1 5 9 6 2
5 3 8 4 6 1 9 7 2

8
Lindsey Benson
Loretta Steward
Linda Jefferson
Lisa Barber
Edward Steward
Linda O'Connel
Clark Mueller
Linda Hardin
7 2 4 5 8 1 6 3
6 4 8 7 2 3 5 1
3 4 1 7 8 6 2 5
3 6 4 1 5 2 8 7
8 3 5 1 4 6 7 2
8 7 6 5 4 1 2 3
3 6 1 4 5 8 2 7
4 3 7 6 8 1 2 5
8 6 2 1 3 7 5 4
5 2 7 1 6 8 4 3
3 7 8 6 4 2 5 1
3 1 7 6 8 4 2 5
6 1 8 5 2 7 4 3
2 7 5 8 1 4 3 6
4 3 5 8 2 1 7 6
3 4 2 7 1 5 8 6
8 7 5 1 6 3 2 4
2 8 6 4 5 1 3 7
4 7 3 8 1 6 2 5
4 8 3 5 1 2 6 7
1 3 8 6 4 7 2 5
5 3 4 8 2 1 7 6
4 7 8 2 1 6 3 5
6 7 3 1 2 4 8 5
6 3 1 4 7 8 5 2
8 1 7 3 6 4 2 5
2 3 5 6 1 4 7 8
3 6 2 8 7 4 1 5
7 6 5 4 1 2 8 3
1 2 8 7 3 4 6 5
1 7 4 5 2 3 8 6
6 1 3 8 7 5 4 2

5
Tracie Moyer
Chelsea Shay
Clark Bright
Linda Jefferson
Michael Henson
2 3 1 5 4
5 4 1 2 3
4 3 5 1 2
4 2 5 3 1
2 3 5 4 1
1 3 2 5 4
4 5 3 1 2
2 1 5 3 4
2 5 3 4 1
2 3 4 5 1
5 3 1 2 4
2 1 5 3 4
5 4 2 1 3
2 4 5 3 1
5 3 1 4 2
2 5 4 1 3
3 1 5 2 4
2 1 4 5 3
2 4 5 1 3
3 2 5 4 1
2 1 4 5 3
4 3 5 1 2
4 3 5 2 1
3 2 4 5 1
2 3 4 1 5
1 4 2 3 5
5 4 2 1 3
2 3 4 5 1
4 3 2 1 5
2 4 1 5 3
4 2 1 3 5
2 3 1 4 5
1 4 3 2 5
2 5 1 4 3
5 4 1 3 2
1 5 3 4 2
3 5 4 1 2
3 4 1 2 5
3 1 2 5 4
1 4 2 5 3
1 3 5 4 2
5 3 4 2 1
3 5 1 4 2
1 4 3 2 5
4 5 3 1 2
5 1 2 4 3

7
Cesar Paul
Maria Jefferson
Loretta Rivers
Larry Steward
Caitlin Dodson
Lindsey Rivers
Tracie Mueller
1 4 5 6 2 3 7
2 5 6 4 1 3 7
4 2 7 1 3 5 6
6 5 3 7 2 4 1
6 5 7 3 4 2 1
5 1 7 3 2 6 4
2 5 4 6 1 3 7
3 4 6 2 1 5 7
5 1 6 4 7 2 3
1 3 4 6 7 2 5
3 6 7 1 4 2 5
5 3 4 1 7 6 2
6 5 1 2 3 4 7
6 3 5 1 2 4 7
5 4 1 6 3 2 7
4 5 3 2 7 6 1
5 7 6 1 4 2 3
4 1 5 2 3 7 6
6 2 7 1 3 4 5
2 4 1 3 5 7 6
5 1 4 3 2 6 7
6 2 5 1 7 4 3
5 2 3 1 6 4 7
2 7 4 3 6 5 1
6 3 4 2 1 5 7
7 2 5 6 4 3 1
1 2 7 5 4 6 3
1 3 6 7 5 4 2
5 3 2 4 7 1 6
1 6 3 7 2 4 5
2 3 6 7 5 1 4
4 2 6 7 5 3 1
6 7 5 3 4 2 1
4 1 5 6 3 7 2
1 2 3 6 5 4 7
4 1 3 2 5 7 6
3 7 4 5 1 6 2
3 1 2 5 7 4 6
2 7 5 4 1 6 3
1 3 5 7 6 4 2
2 1 7 3 4 6 5
6 5 1 3 4 2 7
6 1 4 3 2 5 7
5 1 4 7 6 2 3
4 7 6 3 1 2 5
2 5 3 6 4 7 1

5
Loretta Goodwin
Carla O'Connel
Marie Moyer
Linda O'Connel
Edward Steward
5 1 3 2 4
5 1 4 2 3
2 4 5 3 1
2 1 3 5 4
3 5 2 1 4
3 1 4 5 2
3 5 1 4 2
3 1 5 4 2
5 3 2 4 1
3 2 4 5 1
5 4 3 1 2
2 5 3 1 4
4 3 5 1 2
3 4 1 5 2
3 4 1 2 5
1 4 3 2 5
1 3 5 4 2
1 3 4 5 2
4 2 1 5 3
5 3 1 4 2
2 3 5 1 4
1 4 2 5 3
2 4 3 1 5
3 5 2 1 4
1 3 2 5 4
2 5 1 3 4
2 5 4 3 1
1 3 5 4 2
5 4 1 3 2
4 5 1 2 3
1 4 2 3 5
5 1 4 3 2
3 1 5 4 2
5 2 3 1 4
2 3 1 5 4
5 4 2 1 3
3 5 2 4 1
5 2 3 4 1
3 4 5 2 1
1 4 5 3 2
3 1 4 5 2
3 1 4 2 5
2 4 3 5 1
2 1 4 3 5
3 5 4 2 1
2 3 4 5 1

5
Morgan Oleson
Clark O'Connel
Larry Goodwin
Edward Paul
Vanessa Maynard
3 4 1 5 2
1 4 3 2 5
3 4 1 5 2
3 4 5 1 2
2 1 5 3 4
3 1 5 2 4
1 2 4 5 3
5 1 3 2 4
5 2 1 4 3
4 2 1 3 5
2 4 5 3 1
1 4 5 3 2
2 5 4 1 3
2 4 3 5 1
2 1 4 5 3
4 2 5 1 3
1 3 2 5 4
3 1 5 2 4
5 2 4 1 3
5 4 1 3 2
5 4 2 3 1
2 4 5 3 1
3 2 4 1 5
5 1 2 4 3
4 1 2 3 5
5 1 3 2 4
2 3 5 1 4
2 3 5 1 4
4 2 3 5 1
2 4 5 3 1
5 3 2 4 1
5 1 4 3 2
2 3 1 5 4
2 4 1 5 3
5 3 1 4 2
1 5 3 2 4
3 2 5 4 1
4 2 3 5 1
4 2 3 5 1
4 3 2 1 5
2 4 3 5 1
5 1 2 3 4
3 5 1 4 2
3 2 1 5 4
5 2 4 1 3
3 5 4 1 2
3 2 4 1 5
5 1 3 2 4

5
Erick Maynard
Maria Oleson
Maria Moyer
Vanessa Barber
Maria Hancock
2 4 1 5 3
1 3 2 5 4
5 1 4 2 3
5 1 4 3 2
3 4 2 5 1
2 4 3 5 1
2 5 1 4 3
3 1 2 4 5
2 4 3 5 1
5 3 4 2 1
4 5 1 3 2
3 5 1 4 2
3 1 5 4 2
2 4 5 1 3
2 4 3 5 1
4 2 5 1 3
1 2 5 3 4
5 2 4 3 1
2 3 5 1 4
1 2 3 4 5
5 3 2 1 4
1 5 2 4 3
1 5 4 2 3
5 3 1 2 4
3 1 2 4 5
5 2 3 4 1
5 1 3 2 4
1 4 3 2 5
4 5 2 1 3
3 2 5 4 1
2 1 3 4 5
4 2 3 1 5
5 1 4 2 3
2 4 3 1 5
2 1 4 5 3
2 3 1 5 4

4
Roland O'Connel
Roland Mead
Morgan Maynard
Daniel Carver
2 4 1 3
2 1 3 4
3 4 1 2
3 2 1 4
2 4 3 1
4 2 3 1
3 4 1 2
4 1 2 3
3 4 2 1
1 4 2 3
4 3 1 2
4 2 3 1
1 4 2 3
1 2 3 4
1 2 4 3
2 1 4 3
3 2 4 1
2 3 1 4
2 4 1 3
2 1 3 4
1 3 4 2
4 3 1 2
2 1 4 3
1 3 2 4
2 4 1 3
1 4 2 3
2 4 3 1
3 2 4 1
4 2 1 3
2 3 4 1
4 1 3 2
4 3 1 2
3 4 2 1
3 4 1 2
1 3 4 2

7
Linda Shay
Cesar O'Connel
Roland Proctor
Carla Goodwin
Erick Barber
Erick Russell
Roland Dodson
5 3 4 6 2 1 7
4 1 7 2 6 3 5
2 3 4 5 6 1 7
4 5 7 3 2 1 6
7 6 5 3 2 4 1
7 2 4 5 6 1 3
7 2 1 6 3 4 5
7 6 2 5 1 4 3
7 5 2 3 6 4 1
1 7 6 3 5 4 2
6 5 3 1 4 2 7
7 2 1 5 4 3 6
1 4 6 3 5 2 7
1 4 6 5 7 2 3
5 6 2 4 3 1 7
1 2 4 6 3 7 5
5 4 1 7 6 3 2
2 4 3 6 1 7 5
5 1 6 3 4 7 2
1 4 7 5 6 3 2
7 2 4 6 5 3 1
4 1 2 7 3 6 5
1 6 4 5 2 7 3
4 7 2 5 6 1 3
7 5 3 1 2 4 6
5 1 7 2 6 4 3
6 4 5 1 2 7 3
1 4 2 3 5 6 7
4 1 5 2 7 6 3

9
Larry Hancock
Maria Mueller
Michael Paul
Floyd Benson
Edward Bright
Daniel Delgado
Lindsey Russell
Delgado Proctor
Caitlin Hancock
2 9 1 3 4 8 6 5 7
4 3 7 5 8 1 2 9 6
2 5 4 6 9 3 7 1 8
1 3 9 2 8 4 5 7 6
5 8 3 6 4 1 7 2 9
1 8 3 9 6 2 4 7 5
8 1 9 5 2 4 7 6 3
2 1 3 6 4 7 8 5 9
2 6 4 7 9 1 8 3 5
8 3 9 1 5 4 2 6 7
9 8 7 2 3 4 5 6 1
4 9 2 7 3 8 5 1 6
2 7 6 8 5 4 3 1 9
7 1 6 4 8 9 3 2 5
1 2 4 6 3 7 9 5 8
8 9 1 2 4 3 7 6 5
5 1 7 8 4 9 6 2 3
9 3 2 5 1 7 4 8 6
3 4 9 1 5 6 7 8 2
4 7 8 5 6 9 2 1 3
8 1 6 7 4 9 3 2 5
3 4 1 9 5 8 6 7 2
5 6 8 9 3 4 2 7 1
7 5 6 9 4 1 2 8 3
7 6 3 2 4 8 1 5 9
5 1 9 4 2 6 3 8 7
5 6 1 4 3 9 2 8 7
1 5 3 9 7 2 6 4 8
5 4 9 3 8 1 7 2 6
9 3 6 1 8 7 4 2 5
1 7 3 4 9 2 5 6 8

4
Lisa Bright
Lindsey Shay
Roland Rubio
Chelsea Hancock
3 2 1 4
3 2 4 1
1 3 2 4
2 1 4 3
2 3 4 1
4 1 2 3
3 1 4 2
1 4 3 2
3 2 1 4
3 2 1 4
3 1 4 2
4 3 2 1
3 1 2 4
1 2 4 3
1 2 3 4
1 3 2 4
3 4 2 1
2 4 1 3
2 4 3 1
1 3 4 2
4 3 2 1
2 4 1 3
3 1 2 4
4 1 3 2
3 2 1 4
3 2 1 4
1 2 3 4
1 4 3 2
1 3 4 2
2 4 3 1
3 1 2 4
1 3 2 4

5
Edward Steward
Vanessa Mercer
Angelina Rubio
Cesar Cross
Lindsey Henson
2 5 4 3 1
5 2 3 4 1
1 3 5 2 4
4 1 2 3 5
5 1 4 2 3
4 1 3 2 5
5 4 2 1 3
4 5 3 2 1
4 1 5 3 2
3 1 2 4 5
1 5 4 3 2
1 4 3 2 5
3 1 2 5 4
3 4 2 5 1
1 5 4 2 3
4 5 3 1 2
3 5 2 4 1
1 5 3 2 4
4 2 1 5 3
1 3 5 4 2
2 3 1 5 4
2 3 1 5 4
3 1 5 2 4
3 2 5 4 1
3 2 4 1 5
2 3 5 4 1
2 3 1 5 4
3 4 2 1 5
2 3 1 5 4
5 2 3 1 4
2 1 5 4 3
4 3 5 1 2
2 3 5 4 1
2 3 1 4 5
5 3 2 1 4
5 2 1 4 3
3 5 2 4 1
2 4 3 5 1
1 3 4 2 5
1 3 4 5 2
5 2 1 4 3
1 4 2 3 5
4 3 2 1 5
2 1 5 3 4
3 2 5 1 4
3 1 4 5 2
2 5 1 3 4
5 1 4 2 3
2 1 4 5 3
2 1 3 5 4

5
Edward Mead
Roland Carver
Lisa Mercer
Maria Hardin
Lindsey Delgado
3 2 5 1 4
3 2 1 4 5
5 4 1 2 3
4 2 1 3 5
1 2 4 5 3
1 5 3 4 2
5 3 4 2 1
5 3 2 1 4
3 2 1 4 5
3 1 4 5 2
1 3 2 4 5
5 3 2 4 1
3 4 5 1 2
5 3 1 4 2
4 3 2 5 1
5 3 1 2 4
3 4 5 1 2
5 3 4 2 1
1 3 2 5 4
3 4 2 5 1
3 2 1 4 5
1 2 4 3 5

6
Maria Proctor
Maria Henson
Angelina Dodson
Daniel Rubio
Roland Maynard
Angelina Oleson
4 3 5 2 1 6
4 2 3 5 6 1
5 2 6 3 1 4
5 3 6 2 4 1
2 4 5 1 3 6
4 5 2 3 1 6
2 6 1 3 4 5
5 6 4 1 3 2
1 3 5 2 4 6
3 2 6 1 4 5
3 6 5 2 4 1
3 1 5 2 4 6
6 1 2 3 4 5
2 5 4 3 1 6
1 5 2 3 4 6
4 5 6 2 3 1
4 3 1 6 5 2
6 4 3 1 5 2
6 5 4 3 2 1
2 4 3 6 5 1
2 6 3 1 4 5
5 1 3 6 4 2
3 5 6 2 4 1
2 6 3 5 4 1
3 2 5 4 6 1
1 3 5 2 4 6
6 4 5 1 3 2
3 5 4 6 2 1
2 4 3 5 1 6
5 1 6 4 3 2
6 4 5 3 1 2

6
Michael Mead
Celia Mueller
Julian Proctor
Marie Mead
Linda Jefferson
Chelsea Benson
5 2 6 1 4 3
4 2 5 6 1 3
3 1 4 2 5 6
6 3 2 1 5 4
3 4 2 6 5 1
1 2 3 6 5 4
6 4 5 2 3 1
2 3 6 5 4 1
6 2 3 5 4 1
1 4 6 2 3 5
5 2 6 3 1 4
2 3 1 6 5 4
6 2 1 5 3 4
2 3 6 5 4 1
3 4 6 1 5 2
4 3 6 5 1 2
1 4 5 6 2 3
1 5 3 2 4 6
4 3 6 1 2 5
3 5 6 2 4 1
4 2 5 6 3 1
4 5 1 6 3 2
2 3 4 6 5 1
1 6 4 3 5 2
3 6 2 1 4 5
4 3 1 5 6 2
5 3 6 1 4 2
5 6 2 4 3 1
3 4 5 1 6 2
2 5 4 3 6 1

6
Angelina Jefferson
Roland Cross
Clark Barber
Morgan Delgado
Morgan Hancock
Kris Jefferson
2 6 5 4 1 3
5 1 2 6 4 3
4 5 6 3 1 2
5 6 2 3 4 1
4 3 2 5 6 1
6 5 3 2 1 4
5 1 4 2 3 6
4 6 5 3 2 1
4 6 2 5 3 1
3 6 5 1 2 4
3 5 6 4 1 2
2 4 6 3 5 1
2 6 3 1 5 4
1 6 4 5 2 3
5 3 1 4 6 2
2 1 6 3 5 4
4 6 3 5 1 2
6 4 2 5 1 3
2 1 3 4 5 6
6 3 2 4 5 1
5 1 3 4 6 2
6 5 3 2 4 1
1 3 4 5 6 2
2 5 3 4 1 6
1 6 5 4 3 2
5 4 2 3 6 1
4 1 3 6 5 2
1 3 2 4 5 6
6 4 1 5 3 2
6 4 3 5 2 1
4 3 5 2 6 1
2 3 6 1 4 5
3 5 4 2 6 1

4
Larry Carver
Edward Steward
Celia Maynard
Loretta Mueller
2 1 4 3
3 4 1 2
4 3 2 1
1 4 2 3
3 2 1 4
2 4 1 3
3 1 4 2
2 3 1 4
1 2 3 4
4 3 1 2
4 1 2 3
3 4 1 2
3 1 2 4
3 4 2 1
4 2 3 1
4 2 1 3
3 2 4 1
2 1 4 3
2 1 3 4
3 1 4 2
1 4 3 2
2 4 1 3
3 4 2 1
2 4 3 1
2 4 3 1
3 2 1 4
1 4 2 3
1 4 3 2
3 1 2 4
3 1 4 2
4 2 1 3

6
Edward Oleson
Linda Oleson
Floyd Proctor
Celia Rubio
Caitlin Livingston
Chelsea Carver
3 6 2 1 5 4
5 2 6 4 1 3
4 6 2 1 3 5
2 6 5 1 4 3
6 5 1 4 3 2
5 2 4 1 6 3
4 6 1 3 2 5
3 5 2 4 6 1
5 3 2 1 4 6
1 5 6 3 2 4
5 3 1 2 4 6
4 6 1 2 5 3
2 5 4 6 3 1
5 3 6 4 1 2
3 6 2 4 5 1
2 3 6 1 5 4
6 1 3 5 4 2
1 4 6 5 3 2
1 4 5 6 3 2
4 3 1 5 2 6
6 3 1 5 4 2
4 2 3 1 6 5
5 4 3 1 6 2
6 2 5 1 3 4
3 2 6 1 5 4
4 3 1 5 2 6
3 6 1 2 4 5
2 4 6 1 5 3
4 2 1 6 3 5
1 6 2 3 4 5
5 1 6 2 4 3
4 5 3 1 6 2
5 6 3 2 4 1
2 4 3 5 6 1
2 3 6 4 1 5
5 1 6 2 4 3
6 5 2 1 4 3
4 3 1 6 5 2
1 6 5 4 3 2
1 5 3 4 2 6
5 4 1 3 2 6
5 1 2 4 3 6
2 5 6 3 4 1
6 4 3 1 5 2
5 3 6 2 4 1
3 2 4 1 6 5
1 4 5 6 3 2
3 2 6 5 4 1
5 4 2 3 1 6

5
Carla Mueller
Daniel Barber
Linda Carver
Julian Russell
Larry Barber
3 4 1 2 5
1 4 3 2 5
1 4 3 5 2
5 4 1 2 3
2 5 4 3 1
2 1 5 4 3
3 1 5 4 2
1 5 3 4 2
3 2 1 5 4
5 1 3 4 2
2 1 4 3 5
2 5 1 4 3
3 5 2 1 4
3 5 2 1 4
2 4 5 3 1
4 3 5 1 2
5 3 4 2 1
3 5 4 1 2
2 3 4 5 1
2 3 1 5 4
3 1 2 4 5
1 5 4 3 2
1 3 2 4 5
1 4 5 2 3
2 5 4 1 3
3 1 5 2 4
3 4 5 2 1
4 2 5 1 3
5 2 3 1 4
1 4 5 2 3
3 5 2 1 4
2 1 4 5 3
2 3 5 1 4
3 1 5 2 4
5 4 1 2 3
2 4 1 3 5
4 1 2 5 3
1 3 4 5 2
2 4 1 3 5
3 5 4 1 2
4 2 1 5 3
3 4 2 5 1
2 4 5 1 3
2 3 1 5 4
2 4 1 3 5
5 2 4 3 1
4 1 2 3 5
2 3 1 4 5

6
Larry Delgado
Julian Benson
Celia Jefferson
Delgado Steward
Maria Rivers
Delgado Delgado
1 4 6 2 5 3
2 3 6 4 1 5
5 6 1 2 3 4
3 4 6 5 2 1
4 1 6 2 3 5
3 2 4 1 5 6
6 2 1 5 3 4
6 1 5 2 3 4
5 1 6 4 3 2
6 4 1 5 3 2
2 4 6 5 1 3
4 3 1 2 5 6
2 6 1 3 5 4
2 4 5 1 3 6
1 6 4 5 3 2
1 5 4 3 2 6
5 1 4 2 6 3
2 3 1 6 4 5
6 2 4 5 1 3
2 5 1 6 4 3
5 1 3 6 2 4
2 4 3 1 6 5
6 1 5 3 2 4
3 5 4 2 1 6
2 3 6 5 4 1
5 4 3 6 1 2
3 5 1 4 6 2
4 2 6 5 3 1
2 4 6 5 3 1
1 3 6 5 2 4
6 5 4 2 3 1
1 5 6 3 4 2
4 5 1 2 3 6
4 3 5 1 2 6
4 1 6 2 3 5
3 6 1 2 4 5
6 5 2 4 3 1
2 6 3 4 5 1
2 1 6 4 3 5
2 3 6 1 5 4
6 3 1 4 5 2
1 3 4 5 6 2
6 2 1 4 3 5
6 2 5 3 1 4
6 1 5 4 2 3
2 6 5 3 1 4

8
Morgan Barber
Julian Moyer
Loretta Maynard
Linda Rivers
Michael Hardin
Loretta Jefferson
Clark Mead
Celia Russell
4 2 3 1 8 5 6 7
3 2 6 8 4 5 1 7
7 4 2 5 8 1 6 3
8 3 5 7 1 6 4 2
1 5 6 2 7 8 4 3
7 6 4 3 8 1 2 5
2 5 3 7 1 6 4 8
2 6 4 8 7 3 5 1
5 3 4 7 2 1 8 6
6 7 4 2 3 8 5 1
2 5 3 4 6 7 1 8
5 6 1 7 8 3 2 4
7 5 6 3 4 8 1 2
1 7 3 6 4 8 5 2
2 8 5 7 4 1 3 6
2 7 5 1 8 4 6 3
5 8 3 2 7 1 4 6
1 3 4 5 6 8 2 7
7 1 6 2 8 5 3 4
1 8 6 5 4 7 3 2
8 1 5 6 2 7 4 3
1 3 5 8 7 4 2 6
6 4 5 8 2 7 1 3
7 2 1 3 4 5 8 6
8 7 1 6 2 5 3 4
4 6 8 7 3 2 1 5
8 6 2 7 1 5 3 4
3 4 7 1 8 2 6 5
8 5 4 6 3 2 7 1
2 1 3 8 5 7 4 6
8 1 4 2 5 7 3 6
2 7 6 3 8 1 4 5
8 6 3 2 4 5 7 1
4 3 6 5 1 7 2 8
2 3 1 7 5 6 4 8
6 8 7 4 3 1 2 5
7 8 1 2 6 5 3 4
8 1 3 2 7 6 4 5
3 2 1 4 6 5 7 8

4
Marie Bright
Carla Dodson
Carla Dodson
Michael Bright
3 1 4 2
4 1 2 3
3 4 1 2
2 4 3 1
2 3 4 1
1 4 2 3
3 1 2 4
2 3 1 4
1 4 2 3
4 2 1 3
3 2 4 1
3 4 1 2
3 2 1 4
1 4 2 3
1 2 4 3
2 1 3 4
3 2 4 1
2 3 4 1
3 4 2 1
1 4 2 3
1 3 2 4
2 3 4 1
1 2 3 4
4 1 2 3
4 1 3 2
2 1 4 3

6
Carla Dodson
Vanessa Proctor
Michael Steward
Floyd Steward
Kelsey North
Floyd Maynard
4 1 6 2 5 3
4 2 6 5 1 3
6 4 1 2 3 5
6 3 5 1 2 4
1 2 3 6 5 4
1 6 5 3 4 2
3 2 1 6 4 5
1 6 2 5 3 4
2 4 6 1 3 5
6 5 1 3 4 2
4 5 6 3 2 1
4 2 1 3 5 6
5 6 2 1 3 4
4 3 2 1 6 5
2 1 5 4 3 6
1 2 3 6 5 4
5 3 6 2 4 1
3 6 1 4 2 5
6 4 2 5 1 3
4 3 6 1 5 2
1 5 4 6 2 3
4 5 6 2 3 1
6 3 2 5 4 1
3 4 2 5 6 1
4 2 3 1 5 6
5 2 4 6 1 3
5 3 6 2 1 4
6 5 3 2 4 1
6 4 1 5 2 3
6 4 1 5 2 3
4 3 6 2 5 1
2 6 4 1 5 3
3 4 6 2 1 5
3 4 6 1 5 2
6 3 1 5 4 2

6
Carla Dodson
Roland Russell
Maria Mercer
Caitlin Oleson
Edward Mead
Carla Goodwin
4 2 5 3 1 6
5 4 3 2 6 1
5 4 2 6 1 3
2 4 5 1 6 3
6 5 2 3 1 4
3 4 6 2 1 5
3 1 5 2 4 6
3 1 2 6 4 5
1 2 4 5 6 3
4 2 3 6 5 1
3 6 1 4 2 5
4 5 1 3 2 6
2 4 6 1 5 3
1 6 3 2 5 4
3 5 4 2 6 1
1 3 5 2 4 6
5 6 1 4 2 3
5 4 2 1 6 3
3 1 2 4 6 5
3 2 5 1 4 6
3 4 2 6 5 1
2 1 4 5 3 6
6 2 3 4 1 5
1 2 3 5 4 6
4 5 2 3 1 6
1 3 4 5 2 6
5 2 4 3 6 1
2 1 4 3 6 5
3 6 1 4 2 5
3 4 2 5 6 1
4 3 5 6 1 2
1 6 3 2 5 4
3 2 5 4 1 6
6 1 4 5 3 2
2 5 6 4 1 3

8
Daniel Rivers
Delgado Delgado
Angelina Hardin
Kelsey Hancock
Maria Paul
Celia Carver
Loretta Hancock
Roland O'Connel
7 3 8 6 2 4 5 1
7 1 4 2 8 6 3 5
7 5 4 1 3 2 8 6
8 3 2 1 7 6 4 5
4 5 6 3 7 2 8 1
1 3 7 6 5 8 4 2
8 7 3 2 6 4 5 1
8 1 7 6 5 2 4 3
3 6 1 2 4 5 8 7
8 7 1 5 6 3 4 2
2 5 6 7 3 4 8 1
7 6 8 5 4 3 1 2
2 8 1 3 6 4 5 7
4 6 7 3 1 2 8 5
1 2 7 5 6 3 4 8
2 1 3 4 8 5 6 7
3 4 5 6 7 8 2 1
4 6 7 1 8 5 3 2
8 4 6 3 2 5 7 1
3 6 2 7 1 4 5 8
1 2 7 5 3 8 4 6
3 8 6 4 2 5 1 7
5 7 1 8 4 3 6 2
4 7 8 1 5 2 3 6
4 8 7 3 1 5 2 6
7 1 8 6 2 4 3 5
7 3 2 6 5 1 8 4
6 1 5 2 8 4 3 7
6 8 7 4 2 5 1 3
7 3 4 6 2 8 5 1
6 4 2 7 3 8 5 1
1 7 2 5 8 3 4 6

5
Cesar Dodson
Loretta Mueller
Caitlin Maynard
Kelsey Cross
Celia Hancock
4 3 1 5 2
2 4 1 5 3
4 2 3 5 1
1 5 4 2 3
2 4 3 1 5
4 3 5 1 2
1 5 3 2 4
5 4 3 1 2
1 4 5 3 2
2 5 3 1 4
2 3 1 4 5
2 4 5 3 1
4 1 5 2 3
3 1 5 4 2
5 2 3 1 4
3 2 4 1 5
4 1 5 3 2
5 3 4 2 1
4 1 3 5 2
3 5 2 1 4
2 4 1 3 5
1 5 4 2 3

7
Edward Dodson
Roland Barber
Carla North
Vanessa Rubio
Cesar Benson
Daniel Shay
Caitlin Steward
1 5 2 6 7 4 3
7 1 2 3 4 6 5
3 7 1 5 4 6 2
4 5 1 6 2 3 7
2 5 3 6 1 7 4
2 3 5 1 6 4 7
4 6 5 7 2 3 1
6 3 5 1 2 4 7
5 4 1 2 7 3 6
2 6 3 4 1 5 7
6 4 5 3 2 1 7
5 4 7 2 6 1 3
5 1 7 4 3 2 6
7 3 1 5 6 2 4
4 1 6 3 7 5 2
2 1 6 4 5 7 3
2 1 5 7 6 3 4
1 5 7 4 2 6 3
7 2 5 3 6 4 1
4 5 3 7 6 2 1
6 7 2 4 3 5 1
7 4 3 5 2 6 1
2 6 4 3 1 7 5
5 3 4 6 1 2 7
4 3 7 1 2 6 5
2 4 1 7 5 6 3
6 7 2 1 3 5 4
4 7 5 6 3 2 1
3 6 2 7 4 5 1
1 5 2 4 6 3 7
6 4 7 3 5 1 2
7 4 1 2 6 3 5
5 4 1 3 6 2 7

4
Celia Dodson
Celia Mercer
Marie Bright
Erick Mead
3 4 1 2
4 3 1 2
4 3 2 1
4 1 3 2
1 3 4 2
1 4 3 2
2 1 3 4
1 4 3 2
2 3 4 1
2 4 3 1
4 1 2 3
1 4 3 2
4 3 2 1
4 3 2 1
3 1 2 4
4 3 1 2
4 2 3 1
1 2 4 3
4 3 2 1
4 1 2 3
1 2 4 3
2 4 3 1
2 4 3 1
1 3 2 4
2 1 4 3
2 1 3 4
2 3 4 1
4 3 2 1
3 2 1 4
2 3 4 1
3 1 2 4
3 1 2 4
4 2 3 1
1 2 4 3
1 2 3 4
3 2 4 1
2 1 4 3
3 4 1 2
4 1 3 2
4 2 3 1
2 1 4 3
3 1 4 2
1 4 2 3
2 3 1 4
2 1 3 4

5
Tracie Mueller
Lindsey Barber
Vanessa Mueller
Chelsea Delgado
Carla Jefferson
3 1 2 5 4
5 1 3 4 2
4 2 5 1 3
1 4 5 2 3
2 4 5 3 1
3 4 5 2 1
1 5 4 3 2
2 3 4 1 5
2 1 5 4 3
1 3 4 5 2
5 1 4 2 3
1 4 5 3 2
3 4 2 5 1
2 5 4 3 1
1 4 5 3 2
5 3 1 4 2
1 4 3 5 2
5 1 4 2 3
4 2 5 3 1
2 3 1 4 5
1 5 3 2 4
3 5 1 4 2
4 2 1 3 5
4 5 3 1 2
4 1 5 3 2
3 5 2 1 4
4 2 3 5 1
5 3 4 2 1
4 2 5 3 1
2 1 5 3 4
5 2 3 1 4
1 4 5 3 2
1 5 2 4 3
2 4 5 3 1
5 1 4 3 2
1 3 4 5 2
4 5 3 2 1
5 2 4 3 1
4 2 3 5 1
3 4 1 2 5

9
Julian Mueller
Loretta Hardin
Edward O'Connel
Larry Paul
Maria Rubio
Caitlin North
Morgan Delgado
Maria Jefferson
Loretta Mercer
6 3 5 7 2 9 8 1 4
4 2 7 6 3 5 8 9 1
2 9 5 1 3 6 4 8 7
3 6 2 9 1 7 4 8 5
5 7 6 1 9 3 8 2 4
7 5 3 4 9 2 6 1 8
9 7 3 4 6 2 5 1 8
8 4 6 1 5 9 7 2 3
6 2 1 8 4 9 3 5 7
7 4 5 1 9 2 8 3 6
5 2 6 1 4 7 9 8 3
9 2 5 7 4 3 8 1 6
8 9 7 4 3 5 2 1 6
6 1 5 4 2 8 3 9 7
5 6 9 8 2 3 4 1 7
5 4 3 1 2 9 6 8 7
6 8 2 5 4 3 1 7 9
2 5 8 4 7 9 6 1 3
7 2 9 8 3 5 4 6 1
9 8 4 6 7 1 5 3 2
8 2 9 6 7 4 3 5 1
2 9 7 5 4 8 6 1 3
1 7 3 2 8 4 9 5 6

9
Michael Benson
Roland Cross
Angelina Steward
Maria Hardin
Clark Steward
Clark Moyer
Cesar Maynard
Carla Cross
Lindsey Barber
9 1 3 6 7 4 2 5 8
3 7 5 9 4 8 2 6 1
5 7 8 1 4 6 3 2 9
3 8 1 7 2 9 4 6 5
4 3 7 8 9 6 5 2 1
1 5 8 9 6 7 3 4 2
4 8 1 3 5 2 9 6 7
5 9 4 6 2 8 7 3 1
9 3 5 4 6 7 2 8 1
7 2 6 4 1 9 5 8 3
7 8 1 3 5 2 4 6 9
9 5 1 7 6 2 3 8 4
3 1 7 5 9 8 2 4 6
7 6 2 8 1 4 3 9 5
2 4 9 6 7 5 3 8 1
2 4 7 8 6 3 5 9 1
8 3 7 2 6 5 1 4 9
2 3 6 8 5 9 4 1 7
6 7 9 3 8 2 4 5 1
4 6 1 8 7 5 2 9 3
8 3 2 9 5 6 7 4 1
1 7 4 9 8 2 5 3 6
4 5 1 3 7 2 8 9 6
5 1 9 4 3 6 2 8 7
6 1 2 3 8 4 7 5 9
5 2 8 4 9 3 7 1 6
5 4 9 8 7 6 1 2 3
4 8 7 6 5 1 9 3 2
1 4 7 2 6 3 8 5 9
2 4 3 7 8 6 9 5 1
8 2 4 1 3 6 7 5 9
1 7 3 9 4 8 2 6 5
3 1 5 7 8 2 4 9 6
5 8 2 6 4 1 7 9 3
3 7 6 9 5 1 8 4 2
7 4 5 3 6 8 2 9 1
8 7 6 5 9 2 1 4 3
7 1 4 8 3 9 5 2 6
2 8 5 4 3 1 9 6 7
3 5 9 7 4 8 2 1 6
5 3 8 9 7 1 2 6 4
3 6 9 5 2 8 7 4 1
5 8 2 3 6 7 9 1 4
2 7 4 6 3 9 8 5 1
4 1 5 3 8 6 2 9 7
6 5 2 9 8 3 1 7 4
3 5 2 7 9 8 1 4 6
9 5 4 2 8 3 7 1 6
4 8 6 5 9 2 3 7 1

4
Marie Proctor
Angelina Carver
Lindsey Mercer
Celia O'Connel
3 1 4 2
1 2 4 3
1 4 3 2
4 3 1 2
1 3 2 4
3 4 2 1
2 4 1 3
4 1 3 2
1 4 2 3
3 2 4 1
4 1 3 2
3 1 4 2
3 1 4 2
2 1 4 3
3 1 4 2
2 4 3 1
2 4 3 1
4 1 3 2
4 2 1 3
4 3 1 2
4 2 1 3
2 3 4 1
3 2 1 4
4 1 2 3
1 2 3 4
2 3 4 1
3 4 1 2
4 1 2 3
2 4 1 3
4 2 3 1
3 4 2 1
4 3 2 1
3 2 4 1
4 3 1 2
2 3 1 4
3 1 4 2
2 3 1 4
3 4 2 1
2 4 3 1
2 1 4 3
3 1 4 2
2 4 1 3
3 4 2 1

7
Julian Dodson
Lisa Goodwin
Floyd Hardin
Erick Delgado
Linda Delgado
Kelsey Oleson
Angelina Bright
5 4 1 3 2 6 7
3 7 1 2 5 4 6
2 1 3 4 7 6 5
1 2 6 5 7 4 3
5 6 2 3 1 4 7
3 2 4 5 1 6 7
6 5 2 3 7 4 1
5 4 2 3 1 6 7
7 1 2 5 4 6 3
3 4 5 6 1 7 2
4 7 1 2 5 3 6
5 1 4 6 3 7 2
1 6 5 7 3 2 4
7 1 6 4 3 5 2
2 7 4 6 3 1 5
3 6 5 2 7 4 1
5 1 2 7 3 6 4
5 3 1 2 4 6 7
7 1 5 4 6 3 2
3 4 5 6 2 7 1
2 4 7 6 1 3 5
3 5 6 1 4 7 2
7 2 5 6 3 4 1
1 2 7 5 6 4 3
7 6 5 3 1 4 2
5 1 2 4 7 6 3
2 1 3 6 4 5 7
5 6 3 2 7 4 1
7 6 3 1 4 2 5
6 1 4 2 7 3 5
4 6 5 3 7 1 2
4 6 1 3 5 7 2
6 4 3 2 1 5 7
4 5 2 1 3 7 6
2 3 6 1 4 7 5
7 3 2 5 4 6 1
2 1 7 4 3 5 6
2 7 4 1 3 5 6

8
Kelsey Moyer
Roland O'Connel
Kris Mercer
Edward Mercer
Caitlin Henson
Delgado Jefferson
Chelsea Moyer
Kelsey Shay
4 6 2 8 3 7 5 1
3 1 5 6 7 8 2 4
5 4 3 1 2 8 7 6
4 5 7 8 3 6 2 1
5 3 8 6 7 1 2 4
6 8 1 2 7 3 4 5
4 5 1 8 2 3 6 7
7 4 1 6 8 5 2 3
6 8 4 5 2 3 7 1
2 7 1 6 4 8 3 5
2 3 5 7 8 1 6 4
8 7 6 5 4 1 3 2
3 8 2 7 1 6 5 4
7 1 3 6 8 5 2 4
3 6 7 8 1 5 4 2
2 3 4 6 5 1 7 8
4 2 1 3 6 5 8 7
3 7 4 2 5 1 6 8
3 7 2 6 5 4 8 1
5 8 6 3 7 2 1 4
2 5 3 6 1 7 8 4
7 5 2 4 8 3 6 1
4 1 6 7 3 5 2 8
2 6 5 1 8 7 4 3
2 1 4 6 7 5 8 3
1 3 5 2 6 4 8 7
2 1 6 5 7 3 8 4
6 7 4 8 2 1 3 5
7 3 5 1 8 6 2 4
8 7 4 5 2 1 3 6
2 3 5 1 8 4 7 6

4
Morgan Hancock
Lisa Benson
Angelina Oleson
Maria Carver
1 3 2 4
1 2 4 3
2 1 3 4
1 4 3 2
2 4 1 3
2 4 1 3
2 3 1 4
2 3 4 1
1 2 4 3
3 2 1 4
1 3 2 4
2 3 1 4
3 4 2 1
3 4 2 1
1 3 4 2
1 2 4 3
4 3 2 1
1 4 2 3
4 2 3 1
1 3 4 2
2 3 4 1
4 3 2 1
1 3 4 2
1 4 2 3
2 4 1 3
3 4 2 1
1 2 3 4
1 4 2 3
1 2 3 4
2 4 1 3
2 4 1 3
3 4 1 2
3 4 1 2
3 1 4 2
2 3 1 4
1 2 3 4
1 2 3 4
4 1 3 2
2 4 3 1
1 3 4 2
3 4 2 1
4 2 1 3
3 1 4 2
1 4 3 2
4 3 2 1
4 3 1 2

5
Chelsea Rubio
Delgado Jefferson
Erick O'Connel
Delgado Dodson
Tracie Livingston
3 1 2 5 4
4 1 2 5 3
1 5 3 2 4
5 3 4 2 1
3 4 1 2 5
2 4 3 5 1
4 3 5 1 2
5 4 3 1 2
1 2 4 3 5
4 2 5 1 3
3 1 4 5 2
3 5 1 2 4
3 1 2 5 4
4 3 2 5 1
4 5 2 1 3
1 3 2 4 5
5 2 1 3 4
1 3 2 4 5
2 5 4 3 1
5 4 3 2 1
5 3 1 4 2
3 5 4 1 2
1 5 4 2 3
4 3 2 5 1
5 1 2 3 4
4 3 2 1 5
4 3 1 2 5
5 1 4 3 2
1 4 5 2 3
2 4 1 3 5
2 4 5 3 1

6
Delgado Rubio
Marie Henson
Carla O'Connel
Clark Maynard
Kris Mead
Caitlin Goodwin
4 3 6 5 1 2
1 5 6 3 4 2
1 2 6 3 4 5
4 1 3 2 5 6
5 2 4 1 3 6
3 5 6 4 2 1
4 5 3 1 2 6
6 5 3 2 4 1
1 6 5 2 3 4
5 4 3 1 6 2
3 5 1 4 2 6
1 4 2 3 6 5
2 3 6 5 1 4
2 5 4 6 1 3
2 3 1 5 6 4
6 3 2 5 1 4
5 6 3 4 1 2
3 1 6 5 2 4
1 3 6 4 2 5
6 1 3 2 4 5
4 2 6 5 1 3
2 4 6 1 3 5
5 1 4 2 6 3
5 4 3 1 2 6
5 6 2 4 1 3
4 5 6 2 3 1
1 5 4 3 2 6
3 2 4 6 1 5
1 4 6 3 5 2
3 6 4 1 2 5
4 2 6 3 5 1

7
Floyd Mueller
Loretta Dodson
Roland Steward
Cesar Hancock
Michael Rubio
Morgan Delgado
Kris Hancock
7 3 6 4 1 5 2
7 4 5 1 6 2 3
7 5 3 6 4 1 2
5 1 2 3 6 4 7
3 5 4 2 6 1 7
2 1 7 5 3 6 4
4 1 5 6 3 7 2
6 3 4 2 1 7 5
6 5 3 4 1 2 7
2 6 1 3 4 7 5
7 3 5 6 4 2 1
3 1 4 6 5 7 2
4 1 2 7 6 3 5
6 3 7 1 4 2 5
4 1 5 7 3 6 2
1 2 7 6 4 3 5
3 5 7 6 1 4 2
6 7 3 2 5 4 1
6 5 4 7 2 3 1
5 7 3 4 1 6 2
6 2 5 3 1 4 7
6 5 1 7 4 3 2
3 1 7 6 2 5 4
3 7 6 5 4 1 2
7 1 3 2 4 6 5
3 4 5 2 7 6 1
1 5 2 3 6 7 4
6 7 3 1 4 2 5
6 5 3 2 4 1 7
5 2 4 6 3 1 7
7 3 4 1 2 5 6
3 1 6 2 4 7 5
4 1 3 5 2 7 6

9
Vanessa Russell
Cesar Benson
Clark Livingston
Clark Oleson
Loretta Cross
Kelsey Cross
Kris Hancock
Julian Livingston
Carla Oleson
8 5 1 3 7 9 6 2 4
1 3 4 5 8 2 9 7 6
2 4 1 5 9 3 6 7 8
2 1 9 8 4 3 7 6 5
7 6 2 8 3 1 4 9 5
9 6 3 4 2 5 8 1 7
3 6 2 8 1 5 9 4 7
6 3 1 4 2 9 7 5 8
6 5 7 8 3 2 4 9 1
2 7 9 6 5 4 8 1 3
2 5 6 4 3 9 8 1 7
3 4 7 2 1 8 6 5 9
5 9 6 3 8 1 2 7 4
5 4 3 8 6 1 9 2 7
7 6 2 9 1 5 4 8 3
4 1 7 5 9 2 6 8 3
2 4 5 6 3 8 9 1 7
8 4 3 1 6 2 7 5 9
9 1 6 5 2 3 4 8 7
8 5 2 6 7 3 4 9 1
3 2 6 9 5 4 8 1 7
5 2 8 9 4 3 1 6 7
3 8 9 7 2 1 6 5 4
2 5 6 9 3 1 7 4 8
7 8 5 3 1 2 6 9 4
4 8 9 3 1 7 6 5 2
7 4 1 8 6 5 9 3 2
6 5 8 4 7 3 1 9 2
1 5 4 6 3 9 7 2 8
8 6 1 9 2 4 3 5 7
2 7 3 4 6 1 5 8 9
1 2 8 9 4 7 3 5 6
9 4 1 3 8 7 6 5 2
2 5 8 7 9 3 1 4 6
3 6 8 1 7 9 2 5 4
1 9 2 8 6 3 7 5 4

9
Tracie Goodwin
Edward Proctor
Floyd Rubio
Carla North
Michael Goodwin
Carla Jefferson
Carla Rivers
Larry Mead
Vanessa Proctor
2 1 6 4 7 5 8 9 3
4 3 2 7 5 1 6 9 8
6 5 4 1 9 7 3 8 2
7 1 8 2 5 4 9 6 3
4 9 6 1 2 8 7 3 5
5 8 2 9 1 4 7 3 6
9 3 2 8 5 4 1 6 7
6 7 4 9 3 2 1 8 5
2 7 5 9 6 3 8 4 1
7 1 2 5 3 4 8 6 9
5 3 7 9 6 4 1 8 2
2 5 3 7 8 9 6 1 4
3 2 9 6 7 4 8 5 1
1 9 8 2 3 6 4 7 5
6 8 5 1 9 4 2 3 7
4 9 2 1 3 8 5 7 6
1 3 7 6 9 5 8 2 4
2 1 5 3 9 4 8 7 6
3 8 7 6 9 2 1 5 4
5 3 1 6 4 9 2 8 7
6 3 4 1 5 8 7 2 9
8 4 5 3 7 6 1 2 9
6 1 4 5 2 8 7 3 9
6 2 1 3 4 5 9 7 8
2 7 4 5 3 8 1 9 6
7 9 3 1 6 5 4 8 2
5 2 4 6 1 9 8 3 7
5 6 3 7 4 1 2 8 9
2 5 7 9 4 3 1 6 8
8 5 9 1 7 4 6 2 3
8 9 5 2 4 1 7 6 3
7 5 3 4 8 1 9 2 6
3 9 2 5 7 6 1 4 8
8 4 3 9 5 6 2 1 7
5 2 3 4 8 9 1 7 6
9 7 6 1 3 4 5 8 2
8 4 5 1 6 9 3 7 2
3 1 9 7 5 6 2 8 4
4 8 1 5 3 6 7 9 2
9 5 8 3 1 4 6 7 2
2 4 3 1 5 9 8 7 6
5 1 3 7 4 6 8 9 2
9 1 6 2 4 7 8 5 3
5 9 7 8 4 1 6 3 2
8 7 5 1 2 9 4 6 3
7 8 4 9 2 6 3 1 5
1 5 6 4 7 3 8 9 2
2 4 9 7 6 5 1 8 3
2 6 4 8 1 5 3 9 7

4
Celia O'Connel
Lisa Russell
Cesar Barber
Kelsey Maynard
3 4 2 1
3 4 2 1
4 2 3 1
1 4 2 3
1 4 2 3
1 2 4 3
3 1 2 4
1 2 4 3
4 2 3 1
1 3 4 2
4 3 1 2
2 3 1 4
2 3 1 4
1 3 4 2
1 2 3 4
1 2 4 3
4 1 2 3
2 3 4 1
3 1 4 2
1 4 2 3
2 3 4 1
4 3 1 2
2 3 1 4
1 3 2 4
2 3 1 4
3 2 1 4
2 3 1 4
3 4 1 2
2 4 1 3
2 3 4 1
3 2 1 4
4 1 3 2
1 4 3 2
2 4 1 3
3 4 1 2

8
Loretta Mercer
Chelsea Carver
Floyd Benson
Kelsey Maynard
Maria Hardin
Erick Paul
Clark Carver
Floyd Mercer
3 4 5 6 7 1 8 2
8 7 2 4 5 3 1 6
5 7 8 3 1 4 6 2
7 4 8 2 1 5 3 6
1 7 8 4 2 3 6 5
7 6 1 8 3 4 5 2
2 3 4 1 5 8 7 6
3 6 5 2 8 4 7 1
3 1 8 7 4 2 5 6
6 7 1 3 2 5 8 4
6 5 3 2 7 1 4 8
1 2 5 4 8 6 3 7
4 6 8 7 5 2 3 1
4 6 5 2 1 3 7 8
8 3 7 2 4 5 6 1
7 6 5 2 8 3 4 1
8 3 7 2 6 4 1 5
3 4 6 5 2 8 1 7
5 3 4 6 8 1 2 7
6 1 5 3 2 7 8 4
4 7 5 2 8 3 6 1
3 7 5 2 4 6 8 1
5 6 1 7 2 4 8 3
6 3 2 7 4 1 8 5
1 3 2 4 8 7 5 6
6 4 3 8 7 1 5 2
2 7 1 3 5 8 6 4
2 7 3 6 1 5 8 4
3 6 4 1 7 8 5 2
4 6 2 1 7 3 5 8
7 5 4 8 2 1 6 3
4 3 7 6 5 8 2 1
1 3 7 5 6 4 2 8
7 5 3 2 6 8 1 4
2 4 5 7 6 1 8 3
1 8 3 7 4 5 2 6
3 7 6 2 5 1 8 4
7 4 5 1 8 6 3 2
7 8 1 5 4 2 6 3
6 2 8 4 3 1 7 5
6 8 4 3 2 5 7 1
1 3 2 4 8 5 7 6
7 2 3 4 8 5 1 6
8 4 6 7 5 1 2 3
2 5 4 7 3 1 6 8
7 3 4 1 6 5 2 8
8 3 5 1 4 2 6 7
4 3 5 8 2 1 6 7

8
Clark Paul
Linda Livingston
Carla North
Kris Moyer
Caitlin Benson
Floyd Barber
Erick Paul
Marie Carver
3 8 7 4 2 5 1 6
4 7 8 2 6 1 5 3
6 2 1 3 7 5 8 4
6 4 2 1 5 7 8 3
2 7 5 3 8 4 1 6
6 4 1 3 5 8 2 7
8 2 7 3 1 5 6 4
1 5 8 7 2 3 6 4
4 1 5 6 7 2 8 3
7 3 5 6 1 4 2 8
4 3 7 8 2 6 5 1
7 1 4 3 2 6 5 8
8 1 2 5 6 3 4 7
3 2 4 7 1 5 6 8
7 2 5 6 4 1 8 3
7 5 1 3 8 4 6 2
2 4 3 1 7 6 5 8
4 6 1 5 8 3 7 2
5 2 3 4 7 6 1 8
4 7 8 3 1 6 5 2
4 3 8 2 7 5 1 6
5 8 6 2 7 1 3 4
4 5 8 6 1 2 3 7
7 6 3 8 1 2 5 4
8 7 4 3 2 5 1 6

5
Delgado Hardin
Clark Proctor
Daniel Hancock
Carla Steward
Larry Mead
4 5 1 2 3
3 1 2 5 4
3 1 5 2 4
1 5 2 3 4
1 5 3 4 2
1 2 4 3 5
1 2 4 5 3
3 1 2 4 5
4 3 2 5 1
3 5 2 1 4
1 3 2 4 5
2 3 4 5 1
5 2 4 1 3
3 1 2 4 5
2 1 3 5 4
5 2 1 3 4
3 1 2 5 4
3 1 2 4 5
3 4 5 1 2
5 2 4 3 1
1 5 3 4 2
3 5 4 1 2
4 1 5 2 3
1 5 3 2 4
5 4 1 3 2
3 5 4 1 2
3 2 1 5 4
5 1 2 4 3
4 3 1 5 2
2 4 1 5 3
4 2 3 5 1
1 3 4 2 5

4
Erick Maynard
Daniel Paul
Floyd Goodwin
Carla Mercer
3 2 4 1
1 4 2 3
4 2 1 3
2 4 1 3
2 1 4 3
3 4 1 2
3 1 2 4
2 4 3 1
1 3 4 2
3 1 2 4
1 2 4 3
4 1 2 3
2 3 4 1
4 3 2 1
4 1 2 3
3 4 2 1
3 2 1 4
4 3 2 1
1 4 3 2
3 4 2 1
2 4 1 3
2 4 3 1
3 4 2 1
1 3 4 2
3 1 2 4
2 1 3 4
4 3 1 2

6
Daniel Rubio
Vanessa Delgado
Daniel Mead
Clark Hancock
Julian Barber
Maria Dodson
6 1 2 4 3 5
6 1 3 5 2 4
3 4 6 1 2 5
3 5 6 4 2 1
5 1 4 6 3 2
2 1 5 3 4 6
6 1 2 3 5 4
3 1 6 5 4 2
5 6 1 2 3 4
5 2 3 1 4 6
4 1 6 5 3 2
3 6 4 5 2 1
1 4 2 6 5 3
2 5 4 3 6 1
1 5 2 6 4 3
1 5 3 6 4 2
3 1 2 6 4 5
3 4 6 1 5 2
6 2 1 4 3 5
6 5 3 1 4 2
4 5 2 3 6 1
1 3 6 2 4 5
3 1 2 6 4 5
2 1 4 5 3 6
5 4 1 2 6 3
3 1 2 5 6 4
6 5 4 2 3 1
2 6 5 3 1 4
3 5 1 6 4 2
5 6 3 4 1 2
5 6 2 1 4 3
6 3 2 1 5 4
6 1 3 5 4 2
5 4 3 1 2 6
5 1 2 4 6 3
6 5 4 2 3 1
2 3 6 1 5 4
5 3 4 6 2 1
6 2 1 5 3 4
4 2 3 6 5 1
3 4 5 1 6 2
1 5 4 3 6 2
1 6 5 4 3 2
1 5 2 4 3 6
2 6 5 3 4 1
4 2 6 1 5 3
1 4 3 5 6 2
4 6 5 2 3 1
