93

11
Tayshia Brown
Emily Graziadei
Emily Maynard
Colton Shallcross
Nick Young
Andi Recchia
Tayshia Echard
Emily Adams
Andi Hebert
Becca Lawson
Tayshia Weber
7 2 8 3 11 6 9 1 10 4 5
5 7 6 2 10 8 1 9 3 11 4
9 2 7 6 8 5 1 3 10 4 11
7 8 3 2 5 9 10 4 6 1 11
4 5 8 6 7 3 10 2 1 11 9
4 3 10 5 9 8 2 11 7 1 6
2 11 3 5 6 1 7 9 10 4 8
4 10 3 1 6 2 9 7 8 11 5
3 7 5 2 9 1 4 6 8 11 10
4 10 9 3 6 8 11 7 2 5 1
7 10 8 2 3 1 6 9 11 5 4
6 3 10 9 11 4 7 1 8 2 5
6 2 3 5 4 1 10 8 11 9 7

10
Rachel Windey
Desiree Lowe
Hannah Kufrin
Zach Young
Clayton Weber
Desiree Hebert
Sean Lawson
Charity Flajnik
Zach Kufrin
Sean Echard
7 4 1 2 10 8 9 6 5 3
2 3 9 10 4 6 5 7 1 8
10 9 8 3 5 4 1 2 7 6
8 2 7 6 10 3 9 4 1 5
7 2 3 1 6 4 8 5 10 9
1 8 6 7 9 10 5 2 4 3
2 10 6 5 9 3 8 4 7 1
8 1 3 5 2 4 9 7 10 6
6 9 3 10 7 5 2 8 1 4
7 1 10 3 4 9 8 2 5 6
4 6 9 1 10 8 3 2 7 5
1 7 2 3 5 10 6 9 8 4
3 7 5 1 6 4 8 9 2 10
7 5 10 6 3 8 1 4 2 9
7 10 3 6 5 1 2 4 9 8
8 9 1 7 10 5 3 4 6 2
3 4 10 9 2 7 1 8 5 6
8 3 6 7 5 1 4 9 10 2
7 8 5 1 3 4 9 6 2 10
5 10 6 7 8 4 2 1 9 3
8 10 2 3 6 7 1 4 9 5
7 10 2 1 3 6 5 9 8 4
9 8 10 6 7 4 3 2 5 1
9 10 5 7 1 4 3 2 6 8
2 1 8 10 5 3 6 4 7 9
7 10 1 9 8 4 5 6 2 3

12
Arie Thurston
Kaitlyn Dorfman
Sean Shallcross
Chris Maynard
Nick Soules
Joey Underwood
Chris Hartsock
Brad Viall
Emily Young
Arie Lawson
Peter Hebert
Matt Hebert
2 5 7 11 6 9 10 4 12 3 8 1
12 6 4 9 7 1 10 2 11 3 8 5
5 2 8 11 4 12 10 1 3 7 9 6
12 9 1 5 4 11 2 8 7 3 10 6
11 6 5 1 4 10 8 12 7 2 3 9
9 7 5 3 4 12 2 6 1 8 10 11
5 11 7 10 2 3 9 6 1 8 12 4
5 9 1 2 11 8 3 6 12 10 7 4
3 12 10 11 1 6 4 7 2 5 8 9
12 11 3 5 8 6 7 2 10 9 4 1
5 10 11 4 7 9 12 3 8 2 1 6
5 11 8 12 7 2 3 1 10 4 9 6
3 6 11 1 8 5 2 10 12 9 7 4
10 9 5 1 7 8 4 6 11 3 2 12
5 7 12 10 6 4 1 11 9 3 8 2
10 11 4 3 9 12 6 1 8 2 5 7
2 12 4 1 5 6 3 8 10 7 9 11
1 9 2 12 8 7 5 4 11 6 3 10
7 6 4 12 2 9 5 11 1 10 8 3
5 7 12 2 3 8 4 1 6 10 11 9
5 4 7 1 6 10 2 9 12 3 11 8
10 1 11 7 2 8 5 4 3 9 6 12
6 9 4 7 11 3 10 12 5 8 1 2
1 5 10 11 3 7 12 8 4 2 9 6
6 1 5 2 7 8 12 11 3 4 9 10
5 4 12 11 1 6 10 2 7 3 8 9
7 1 12 9 5 10 11 2 4 8 6 3
4 8 9 7 3 6 12 5 10 2 1 11
8 5 11 9 12 7 10 3 2 6 4 1
12 6 2 1 4 3 9 7 5 10 8 11
9 7 10 8 6 4 1 12 11 2 5 3
9 12 4 11 1 8 6 10 5 2 7 3
1 5 12 6 11 8 9 4 7 2 3 10
6 12 1 10 4 7 11 8 5 2 3 9
11 4 7 5 2 8 6 10 3 1 9 12
4 8 10 1 11 12 2 6 9 5 3 7
10 11 4 6 2 5 9 3 7 1 8 12
7 4 2 6 10 5 11 9 8 3 12 1
3 11 9 6 7 5 1 2 10 12 4 8
12 5 4 3 7 2 11 10 9 1 8 6
9 11 2 1 8 7 12 10 5 3 4 6
10 9 8 12 2 7 6 5 4 3 11 1
6 3 9 7 12 2 10 8 1 11 4 5
8 4 2 12 6 9 7 11 10 3 1 5

10
Clayton Maynard
Becca Higgins
Clayton Windey
Zach Kufrin
Rachel Hebert
Chris Lawson
Sean Windey
Kaitlyn Lindsay
Chris Flajnik
Chris James
3 2 9 4 1 10 6 8 7 5
4 3 1 10 7 8 6 5 9 2
8 4 9 1 2 6 3 7 5 10
6 2 10 7 9 4 5 3 1 8
4 1 3 8 10 9 5 6 7 2
1 2 9 7 4 6 3 8 5 10
2 9 10 1 3 4 6 7 8 5
7 1 4 8 9 6 3 5 10 2
10 3 5 9 2 4 8 1 7 6
6 5 3 10 1 7 4 9 8 2
9 8 7 10 1 3 4 5 6 2
10 7 5 8 9 1 6 2 4 3
1 7 10 9 8 3 2 5 6 4
3 1 4 8 7 10 2 5 6 9
3 10 1 6 8 5 7 9 4 2
3 7 8 9 2 1 5 4 6 10
6 10 7 3 8 2 5 4 9 1
9 2 4 5 3 7 1 6 10 8
2 9 8 7 5 6 4 10 1 3
2 6 8 10 4 5 1 3 7 9
1 4 10 8 6 9 3 7 5 2
10 1 9 3 2 6 7 8 4 5
4 6 1 10 9 5 7 3 2 8
8 1 5 3 10 4 2 6 7 9
2 4 3 8 9 6 7 1 10 5
9 7 10 6 3 2 8 4 5 1
4 5 3 1 9 8 7 6 10 2
10 1 7 3 5 2 4 8 6 9
9 5 2 7 8 4 1 6 10 3
8 7 3 6 10 9 4 5 2 1
1 5 3 8 6 9 10 4 2 7
7 8 3 1 5 4 10 6 9 2
3 5 7 9 1 10 8 2 4 6
7 4 2 8 9 6 5 10 3 1
4 6 5 8 2 7 10 1 3 9
4 6 8 10 3 5 2 1 9 7
2 5 7 3 4 1 8 10 9 6
9 10 1 3 8 2 6 5 4 7
5 2 1 8 6 10 7 3 4 9
10 1 3 6 4 9 7 8 2 5
6 10 7 5 9 3 8 1 4 2
10 1 3 4 6 8 2 7 5 9
3 10 4 7 9 1 6 2 8 5
8 9 5 1 10 7 3 2 4 6
3 6 8 7 4 5 2 9 10 1
3 9 2 1 8 7 5 4 6 10
9 7 6 10 2 1 3 4 5 8
1 5 7 8 6 9 4 3 10 2
7 10 8 6 1 2 9 3 5 4
6 8 2 4 7 3 1 9 10 5
1 7 8 9 2 10 6 3 5 4
8 7 10 4 2 1 3 6 5 9
4 10 7 2 1 9 8 3 6 5
7 9 1 10 4 5 6 8 2 3
2 10 9 7 3 5 1 4 8 6
2 4 8 3 6 1 10 7 5 9
3 10 9 5 4 8 1 6 7 2

15
Peter Higgins
Kaitlyn Shallcross
Rachel Higgins
Colton Soules
Rachel James
Charity Viall
Clayton Lowe
Chris Dorfman
Peter Viall
Emily Recchia
Nick Lowe
Jojo Higgins
Katie Windey
Joey Viall
Hannah Dorfman
8 10 6 13 7 1 5 3 12 4 11 15 14 2 9
5 6 8 14 2 4 11 12 9 7 3 13 15 1 10
1 5 12 10 14 2 3 6 11 13 8 15 7 4 9
4 5 10 13 11 8 9 2 1 14 7 12 3 6 15
12 3 10 7 5 9 8 6 15 11 14 13 2 4 1
6 12 8 9 2 7 5 3 4 11 13 15 1 14 10
10 5 7 12 1 8 2 11 15 6 14 3 9 13 4
4 10 8 1 5 9 13 12 14 7 11 2 15 6 3
12 10 4 11 9 6 5 14 3 7 13 8 15 1 2
2 13 9 4 12 11 8 3 14 7 1 5 15 6 10
13 12 10 15 8 14 11 2 1 4 5 6 3 9 7

3
Clare Adams
Emily Lindsay
Clare Lowe
3 2 1
1 2 3
3 1 2
1 3 2
3 2 1
1 2 3
3 1 2
2 1 3
3 1 2
3 2 1
3 2 1
3 1 2
3 2 1
3 1 2
1 3 2
1 3 2
3 2 1
1 2 3
3 2 1
2 3 1
2 1 3
3 1 2
3 1 2
1 3 2

6
Colton Maynard
Zach Soules
Ben Dorfman
Ben Weber
Becca Brown
Brad Windey
4 6 5 2 1 3
1 3 6 2 5 4
2 4 3 6 1 5
3 5 6 2 4 1
4 1 3 6 2 5
5 1 4 2 6 3
1 3 4 5 2 6
5 2 4 6 1 3
1 3 4 6 5 2
6 3 5 2 4 1
3 6 2 5 4 1
2 3 6 5 1 4
2 5 1 6 3 4
2 1 3 4 6 5
6 1 2 5 4 3
2 1 5 4 6 3
3 5 4 2 6 1
6 4 5 1 2 3
4 2 1 5 3 6
5 4 3 2 6 1
6 3 4 5 2 1
1 4 5 2 3 6
2 5 4 3 6 1
2 1 5 3 4 6
3 2 6 1 4 5
2 5 4 1 6 3
2 1 5 3 6 4
2 3 5 1 4 6
1 6 5 3 2 4
6 5 1 4 2 3
5 6 4 2 3 1
4 3 2 6 5 1
1 6 3 2 4 5

6
Arie Lowe
Clayton Soules
Kaitlyn Higgins
Michelle Crawley
Becca Echard
Gabby Hebert
1 6 4 5 2 3
5 3 1 6 2 4
5 1 6 4 2 3
1 5 4 3 6 2
3 2 1 6 4 5
5 3 6 2 4 1
6 1 4 5 3 2
1 4 5 3 6 2
2 5 6 3 4 1
5 2 1 3 4 6
6 3 2 1 5 4
3 2 5 4 6 1
6 4 3 5 2 1
2 6 3 5 1 4
5 1 2 6 4 3
2 1 5 4 3 6
4 6 3 2 1 5
1 6 4 5 3 2
6 3 4 2 5 1
2 1 6 4 5 3
5 1 4 2 6 3
2 1 5 6 4 3
5 2 3 4 1 6
4 5 2 6 3 1
3 1 2 4 6 5
4 2 1 3 5 6
1 2 5 3 4 6
3 5 4 6 1 2
1 3 5 6 2 4
2 6 4 5 3 1
3 6 1 2 4 5
6 4 2 1 3 5
2 4 1 3 6 5
1 6 5 2 3 4
6 3 1 5 2 4
6 3 5 4 2 1
4 6 3 1 2 5
4 2 1 5 3 6
5 2 1 3 6 4
4 3 1 2 5 6
6 2 1 3 4 5
3 6 2 4 1 5
6 5 1 4 2 3
5 6 4 3 1 2
4 1 3 6 5 2
2 4 5 3 6 1
6 4 2 3 1 5
5 3 6 2 1 4
6 4 2 3 5 1
4 1 3 6 5 2
5 3 2 6 4 1

10
Rachel Soules
Zach Brown
Katie Dorfman
Rachel Thurston
Becca James
Katie Kufrin
Sean Brown
Hannah Maynard
Sean Thurston
Emily Viall
1 9 6 3 10 4 8 5 2 7
9 6 10 7 5 8 4 1 3 2
5 10 1 3 8 4 2 6 9 7
2 4 7 8 9 5 6 1 3 10
4 1 3 9 2 10 8 5 6 7
2 5 6 7 4 1 10 3 8 9
3 4 6 2 8 7 9 1 10 5
10 5 4 1 9 3 2 7 6 8
3 2 4 5 6 10 8 9 1 7
5 3 4 1 6 10 9 2 7 8
5 6 8 3 2 9 4 10 7 1
3 6 5 4 10 2 8 1 9 7
2 9 10 5 3 4 7 1 8 6
9 8 4 5 3 10 7 2 6 1
4 10 5 2 6 9 3 1 7 8
2 8 4 1 9 7 3 10 5 6
7 10 6 8 5 3 9 1 2 4
2 10 9 8 1 7 4 3 6 5
7 1 10 4 6 5 8 9 3 2
1 7 10 2 8 6 4 3 9 5
1 8 5 6 9 7 2 3 10 4
6 5 10 7 9 3 8 4 2 1
2 6 4 10 3 1 7 5 9 8
6 5 4 10 8 9 7 2 1 3
5 7 9 3 8 2 1 6 4 10
2 6 4 8 5 7 10 9 3 1
1 6 8 7 4 10 3 9 5 2
3 2 10 5 4 8 6 9 1 7
3 5 2 10 1 7 9 4 8 6
3 4 1 6 5 8 2 10 7 9
7 4 3 8 9 2 5 6 10 1
7 10 4 5 6 1 2 8 9 3
10 4 3 7 5 9 2 8 1 6
10 6 3 9 4 7 2 1 5 8
9 8 5 7 10 1 2 4 3 6
1 7 9 10 3 6 2 5 8 4
1 3 4 9 10 5 6 2 8 7
4 1 3 2 8 10 6 5 7 9
6 10 9 5 4 2 3 1 8 7
8 3 5 4 7 9 1 2 6 10
7 6 5 4 9 8 1 3 10 2
5 2 8 9 3 1 6 10 7 4
6 2 9 8 7 1 3 10 4 5
4 3 10 6 5 8 2 9 1 7
8 3 1 2 7 4 10 5 6 9
3 7 2 9 8 6 5 1 10 4
4 7 8 5 6 1 2 3 10 9
9 8 6 5 7 10 4 3 2 1
2 5 6 8 7 9 1 10 4 3
10 7 3 6 1 8 5 2 4 9
2 7 10 3 8 9 1 6 5 4
8 6 2 7 5 1 3 4 9 10
9 7 10 2 6 5 3 4 8 1
10 2 8 6 5 3 7 1 9 4
5 6 9 8 7 1 2 10 4 3
1 8 4 2 9 6 7 3 10 5

16
Desiree Windey
Kaitlyn Lindsay
Emily Luyendyk
Tayshia Hartsock
Tayshia Echard
Colton Underwood
Sean Flajnik
Charity Thurston
Kaitlyn Thurston
Tayshia Thurston
Gabby Dorfman
Colton Brown
Arie Higgins
Michelle Hebert
Jojo Maynard
Brad Kufrin
12 6 4 9 15 11 2 10 5 13 8 3 14 1 7 16
10 7 13 16 15 8 2 12 9 14 3 11 6 4 5 1
14 4 3 5 8 15 11 6 10 9 1 12 13 7 16 2
10 4 1 3 11 9 12 5 16 14 15 2 13 6 7 8
10 13 7 11 5 3 6 12 9 4 8 2 1 14 15 16
3 9 6 8 4 16 10 14 15 1 12 7 5 13 11 2
4 12 8 15 7 10 9 3 6 11 5 2 14 13 16 1
12 10 1 3 11 16 15 2 7 5 4 13 6 14 8 9
4 11 7 13 2 8 1 5 9 12 3 16 14 15 10 6
13 15 3 2 7 5 12 14 11 8 4 9 1 10 16 6
5 7 1 4 3 6 16 10 14 12 8 9 15 13 2 11
13 3 9 10 7 14 15 8 12 16 5 4 11 1 6 2
12 14 6 16 10 9 1 8 2 4 13 3 7 15 5 11
12 5 9 10 3 11 16 7 2 1 4 15 8 6 13 14
3 14 7 6 12 8 9 2 1 10 4 15 13 16 11 5
12 3 16 13 5 9 10 8 14 7 6 11 1 4 2 15
12 10 1 5 16 6 13 8 15 9 14 4 3 7 11 2
3 4 15 2 13 7 1 10 16 14 9 5 12 8 6 11
4 9 6 7 5 3 2 10 1 16 12 14 11 15 8 13
3 7 9 14 4 6 1 11 5 15 10 2 16 13 8 12

1
Ben Higgins
1
1
1
1
1
1
1
1
1
1
1
1
1
1
1
1
1
1
1
1
1
1
1
1

16
Joey Weber
Clayton Higgins
Clare Hebert
Joey Maynard
Tayshia Dorfman
Zach Windey
Ben Maynard
Becca Kufrin
Arie Echard
Hannah Young
Hannah Echard
Peter Young
Ashley Weber
Emily Graziadei
Becca Crawley
Matt James
14 1 8 9 5 15 6 16 3 4 12 13 7 11 10 2
13 2 8 7 5 16 1 11 14 4 12 9 6 15 10 3
15 6 7 5 13 16 12 3 4 2 10 9 14 8 1 11
2 6 4 13 15 7 11 5 14 12 9 10 3 16 8 1
4 14 15 10 8 16 1 13 6 3 7 12 11 5 2 9
14 10 5 3 15 13 16 1 8 2 6 7 4 9 12 11
13 14 6 5 1 10 3 8 16 12 15 4 9 7 11 2
8 13 16 6 12 14 1 5 3 10 9 15 2 11 7 4
5 9 4 3 2 6 11 13 14 1 10 7 8 12 16 15
5 10 1 3 13 9 14 7 2 6 4 16 11 8 12 15
14 2 6 15 10 1 8 9 3 16 5 4 11 7 13 12
3 5 4 11 8 14 13 2 1 10 9 6 15 16 7 12
11 1 6 12 9 16 7 8 4 15 2 10 14 13 3 5
5 4 2 9 10 14 1 13 3 11 15 12 7 16 8 6
5 14 1 10 6 4 3 8 2 12 15 9 11 13 7 16
16 2 4 11 5 1 8 9 3 13 12 15 14 6 10 7
5 11 2 16 12 13 14 8 3 9 15 1 10 6 7 4
8 11 4 14 3 6 12 5 7 15 16 9 2 10 13 1
16 8 1 11 14 2 3 6 13 10 5 4 7 15 12 9
2 13 10 12 11 14 6 1 15 16 3 7 4 8 5 9
15 6 4 3 5 7 8 2 16 10 12 14 1 9 11 13
12 14 10 11 7 3 8 9 2 5 15 4 6 13 16 1
2 1 13 7 15 10 8 12 5 3 14 4 11 16 9 6
4 7 3 1 8 14 13 5 10 9 12 6 16 15 2 11
2 8 10 12 7 11 13 3 5 1 16 6 15 4 9 14
4 3 9 5 16 11 15 2 12 6 14 7 13 10 1 8
2 1 3 12 13 6 15 10 7 11 5 14 8 9 16 4
3 5 10 12 1 14 16 7 6 15 13 4 8 2 9 11
16 13 11 6 4 14 10 5 9 3 12 1 15 8 7 2
2 8 1 7 9 11 15 4 5 12 13 10 6 3 16 14
13 7 3 6 5 2 16 11 14 9 10 15 8 12 1 4
4 9 1 12 13 15 14 2 3 7 8 16 5 10 11 6
12 15 5 11 13 3 14 1 7 10 9 4 16 8 2 6
7 9 12 1 2 4 6 10 11 5 13 3 15 8 14 16
2 1 7 8 10 16 11 6 12 4 5 13 3 9 15 14
14 11 16 13 5 1 15 2 6 12 9 7 3 10 4 8
1 15 10 11 8 3 16 9 6 2 14 7 5 4 12 13
16 10 6 14 13 5 7 1 3 9 4 15 12 11 2 8
10 16 11 5 3 7 14 9 13 15 8 2 4 6 12 1
3 5 10 1 14 16 13 12 7 8 2 11 15 6 9 4
10 12 9 3 6 4 1 11 13 14 15 7 2 16 8 5
10 7 11 1 2 16 5 13 15 8 9 6 14 3 12 4
10 4 2 15 7 12 9 8 5 1 3 11 13 6 14 16
13 12 14 10 8 9 5 1 3 16 7 6 2 15 4 11
9 3 12 14 16 4 11 15 1 8 10 2 6 7 5 13
14 6 7 13 8 1 15 3 12 5 16 9 11 2 10 4
4 5 8 7 2 1 3 11 12 13 9 10 6 14 15 16
10 13 14 2 6 16 3 5 9 15 8 1 7 4 12 11
8 3 12 15 2 11 14 9 1 6 13 16 10 7 5 4
4 14 3 11 15 10 13 8 16 12 1 5 6 9 7 2
11 15 9 3 13 6 2 5 7 4 10 8 14 1 16 12
3 7 16 13 2 10 9 4 12 11 15 14 8 6 1 5
12 10 16 11 7 14 15 8 4 6 13 3 9 1 2 5

4
Nick James
Zach Windey
Hannah Flajnik
Andi Bristowe
1 3 4 2
2 3 1 4
1 3 2 4
2 1 3 4
4 3 2 1

4
Gabby Fletcher
Andi Viall
Brad Lowe
Desiree Graziadei
1 3 4 2
3 2 1 4
3 1 2 4
2 1 3 4
4 2 1 3
3 2 1 4
3 2 4 1
2 4 1 3
3 1 2 4
3 4 2 1
4 3 2 1
2 3 4 1
2 3 1 4
1 3 2 4
1 2 3 4
4 2 1 3
2 3 1 4
4 3 1 2
3 1 4 2
3 1 4 2
1 3 2 4
3 2 1 4
2 4 1 3
1 3 4 2
3 4 1 2
2 3 1 4
3 1 2 4
2 4 3 1
4 2 1 3
4 2 3 1
1 4 3 2

16
Gabby Lindsay
Andi Windey
Ben Shallcross
Tayshia Lowe
Gabby James
Peter Recchia
Arie Graziadei
Charity Lowe
Colton Flajnik
Ben Soules
Peter Viall
Ashley Fletcher
Sean Lowe
Gabby James
Clayton Young
Colton Luyendyk
1 11 14 8 3 12 5 16 13 2 10 15 4 9 7 6
10 5 13 7 8 11 4 16 9 14 2 1 15 6 12 3
11 14 10 8 3 12 5 4 2 7 1 15 6 16 9 13
1 10 12 15 9 2 5 4 14 7 16 8 11 6 3 13
15 1 8 4 9 3 7 5 2 6 12 10 16 13 14 11
8 9 14 10 6 13 1 12 3 11 7 16 5 4 2 15
14 1 15 3 8 13 7 4 2 10 16 11 12 5 9 6
1 6 8 9 13 2 4 12 5 10 7 14 11 15 3 16
15 10 8 3 7 13 11 5 4 6 12 14 9 1 16 2
3 6 5 2 9 14 15 1 10 4 7 13 8 11 16 12
4 13 11 7 12 3 1 9 14 16 6 5 15 10 2 8

10
Brad Fletcher
Katie Maynard
Brad Thurston
Ben Underwood
Clayton Weber
Arie Brown
Arie Soules
Rachel Flajnik
Brad Windey
Brad Lowe
3 10 8 7 1 9 2 5 4 6
8 5 7 9 10 1 4 3 6 2
9 5 1 7 3 10 4 6 2 8
9 2 8 3 7 1 5 6 4 10
6 1 4 2 7 9 5 8 3 10
5 1 9 4 8 6 10 2 7 3
10 2 1 3 7 8 6 9 5 4
6 2 5 7 4 8 10 9 1 3
5 10 9 2 7 4 3 8 6 1

2
Hannah Lowe
Chris James
2 1
2 1
1 2
1 2
1 2
1 2
1 2
1 2
1 2
1 2
2 1
2 1
2 1
2 1
1 2
1 2
1 2
1 2
1 2
2 1
2 1
1 2
1 2
2 1
2 1
1 2
1 2
2 1
2 1
2 1
1 2
1 2
2 1
2 1
1 2

10
Tayshia Lowe
Desiree Dorfman
Colton Maynard
Zach Weber
Katie Lawson
Andi Lindsay
Colton Brown
Zach Viall
Gabby Windey
Zach Lindsay
10 7 8 5 4 2 9 6 1 3
4 6 2 5 1 7 3 9 10 8
10 2 9 6 1 3 8 4 5 7
5 8 6 9 3 1 7 4 10 2
2 1 3 10 4 7 6 5 8 9
7 2 3 10 1 5 6 8 9 4
2 5 10 6 7 1 8 9 4 3
4 2 5 10 1 8 6 7 9 3
5 1 10 8 6 7 9 2 4 3
2 3 8 9 1 10 4 5 7 6
2 10 9 6 4 5 1 7 8 3
6 9 3 10 5 4 7 2 8 1
3 8 4 9 1 6 10 2 5 7
5 9 8 7 4 1 2 10 6 3
7 9 3 8 6 1 10 5 2 4
3 4 6 5 7 10 9 1 8 2
1 4 6 5 3 7 8 9 2 10
6 9 3 1 4 2 7 5 8 10
7 8 4 6 1 3 2 9 10 5
4 3 2 6 8 10 9 7 5 1
6 10 4 2 1 9 8 3 5 7
4 9 6 5 3 10 7 8 1 2
9 3 1 6 4 5 10 2 7 8
7 3 8 2 5 1 9 10 4 6
4 7 1 3 5 2 9 8 6 10
1 7 2 4 9 8 10 6 5 3

20
Michelle Lawson
Brad Lawson
Sean Flajnik
Katie Hebert
Chris Graziadei
Andi Lindsay
Chris Lindsay
Nick Crawley
Chris Adams
Rachel Soules
Nick Windey
Gabby Adams
Sean Soules
Tayshia Lowe
Sean Maynard
Matt Bristowe
Desiree James
Colton James
Chris Kufrin
Gabby Adams
8 3 13 17 2 5 20 6 12 9 7 14 19 15 10 16 4 18 1 11
10 1 16 14 2 12 11 8 9 4 3 7 13 6 19 5 20 17 15 18
6 5 10 16 2 1 9 3 18 14 8 13 7 11 17 12 15 20 19 4
16 6 10 9 11 1 12 4 15 18 14 8 2 7 3 19 5 13 17 20
14 18 10 1 3 19 9 4 2 5 17 6 12 16 13 7 8 11 20 15
16 5 6 11 18 12 1 3 14 19 2 7 15 17 20 4 13 8 9 10
2 1 18 16 15 17 14 9 8 11 5 7 20 19 6 13 4 3 10 12
13 3 17 16 14 8 15 12 6 7 5 20 11 18 9 10 1 19 4 2
14 6 9 10 7 11 19 1 13 20 17 4 15 5 18 8 16 2 3 12
2 1 17 20 7 3 9 8 5 10 15 16 14 11 4 12 19 18 13 6
5 13 19 4 3 18 11 6 8 14 1 17 15 12 10 16 9 2 20 7
6 1 4 19 3 16 18 2 9 15 13 5 20 8 17 12 7 11 14 10
8 9 7 13 16 3 10 14 17 4 2 12 20 1 11 15 6 19 5 18
18 16 14 17 19 13 2 10 4 15 6 20 1 8 7 5 12 11 9 3
4 1 14 6 19 7 3 11 17 5 16 9 18 2 20 12 10 8 13 15
10 9 3 5 12 18 17 1 8 2 6 13 4 11 14 20 16 7 15 19
15 16 2 20 10 5 11 13 8 3 1 4 14 18 9 7 6 12 17 19
11 1 18 13 2 14 12 10 9 20 3 6 19 17 5 16 4 8 7 15

9
Rachel Viall
Katie Higgins
Hannah Underwood
Katie Dorfman
Peter Weber
Desiree Weber
Desiree Kufrin
Emily Viall
Chris Graziadei
4 8 6 2 7 3 5 1 9
5 2 9 6 7 8 3 1 4
1 3 9 2 6 7 8 5 4
9 8 1 4 3 5 6 2 7
9 1 3 6 2 4 5 7 8
8 2 7 9 4 5 1 6 3
5 4 8 1 7 3 2 9 6
3 9 6 2 4 1 7 5 8
5 6 8 1 7 2 9 4 3
8 5 2 4 1 3 7 9 6
8 3 9 2 7 5 4 1 6
3 9 4 5 8 1 6 2 7
6 4 3 9 7 2 5 8 1
2 9 6 5 1 3 4 7 8
9 4 5 8 1 7 6 3 2

1
Andi Higgins
1
1
1
1
1
1
1
1
1
1
1
1
1
1
1
1
1
1
1
1
1
1
1
1
1
1
1
1
1
1
1
1

18
Arie Hebert
Tayshia Weber
Ben Soules
Michelle Viall
Becca Fletcher
Becca Hebert
Hannah Flajnik
Gabby Viall
Brad Flajnik
Charity Fletcher
Clare Echard
Andi Bristowe
Kaitlyn Maynard
Ashley Bristowe
Charity Luyendyk
Tayshia Graziadei
Clare Bristowe
Zach Hartsock
10 1 4 3 15 6 9 12 18 5 7 8 2 17 11 16 13 14
18 11 1 17 2 12 9 5 6 7 14 13 10 16 4 3 8 15
5 15 7 2 1 13 12 10 9 18 8 11 16 17 14 6 3 4
5 9 3 10 8 4 12 16 6 14 13 18 2 1 7 17 11 15
3 10 6 16 15 8 2 7 11 13 18 5 1 12 4 9 14 17
16 18 9 1 12 14 7 4 8 13 2 11 17 6 10 15 3 5
17 15 18 8 16 9 14 7 12 13 11 5 10 6 2 3 1 4
18 16 6 11 4 9 8 17 7 3 2 14 13 15 1 12 5 10
5 14 17 2 6 7 3 15 16 18 4 11 9 1 12 13 8 10
15 13 7 16 8 4 11 5 17 14 3 6 1 18 10 9 12 2
10 14 13 9 12 3 15 6 18 16 5 8 17 1 7 2 4 11
2 6 10 7 12 3 18 13 5 17 8 4 1 14 9 16 15 11
1 10 11 17 6 2 14 3 7 13 16 18 12 8 5 9 4 15
5 2 4 7 1 8 13 15 6 14 3 9 18 16 11 12 17 10

3
Desiree Kufrin
Desiree Crawley
Tayshia Underwood
1 3 2
3 1 2
2 1 3
2 1 3
3 1 2
3 1 2
1 2 3
3 1 2
1 3 2
2 3 1
1 2 3
2 3 1
2 1 3
2 3 1
2 3 1
2 1 3
2 1 3
3 2 1
3 2 1
1 3 2
3 1 2
3 2 1
3 1 2
3 2 1
1 2 3
3 2 1
2 1 3
2 3 1
2 3 1
1 2 3
3 2 1
3 2 1
2 1 3
3 2 1
2 1 3
3 2 1
1 3 2
2 3 1
2 3 1
2 1 3
1 2 3
2 3 1
3 2 1
2 1 3
1 2 3
2 3 1
1 3 2
2 3 1
1 2 3

16
Chris Recchia
Chris Windey
Emily Lindsay
Michelle Underwood
Michelle Higgins
Charity Fletcher
Nick James
Brad Flajnik
Becca Lindsay
Hannah Recchia
Clayton Dorfman
Ashley Echard
Zach Fletcher
Andi Thurston
Kaitlyn Adams
Kaitlyn Lindsay
9 2 16 8 12 10 5 13 1 15 7 14 11 4 3 6
8 12 11 2 4 5 3 7 10 1 16 9 13 15 14 6
10 11 8 6 14 2 5 9 16 3 4 7 12 13 15 1
8 4 16 12 11 1 13 7 6 14 9 3 2 5 10 15
3 2 8 1 12 15 6 9 5 13 4 11 14 7 16 10
9 3 11 16 2 1 10 6 4 5 13 7 15 14 12 8
16 14 15 4 2 13 7 5 9 8 6 12 1 10 3 11
1 14 5 6 13 9 16 2 10 8 7 11 15 3 12 4
9 15 13 10 5 14 4 12 3 2 6 8 1 11 16 7
1 13 12 2 5 16 6 4 8 9 3 10 11 14 7 15
7 5 12 8 1 15 4 2 16 9 6 11 13 14 3 10
7 6 2 1 11 8 3 4 14 15 16 13 9 5 10 12
4 15 8 10 3 5 11 9 2 7 16 6 1 13 14 12
6 9 11 3 7 5 2 10 15 1 4 14 12 13 8 16
7 15 1 5 6 13 11 14 8 12 2 9 10 4 3 16
1 2 13 10 4 6 7 16 8 5 9 12 11 15 3 14
3 11 7 15 16 8 5 2 13 14 6 10 1 4 12 9
14 7 10 11 6 3 12 8 2 16 9 13 1 5 4 15
10 11 4 1 7 8 13 9 2 14 12 16 5 15 3 6
6 12 1 8 7 13 16 2 14 11 5 15 10 9 4 3
2 14 4 13 7 15 8 1 10 5 6 3 11 9 12 16
16 15 4 14 11 6 13 9 8 12 10 7 1 2 3 5
14 3 8 1 9 15 6 2 16 12 4 10 13 5 11 7

13
Arie Recchia
Andi Young
Tayshia Lawson
Joey Kufrin
Michelle Lindsay
Clayton Luyendyk
Rachel Lowe
Jojo Dorfman
Ashley Echard
Rachel Recchia
Clayton Shallcross
Kaitlyn Fletcher
Chris Kufrin
5 10 3 7 1 2 4 12 13 8 11 9 6
12 11 10 6 8 5 13 2 3 4 7 9 1
12 11 4 13 7 2 5 8 6 1 9 3 10
11 8 5 3 4 10 6 7 9 13 1 2 12
10 3 4 6 2 8 12 13 7 5 11 9 1
5 1 7 10 6 11 8 4 9 3 2 13 12
6 13 12 10 2 9 4 3 11 8 5 7 1
9 4 10 12 5 8 7 13 1 3 6 11 2
1 7 10 13 2 4 6 9 5 8 3 12 11
7 2 11 9 8 13 5 4 3 10 6 1 12
12 2 7 9 6 1 3 8 11 5 10 13 4
9 11 4 8 13 5 1 2 12 7 3 6 10
5 12 2 13 8 6 10 9 3 7 11 1 4
11 1 2 12 13 6 7 10 8 3 4 9 5
12 13 11 5 6 9 2 3 7 10 8 1 4
8 10 2 6 7 13 3 11 5 1 9 4 12
6 3 5 11 2 7 12 8 4 1 9 13 10
3 13 11 10 6 1 9 5 4 2 8 12 7
2 7 1 4 5 3 12 8 11 6 13 10 9
13 6 12 8 11 1 9 2 3 7 4 10 5
4 2 8 11 5 7 13 10 12 9 3 1 6
2 6 5 4 8 1 11 13 9 12 7 10 3
8 9 6 2 13 11 1 7 12 10 5 3 4
8 5 4 6 2 10 7 12 3 11 13 1 9
4 2 10 1 12 8 5 11 13 9 3 7 6
2 3 11 5 4 1 13 9 10 6 12 7 8
11 6 8 5 2 9 7 1 12 10 3 13 4
2 9 7 3 1 12 8 6 5 10 11 4 13
8 3 9 10 4 13 11 2 1 12 6 7 5
12 7 4 11 3 8 1 10 9 5 13 6 2
8 1 11 10 4 12 7 2 5 6 13 9 3
1 8 12 7 6 11 5 9 4 13 10 2 3
12 13 6 4 5 2 10 11 1 8 9 3 7
6 8 1 7 4 2 9 12 3 5 10 13 11
13 5 10 9 8 7 11 4 12 2 6 3 1
6 1 5 10 4 9 3 11 7 12 2 8 13
7 12 11 3 8 5 13 4 10 1 9 6 2
1 12 5 10 13 9 2 6 4 7 3 8 11
7 8 10 1 13 5 6 9 12 11 3 2 4
5 9 7 12 6 3 2 1 4 13 8 11 10
13 8 7 10 11 9 4 6 1 12 2 5 3
7 8 1 11 5 3 10 12 13 9 2 6 4
4 6 11 5 3 12 13 10 7 8 1 2 9
3 5 1 10 8 12 6 9 4 13 11 2 7
1 3 9 8 11 4 5 7 10 13 6 2 12
10 12 9 2 13 3 1 8 7 6 11 5 4
5 1 7 13 12 2 3 4 10 6 9 8 11
2 6 12 9 1 13 7 11 10 3 4 8 5
10 13 5 1 12 8 6 11 4 9 2 3 7
4 10 11 12 2 5 7 13 9 1 3 8 6
4 5 2 6 3 9 8 13 12 1 7 11 10
13 12 3 4 8 6 5 9 10 11 7 2 1
7 5 10 4 11 6 12 3 1 2 8 9 13
1 12 4 10 3 6 7 5 2 11 13 8 9
1 9 2 7 13 6 8 11 5 3 4 10 12
11 1 5 8 4 9 6 10 12 13 7 2 3
11 7 12 1 4 10 9 2 3 8 6 5 13
8 5 6 7 4 13 3 9 12 2 10 11 1
7 1 2 11 6 10 5 9 8 12 13 4 3
12 9 7 6 2 13 8 1 3 11 10 5 4

9
Peter James
Zach Viall
Katie Luyendyk
Peter Lindsay
Kaitlyn Recchia
Arie Luyendyk
Gabby Recchia
Kaitlyn Adams
Charity Luyendyk
9 1 5 6 8 2 3 7 4
6 5 4 3 2 7 8 1 9
9 2 7 5 4 8 3 6 1
5 3 4 1 7 2 6 8 9
6 3 5 2 1 8 4 9 7
7 5 9 2 6 4 8 1 3
6 9 7 5 8 2 1 3 4
7 2 5 6 4 9 8 3 1
6 4 5 9 7 3 1 8 2
4 8 6 5 1 9 2 7 3
2 7 8 1 5 6 3 9 4
8 2 5 1 4 3 6 7 9
2 6 9 5 4 1 8 7 3
3 6 2 1 5 8 7 4 9
7 4 6 8 9 2 5 3 1
6 2 5 8 3 7 1 9 4
2 4 6 3 1 8 5 9 7
3 6 5 9 2 4 7 1 8
9 4 6 8 3 1 2 5 7
8 6 5 9 7 3 1 2 4
9 8 4 3 5 7 1 2 6
6 2 9 3 8 7 5 1 4
9 4 2 8 7 3 6 5 1
4 2 5 1 9 3 7 6 8
3 9 7 2 6 8 1 4 5
9 5 6 8 2 3 1 7 4
1 7 8 5 4 3 9 6 2
1 9 7 8 3 2 4 6 5
7 1 6 5 8 3 9 2 4
6 1 5 4 2 3 8 7 9
2 7 8 5 6 9 1 4 3
2 7 9 4 3 5 1 8 6
9 2 1 7 3 6 5 4 8
8 9 4 1 7 2 5 3 6
2 9 6 7 5 4 3 1 8
7 8 2 4 6 1 3 5 9
9 5 8 3 2 7 4 6 1
6 2 3 9 5 4 8 1 7
5 8 6 2 3 1 9 4 7
1 9 5 8 6 2 4 7 3
9 1 5 7 3 6 8 2 4
5 6 8 9 2 3 7 4 1
6 1 5 9 2 7 3 8 4
1 9 4 2 3 5 6 7 8
5 9 8 4 7 3 6 1 2
5 7 4 1 6 9 2 8 3
1 6 4 9 2 5 7 8 3
6 5 7 1 3 9 4 2 8
2 1 3 9 8 4 6 5 7
3 5 4 2 6 7 9 1 8
6 8 2 4 5 7 1 3 9
2 9 5 4 3 8 7 1 6
6 2 3 8 1 4 9 5 7
2 5 7 4 8 1 9 3 6
2 9 7 3 1 8 5 4 6
1 7 3 5 9 2 8 6 4

13
Jojo Hebert
Andi James
Desiree Brown
Michelle Hartsock
Michelle Lowe
Hannah James
Nick Weber
Colton Hebert
Zach Soules
Joey Hartsock
Rachel Flajnik
Andi Thurston
Jojo Luyendyk
2 8 6 5 9 3 4 10 11 13 12 1 7
6 12 8 5 4 1 7 10 3 9 2 11 13
6 5 11 12 2 7 9 10 13 1 3 4 8
1 13 8 7 4 6 5 3 11 10 9 12 2
12 4 5 9 10 7 1 11 6 8 3 13 2
8 2 12 9 5 7 3 13 6 10 1 4 11
6 5 4 2 1 10 7 3 11 12 9 8 13
6 4 8 13 12 11 1 9 3 5 2 10 7
6 5 13 11 1 10 2 7 12 8 4 9 3
1 2 11 4 12 6 9 10 3 5 13 8 7
4 10 1 5 8 12 13 2 3 7 6 9 11
6 2 1 8 7 9 5 11 10 4 3 12 13
10 2 13 5 9 12 7 1 3 4 11 6 8
1 5 13 11 4 12 2 7 3 8 10 6 9
3 12 11 1 2 6 5 13 10 7 4 8 9
7 4 6 10 13 1 3 9 11 5 12 8 2
12 5 10 11 13 1 4 2 7 6 3 8 9
6 9 4 8 10 5 2 11 12 3 13 7 1
2 1 13 11 9 7 4 3 12 5 8 6 10
13 3 12 1 4 7 10 2 5 9 8 6 11
6 8 10 13 4 7 11 3 9 5 12 2 1
10 7 5 13 9 4 11 2 3 6 8 12 1
5 12 10 11 1 3 2 6 4 9 13 8 7
12 8 5 11 3 1 7 10 6 2 4 9 13
10 2 7 9 1 4 12 11 13 5 8 3 6
5 13 10 9 2 12 6 1 4 11 8 7 3
1 11 5 7 6 4 10 2 13 8 12 3 9
3 5 2 6 11 1 13 4 12 8 10 7 9
4 13 1 2 8 3 6 9 10 12 7 11 5
12 7 11 10 9 6 5 2 13 1 3 4 8
3 4 11 1 9 6 12 2 13 7 10 8 5
8 10 4 3 9 13 7 12 6 11 1 5 2
6 2 5 11 3 10 7 8 12 13 1 4 9
2 11 10 9 12 6 3 8 13 1 5 7 4
3 12 5 13 1 7 8 9 6 11 4 2 10
11 1 2 8 6 12 3 9 7 5 13 10 4
8 2 5 13 11 6 10 1 9 3 7 4 12
1 3 13 4 2 5 11 6 7 12 9 10 8
7 8 5 10 4 12 13 11 3 9 2 6 1
4 8 9 10 1 3 5 13 2 11 12 7 6
4 10 5 8 6 11 12 3 1 2 13 9 7
7 3 9 4 13 11 10 2 1 5 12 6 8
12 8 1 11 13 2 9 10 4 7 6 3 5

2
Gabby Brown
Clare Hartsock
1 2
1 2
1 2
2 1
1 2
1 2
2 1
1 2

12
Kaitlyn Viall
Arie Underwood
Rachel Dorfman
Hannah Maynard
Emily Brown
Katie Crawley
Peter Lawson
Colton Hartsock
Peter Recchia
Charity James
Ashley Viall
Colton Brown
2 10 12 5 7 3 9 11 8 4 1 6
9 4 10 6 5 7 2 1 3 11 8 12
1 12 5 9 3 2 6 10 7 4 8 11
9 12 1 7 6 2 5 11 10 8 3 4
3 4 12 6 11 1 2 7 8 9 5 10
7 12 1 9 3 2 6 10 8 11 5 4
10 8 12 4 9 5 3 7 6 11 1 2
4 12 1 3 8 10 5 11 7 2 9 6

18
Ashley Hartsock
Clayton Lindsay
Katie Shallcross
Kaitlyn Windey
Kaitlyn Shallcross
Chris Thurston
Clayton Flajnik
Katie Soules
Kaitlyn Hebert
Ben Echard
Kaitlyn Flajnik
Joey Recchia
Joey Lawson
Desiree Maynard
Becca Flajnik
Kaitlyn Soules
Arie Luyendyk
Clayton Bristowe
7 12 2 8 15 5 6 13 17 11 10 4 9 1 14 3 18 16
15 9 6 7 17 13 18 16 14 3 2 11 5 4 1 8 12 10
10 17 5 8 1 4 15 3 11 2 13 6 12 16 18 7 9 14
2 6 12 15 17 13 7 18 4 9 1 5 10 16 3 8 14 11
18 5 16 13 10 4 9 2 14 8 1 11 6 12 15 7 17 3
8 15 13 4 9 7 10 6 2 17 5 3 16 12 18 1 14 11
6 13 8 4 9 18 7 1 10 12 17 15 14 16 11 2 5 3
13 2 7 5 16 9 14 17 10 1 12 18 6 15 4 3 11 8
10 14 6 9 15 5 7 2 11 16 17 4 8 18 1 13 3 12
2 8 5 17 10 6 14 12 1 16 18 15 11 7 9 13 4 3
15 11 3 2 13 5 6 8 18 14 12 4 1 9 7 16 17 10
11 7 1 16 3 9 13 15 14 6 8 17 2 5 4 12 10 18
3 8 12 11 4 18 13 14 16 6 9 2 15 7 17 1 10 5
7 11 18 12 8 3 16 9 6 13 17 10 15 5 4 14 1 2
18 3 7 9 17 14 1 5 2 8 15 12 11 10 16 13 4 6

5
Desiree Fletcher
Emily Recchia
Emily Luyendyk
Matt Lindsay
Hannah Crawley
3 2 1 5 4
2 4 5 1 3
5 1 4 3 2
1 4 2 5 3
1 5 3 4 2
4 1 2 5 3
3 5 4 2 1
1 2 3 5 4
3 2 4 1 5
5 4 3 1 2
2 3 5 1 4
3 2 1 5 4
2 1 4 5 3
2 1 5 3 4
2 4 3 5 1
5 4 3 2 1
4 1 2 5 3
4 2 1 5 3
4 5 1 2 3
4 5 3 2 1
4 2 5 3 1
5 1 4 2 3
5 2 4 1 3
3 4 5 2 1
5 4 3 1 2
2 5 3 4 1
4 3 2 1 5
3 1 2 4 5
4 3 5 2 1
3 5 1 2 4
3 2 5 4 1

2
Michelle Bristowe
Becca Flajnik
1 2
2 1
1 2
2 1
2 1
1 2
1 2
1 2
1 2
1 2
2 1
2 1
1 2
1 2
1 2
1 2
2 1
1 2
2 1
2 1
1 2
2 1
1 2
2 1
2 1
1 2
2 1
1 2
1 2
2 1
2 1
2 1
2 1
2 1
1 2
1 2
1 2
2 1
1 2
2 1
2 1
2 1

6
Brad Underwood
Ben Brown
Peter Hebert
Emily Lawson
Tayshia Maynard
Katie Echard
4 2 3 1 5 6
4 5 6 1 2 3
4 5 3 1 2 6
3 4 1 6 2 5
4 3 6 1 2 5
5 4 2 3 1 6
4 6 2 5 1 3
1 2 4 3 5 6
3 6 4 5 1 2
2 5 4 3 1 6
1 6 2 5 3 4
6 2 3 1 5 4
2 1 3 5 4 6
5 4 6 1 2 3
3 6 5 1 4 2
2 6 5 1 4 3
4 5 6 1 3 2
4 2 3 5 1 6
6 2 5 4 3 1
5 3 1 4 6 2
1 5 3 2 4 6
2 4 5 1 3 6
4 3 2 6 5 1
2 1 5 6 4 3
5 6 2 3 4 1
1 3 6 5 2 4
2 5 4 1 6 3
2 4 5 6 3 1
6 5 3 2 1 4
6 4 1 2 5 3
4 5 6 1 3 2

8
Tayshia Bristowe
Michelle Thurston
Matt Viall
Arie Lowe
Chris Kufrin
Desiree James
Zach Thurston
Arie Soules
3 6 8 1 4 2 5 7
3 4 7 8 5 2 6 1
6 3 2 5 8 1 4 7
6 5 2 4 7 1 8 3
2 5 4 1 6 8 7 3
5 2 6 4 8 3 7 1
5 6 8 3 7 1 4 2
4 8 7 2 1 3 5 6
5 8 3 6 2 7 4 1
4 3 6 1 2 5 7 8
1 8 6 5 2 7 3 4
5 7 6 4 8 2 3 1
7 2 8 6 3 5 1 4
4 5 6 8 3 7 2 1
1 4 5 7 6 3 8 2
1 2 7 3 5 8 6 4
8 4 2 1 5 6 7 3
5 7 2 1 6 3 4 8
5 7 1 4 2 6 8 3
4 2 6 8 1 3 7 5
5 3 2 6 7 8 4 1
6 1 5 8 2 4 3 7
1 7 5 8 3 4 6 2
5 7 1 2 8 3 4 6
1 7 4 3 6 2 8 5
1 3 8 7 6 5 2 4
4 2 5 3 6 7 1 8
7 4 2 1 8 5 3 6
3 6 2 7 5 4 1 8
3 8 5 1 2 4 6 7
1 5 3 6 8 2 7 4
7 5 3 2 4 6 1 8
6 3 7 4 5 1 2 8
2 6 5 1 7 3 8 4
7 6 2 1 5 3 4 8

9
Andi Underwood
Becca Bristowe
Zach Kufrin
Jojo Weber
Hannah Young
Nick Brown
Sean Shallcross
Katie Brown
Hannah Hartsock
8 3 4 5 1 6 9 7 2
2 5 8 4 9 3 1 6 7
8 2 3 9 6 5 1 7 4
3 2 8 7 5 6 9 1 4
5 3 9 7 6 8 2 4 1
4 6 8 7 3 5 1 9 2
2 1 4 8 6 9 5 3 7
8 7 3 2 6 4 5 9 1
2 3 8 1 9 4 5 6 7
3 5 6 7 8 1 2 4 9
5 3 4 2 8 7 1 6 9
3 9 2 8 1 7 5 4 6
6 2 7 4 3 9 1 8 5
7 3 9 2 6 1 4 8 5
9 6 1 8 3 5 2 4 7
5 6 7 9 2 4 3 8 1
5 8 2 3 6 1 9 7 4
9 6 4 8 5 7 3 1 2
2 6 9 4 1 8 7 3 5
7 5 9 6 2 4 3 8 1
4 1 6 7 5 2 3 8 9
7 4 6 2 8 5 9 3 1
6 9 4 8 1 5 2 3 7
8 2 4 7 3 5 1 6 9
4 8 5 3 6 2 7 1 9
6 2 9 8 7 4 3 1 5
3 2 8 6 9 4 5 1 7
8 2 9 6 3 7 1 5 4
3 2 8 5 9 1 6 4 7
7 3 6 8 9 5 1 4 2
7 6 1 8 4 5 2 3 9
4 1 8 2 6 9 7 5 3
2 3 6 5 7 8 1 4 9
7 5 4 9 6 1 3 2 8
5 1 3 9 2 7 8 4 6
6 3 2 7 4 8 1 9 5
6 8 4 2 1 5 3 9 7
5 4 7 8 3 9 1 6 2
9 5 7 1 2 4 8 3 6
5 2 7 1 9 8 3 4 6
9 2 5 1 3 6 8 4 7
4 7 5 9 6 2 8 3 1
1 5 8 2 9 3 6 7 4
8 4 6 9 2 1 5 7 3
9 8 1 2 3 4 5 7 6
7 4 2 8 6 5 9 1 3
5 7 9 1 2 4 6 8 3
2 9 5 7 3 8 6 1 4
6 1 5 7 3 8 9 4 2
3 1 8 5 7 9 4 2 6

9
Emily Brown
Ben Viall
Charity Young
Desiree Graziadei
Desiree Viall
Emily Shallcross
Joey Echard
Katie Graziadei
Hannah Soules
7 4 6 1 8 5 2 3 9
9 2 4 8 7 5 6 3 1
6 8 2 5 3 4 9 1 7
8 9 2 6 7 4 1 5 3
3 8 5 4 2 9 1 7 6
8 4 9 2 6 3 1 5 7
3 1 5 2 8 6 9 7 4
9 7 6 4 2 1 3 5 8
7 1 3 2 5 4 6 9 8
1 8 4 6 3 7 9 5 2
9 7 3 2 1 6 8 5 4
2 4 9 8 5 3 6 7 1
9 4 6 2 1 5 3 8 7
8 7 5 6 2 3 9 4 1
2 3 9 6 5 4 7 8 1
4 2 8 9 5 6 7 1 3
1 5 4 7 9 3 2 8 6
5 4 8 7 1 2 9 6 3
7 8 9 5 2 6 3 4 1
2 6 4 9 7 1 3 8 5
6 3 4 5 7 9 2 8 1
3 1 4 6 7 9 8 5 2
8 5 1 9 3 6 2 4 7
5 2 7 8 9 3 1 4 6
1 9 2 6 4 8 5 3 7
6 8 5 2 9 1 3 4 7
7 2 9 8 1 4 3 6 5
6 2 5 7 1 8 4 3 9
4 7 9 5 3 2 6 1 8
9 2 7 1 3 8 5 4 6
3 4 9 2 1 8 6 5 7
7 8 3 6 9 4 1 5 2
8 3 1 7 9 2 5 4 6
5 6 7 9 4 3 2 8 1
3 2 4 1 5 6 8 9 7
6 9 1 7 4 5 3 8 2
3 8 6 7 5 9 1 4 2
5 3 2 4 7 9 1 6 8
7 8 6 4 1 3 2 5 9
1 6 2 3 7 5 4 9 8
5 7 6 4 9 1 2 8 3
8 3 9 1 5 4 2 6 7
5 1 6 9 7 4 8 2 3

6
Kaitlyn Luyendyk
Chris Fletcher
Clare Brown
Brad Crawley
Hannah Dorfman
Ben Dorfman
3 6 2 4 1 5
4 5 3 1 2 6
2 5 6 4 3 1
6 3 5 2 1 4
3 2 5 6 1 4
4 5 1 6 2 3
4 3 1 5 2 6
3 6 5 4 1 2
4 5 6 2 1 3
5 4 1 3 2 6
5 6 1 3 4 2
2 3 4 6 1 5
6 2 3 5 1 4
5 2 3 4 6 1
2 6 3 5 4 1
6 1 5 2 3 4
6 2 1 3 5 4
6 4 5 1 3 2
4 2 6 5 1 3
4 3 6 1 2 5
5 4 3 6 1 2
4 6 3 5 2 1
1 6 4 2 5 3
1 5 4 3 6 2
1 2 3 5 6 4
5 4 3 6 1 2
3 1 5 2 4 6
3 1 4 5 6 2
3 6 1 5 2 4
5 3 2 1 6 4
5 3 6 1 2 4
1 3 5 4 6 2
4 5 1 6 3 2
2 1 4 6 5 3
6 2 3 1 4 5
5 2 3 1 4 6
5 3 6 4 2 1
3 6 4 2 1 5
1 5 2 6 4 3
1 5 3 6 4 2
6 1 3 2 4 5
2 6 4 1 5 3
1 3 2 5 6 4
1 5 6 2 3 4
1 2 6 5 3 4

11
Katie Young
Andi Bristowe
Joey Brown
Becca Luyendyk
Matt Lowe
Desiree Soules
Ben Fletcher
Tayshia Maynard
Emily Adams
Jojo Crawley
Clayton Lindsay
7 4 9 11 3 2 5 6 8 1 10
8 1 10 7 3 6 4 11 2 5 9
4 5 10 6 7 2 11 8 9 3 1
4 9 6 2 5 7 1 3 11 10 8
9 11 4 10 5 8 3 1 7 6 2
3 8 4 1 9 2 10 11 5 7 6
1 6 11 9 8 7 2 5 3 10 4
6 8 1 5 2 10 7 11 3 4 9
4 5 1 9 10 3 6 11 8 7 2
3 4 1 5 7 6 11 8 2 9 10
7 5 6 10 1 11 8 2 9 4 3
10 2 1 6 7 3 4 5 8 9 11
2 1 9 11 6 5 3 10 8 7 4
2 3 1 11 5 9 6 8 7 4 10
5 6 7 3 11 4 2 10 1 8 9
1 8 6 9 3 2 4 5 10 7 11
6 3 4 7 5 2 11 9 1 8 10
4 10 8 3 5 6 1 2 7 11 9
4 7 5 6 3 1 10 11 9 8 2
1 4 7 3 5 9 8 10 6 2 11
9 2 7 10 1 3 6 5 11 8 4
7 10 9 4 6 5 8 1 3 2 11
8 6 4 3 1 9 2 5 11 7 10
10 3 5 7 2 4 1 11 6 9 8
1 8 9 11 6 3 10 4 7 5 2
5 8 11 1 3 6 2 7 4 9 10
7 5 2 4 11 10 8 6 1 9 3
1 6 4 2 11 3 8 7 9 5 10

1
Brad Adams
1
1
1
1
1
1
1
1
1
1
1
1
1
1
1
1
1
1
1
1
1
1
1
1
1
1
1
1
1
1
1
1
1
1

12
Clayton Flajnik
Kaitlyn Windey
Chris Hartsock
Rachel Lowe
Rachel Lowe
Tayshia Hartsock
Hannah Flajnik
Colton Fletcher
Colton Higgins
Colton Dorfman
Arie Thurston
Desiree James
9 12 8 11 6 4 1 7 3 5 10 2
5 1 8 4 2 11 10 6 12 9 3 7
2 1 4 11 12 6 10 9 8 7 5 3
8 12 7 1 2 11 3 10 9 4 5 6
5 9 8 4 1 2 6 7 11 3 12 10
6 12 9 11 8 4 2 3 7 5 10 1
5 2 3 1 6 4 7 8 12 10 9 11
11 1 8 12 5 10 3 9 2 6 7 4
10 3 6 11 7 8 2 1 5 9 12 4
3 8 5 1 7 11 9 2 4 12 10 6
10 9 8 7 2 6 1 11 4 5 3 12
8 9 3 6 12 10 1 5 11 4 2 7
1 11 7 3 4 10 2 8 5 6 12 9
9 7 3 8 1 11 10 5 6 2 12 4
2 1 10 3 4 6 11 7 12 9 8 5
2 11 12 10 1 5 8 9 4 3 6 7
4 11 6 9 8 5 12 10 3 1 2 7
6 9 3 8 7 1 4 12 11 5 2 10
4 5 7 11 10 9 6 1 12 3 8 2

11
Arie Flajnik
Ben Underwood
Clayton Hartsock
Nick Higgins
Charity Kufrin
Rachel Hartsock
Katie Flajnik
Clayton Windey
Gabby Graziadei
Peter Thurston
Tayshia Crawley
3 7 4 2 1 9 8 11 6 10 5
11 1 2 10 4 8 5 9 7 6 3
7 2 5 4 3 9 6 11 10 8 1
2 10 11 6 7 4 1 9 8 3 5
10 4 11 7 2 5 9 8 6 3 1
2 5 11 3 7 8 1 9 6 4 10
7 9 11 8 3 1 2 5 4 10 6
2 9 1 3 8 10 4 7 6 5 11
11 6 5 1 9 3 8 2 4 7 10
1 2 4 11 9 7 3 6 10 8 5
1 10 11 3 9 8 7 2 6 5 4
9 5 8 11 4 2 7 10 1 6 3
6 10 8 11 4 9 7 5 2 3 1
11 3 4 8 1 9 5 7 6 2 10
10 8 7 4 3 1 11 9 2 5 6
5 3 4 11 1 9 6 7 2 8 10
6 2 3 1 5 4 8 7 10 9 11
6 9 11 10 3 7 2 5 1 8 4
6 2 7 1 11 10 5 4 3 8 9
4 6 5 10 11 8 3 1 9 2 7
4 7 6 1 2 5 9 10 8 11 3
9 10 6 11 5 3 8 4 7 2 1
11 9 8 4 7 6 1 3 2 10 5
4 8 2 5 9 3 10 6 11 1 7
8 10 5 9 7 11 1 4 2 3 6
3 2 7 8 9 1 6 4 10 5 11
9 5 2 10 11 7 1 3 6 8 4
3 5 2 7 1 4 10 8 9 6 11
9 5 3 8 1 6 7 4 2 10 11
8 5 3 11 7 2 6 9 1 4 10
8 3 6 7 1 9 10 4 11 2 5
4 8 5 11 10 9 2 3 7 6 1
4 8 3 2 10 1 7 6 9 5 11
6 10 5 4 1 3 8 9 11 2 7
4 7 11 9 10 5 3 6 8 1 2
8 4 1 11 10 2 9 7 3 6 5

13
Joey Maynard
Charity Echard
Kaitlyn Luyendyk
Becca Graziadei
Colton Young
Hannah Kufrin
Ben Kufrin
Chris Weber
Katie James
Clayton Fletcher
Clayton Thurston
Gabby James
Peter Bristowe
6 3 10 4 9 11 7 5 13 12 2 1 8
1 7 11 10 12 13 9 4 8 6 5 2 3
10 11 8 1 12 2 5 4 6 7 3 9 13
8 9 6 4 10 1 3 7 5 2 11 12 13
9 5 7 12 13 4 3 2 8 1 10 6 11
4 10 11 9 7 1 13 12 3 8 5 2 6
11 6 4 10 13 3 7 2 9 12 5 8 1
2 9 12 3 4 5 6 1 10 7 11 8 13
6 12 4 2 10 1 13 3 7 8 11 5 9
3 4 10 7 8 6 11 9 1 13 2 12 5
10 7 13 9 8 4 6 11 2 3 5 1 12
3 5 4 10 6 9 7 2 11 12 8 1 13
10 11 1 3 7 5 4 8 6 9 12 13 2
12 4 11 3 1 5 8 2 9 6 10 7 13
7 1 2 3 8 13 4 10 5 11 6 9 12
2 10 7 4 13 11 12 9 3 5 6 8 1
11 6 7 5 1 3 4 9 2 8 10 12 13

2
Emily Recchia
Desiree Hartsock
1 2
2 1
2 1
1 2
2 1
2 1
2 1

15
Brad Recchia
Andi Crawley
Hannah Bristowe
Andi Soules
Hannah Luyendyk
Colton Bristowe
Tayshia Adams
Gabby Lowe
Ashley Recchia
Matt Graziadei
Michelle Adams
Ashley Dorfman
Emily Lowe
Emily Shallcross
Rachel Higgins
10 6 7 13 8 4 14 5 15 12 2 11 9 3 1
13 8 7 15 12 11 6 4 9 3 14 2 1 5 10
2 15 11 12 6 8 4 5 3 1 9 7 13 10 14
7 1 8 2 5 15 10 14 11 13 6 9 4 12 3
10 6 12 2 13 14 9 8 3 4 1 15 11 5 7
12 9 7 15 4 8 3 14 13 10 11 6 1 5 2

4
Kaitlyn Maynard
Andi Weber
Charity Hebert
Kaitlyn Dorfman
2 4 3 1
3 1 2 4
4 2 1 3
2 1 4 3
4 2 3 1
2 3 1 4
2 4 1 3
2 1 3 4
1 4 2 3
4 1 2 3
2 1 3 4
1 4 3 2
4 2 3 1
2 4 3 1
2 1 3 4
1 4 2 3
2 1 4 3
1 2 4 3

7
Clare Dorfman
Joey Crawley
Emily Thurston
Chris Hartsock
Charity Luyendyk
Becca Lawson
Zach Young
1 4 6 3 5 7 2
2 7 5 1 4 3 6
1 5 3 7 6 4 2
7 5 2 4 3 1 6
6 4 7 5 1 3 2
1 6 5 4 2 3 7
1 2 3 6 4 5 7
1 4 2 3 7 6 5
5 4 2 7 1 3 6
5 6 4 2 1 7 3
4 2 5 7 3 1 6
4 7 2 1 5 3 6
2 1 5 6 7 3 4
2 7 3 1 5 4 6
3 7 6 2 1 4 5
6 1 5 4 3 7 2
3 1 5 7 6 4 2
5 1 4 7 3 6 2
3 2 4 5 6 1 7

10
Hannah Crawley
Rachel Adams
Peter Brown
Sean Young
Ben Echard
Michelle Lindsay
Hannah Higgins
Kaitlyn Echard
Joey Windey
Clare Maynard
4 5 6 9 8 1 3 2 7 10
5 3 9 1 7 2 8 4 10 6
6 2 4 10 7 5 3 9 1 8
2 10 7 9 5 1 4 8 3 6
1 10 6 9 5 7 4 2 3 8
8 5 7 2 4 1 9 6 3 10
2 8 10 9 7 1 5 4 6 3
7 4 8 6 2 1 5 3 10 9
8 5 10 2 1 7 6 4 9 3
2 7 1 3 10 9 6 4 5 8

4
Zach Dorfman
Sean Lindsay
Nick Hartsock
Katie Flajnik
2 1 3 4
3 1 4 2
4 3 1 2
3 1 2 4
1 3 2 4
2 1 4 3
4 1 3 2
1 3 4 2
4 2 1 3
2 4 3 1
1 3 4 2
2 4 1 3
1 2 3 4
1 2 4 3
2 4 3 1
2 1 4 3
4 2 3 1
2 4 1 3
1 4 2 3

10
Kaitlyn Graziadei
Brad Dorfman
Clare Flajnik
Arie Kufrin
Kaitlyn Higgins
Sean Viall
Arie Crawley
Joey Recchia
Emily Higgins
Rachel Windey
7 2 10 4 3 9 8 1 5 6
10 3 5 7 8 1 9 2 4 6
5 10 9 1 8 6 4 2 3 7
8 4 5 9 3 7 1 6 10 2
6 3 9 1 10 5 8 2 7 4
9 8 6 7 2 3 5 1 4 10
10 3 6 7 8 4 9 5 2 1
1 2 4 5 3 9 8 7 10 6
7 9 8 5 1 2 10 4 3 6
6 7 3 1 8 10 5 4 2 9
7 8 9 10 2 6 5 3 4 1
1 4 6 3 5 2 8 7 10 9
5 7 8 6 1 3 4 9 10 2

8
Zach Echard
Chris Fletcher
Kaitlyn Bristowe
Jojo Hartsock
Nick Flajnik
Andi Lindsay
Desiree Flajnik
Jojo Higgins
5 2 6 7 8 3 4 1
3 2 7 5 4 6 1 8
6 1 8 7 4 5 2 3
8 1 6 2 4 7 3 5
5 3 4 6 2 7 8 1
3 6 4 8 1 7 5 2
2 7 6 3 1 5 8 4
6 1 5 4 7 3 2 8
2 3 8 4 6 5 1 7
4 7 2 8 1 3 5 6
3 5 7 8 4 2 6 1
5 8 7 1 2 4 6 3
6 4 5 7 8 1 2 3
8 1 4 6 3 7 5 2
3 2 5 1 8 4 6 7
6 4 7 8 2 5 1 3
8 2 6 7 4 5 3 1
7 8 5 1 4 6 2 3
3 6 7 1 2 5 8 4
6 1 5 7 2 3 8 4
5 7 2 1 3 8 4 6
3 5 2 4 6 1 8 7
4 8 5 3 6 1 7 2
3 4 8 1 7 5 6 2
8 7 5 4 1 6 2 3
3 2 8 7 5 6 1 4
4 8 2 6 3 5 1 7
6 4 5 3 2 8 7 1
5 4 8 1 6 2 3 7
1 3 7 2 8 6 4 5
5 1 4 8 7 3 2 6
5 3 6 7 1 4 2 8
8 3 2 1 7 4 5 6

10
Gabby Brown
Becca Lindsay
Becca Kufrin
Colton Hebert
Sean Kufrin
Clare Echard
Colton Graziadei
Kaitlyn Windey
Emily Hebert
Desiree Lowe
8 3 9 10 4 5 6 1 2 7
10 3 1 9 4 5 6 2 7 8
4 5 9 3 10 6 7 1 2 8
4 1 7 6 5 2 9 8 10 3
4 6 5 2 1 3 10 7 8 9
5 4 7 2 8 10 3 6 9 1
2 8 3 9 10 4 5 6 1 7
1 2 10 9 4 8 5 3 7 6
6 1 3 7 8 5 9 10 4 2
9 4 6 7 3 10 1 8 5 2
9 7 1 8 10 4 2 3 5 6
2 1 8 6 10 5 4 9 7 3
6 4 2 3 8 1 7 10 9 5
6 7 10 3 5 2 1 4 8 9
4 3 10 9 6 8 5 7 1 2
1 5 3 7 4 8 2 10 6 9
8 9 4 3 5 7 10 1 2 6
1 6 10 3 9 7 4 8 5 2
6 7 4 9 10 8 3 5 1 2
3 9 7 8 2 4 10 5 1 6
1 3 7 9 6 8 2 5 10 4
7 1 5 10 2 8 3 4 9 6
6 5 7 4 10 1 9 8 2 3
7 4 10 5 3 9 8 1 6 2
4 5 6 3 7 9 2 1 10 8
3 9 7 1 4 6 2 8 10 5
2 7 4 9 10 5 3 6 8 1
9 4 10 7 1 6 8 3 5 2
7 10 6 4 2 5 8 9 1 3
5 7 9 3 2 4 1 6 10 8
2 3 10 7 5 9 6 8 4 1
4 1 7 6 8 5 9 2 3 10
10 3 1 7 8 5 9 2 6 4

19
Clayton Viall
Brad Luyendyk
Clayton Graziadei
Clayton Lindsay
Michelle Graziadei
Rachel Maynard
Andi Lowe
Andi Echard
Ben Lawson
Katie Bristowe
Joey Lawson
Jojo Flajnik
Michelle Soules
Charity Lindsay
Clare Young
Zach Recchia
Desiree Lowe
Clayton Underwood
Becca Graziadei
15 18 11 4 5 9 10 12 19 6 17 8 1 2 13 7 3 14 16
19 18 5 7 8 10 12 15 13 2 14 9 17 11 3 6 1 4 16
7 11 13 5 1 6 10 19 2 17 8 12 4 15 18 9 14 16 3
17 10 7 11 19 15 4 14 2 6 9 18 16 8 1 13 5 12 3
2 16 8 1 19 11 17 18 15 13 10 9 12 14 6 7 3 4 5
1 16 5 4 13 12 18 14 7 17 19 2 15 9 6 8 11 3 10
12 5 7 2 9 15 10 6 14 3 1 8 19 16 18 13 11 17 4
4 8 11 1 5 17 16 13 2 9 12 10 14 6 7 3 15 19 18
12 4 2 11 3 10 15 5 8 1 7 18 16 17 6 13 19 9 14
12 18 9 10 17 13 7 2 4 16 6 8 15 5 3 19 1 11 14
17 5 18 16 7 2 8 1 10 19 13 6 3 9 14 4 11 12 15
11 15 6 3 5 13 1 7 8 19 14 4 12 9 10 17 2 18 16
5 11 16 6 17 18 7 19 2 3 4 9 8 12 10 15 1 14 13
10 11 7 3 17 15 13 6 16 9 19 2 12 14 4 8 5 18 1
3 18 16 9 4 12 13 11 7 8 14 19 2 17 1 5 15 6 10
10 9 13 15 16 6 19 7 18 2 5 1 11 14 4 8 12 17 3
5 10 11 3 15 4 13 16 18 12 9 17 2 1 8 6 19 14 7

5
Katie Hartsock
Matt Brown
Matt Weber
Nick Higgins
Joey Lowe
2 1 5 3 4
5 1 3 2 4
5 4 2 1 3
1 2 4 3 5
3 2 1 5 4
2 4 1 3 5
3 4 5 2 1
4 2 3 5 1
3 4 5 1 2
4 2 3 5 1
5 2 1 4 3
4 2 1 3 5
5 3 1 4 2
1 2 3 5 4
5 4 2 1 3
3 2 5 1 4
1 3 5 2 4
4 2 1 3 5
2 4 1 3 5
4 5 1 2 3
4 1 5 2 3
1 4 3 2 5
1 3 5 2 4
1 4 3 2 5
1 5 2 3 4
2 4 3 1 5
5 2 1 4 3
4 3 1 2 5
4 1 3 5 2
1 2 5 4 3
3 4 5 2 1
5 4 2 3 1
4 2 5 3 1
3 5 2 1 4
1 5 2 4 3
5 1 4 2 3
2 1 3 5 4
4 3 1 5 2
4 3 1 2 5
1 5 4 2 3
2 5 3 1 4

12
Michelle James
Joey Recchia
Rachel Kufrin
Nick Higgins
Katie James
Sean Shallcross
Matt Hebert
Katie Recchia
Clare Echard
Hannah Fletcher
Arie Echard
Becca Underwood
6 3 7 4 10 9 5 1 12 2 8 11
2 11 12 10 4 9 1 6 7 3 8 5
9 2 6 5 4 1 7 3 12 8 11 10
1 4 7 9 11 12 2 6 5 10 8 3
2 12 6 1 5 8 9 10 7 4 3 11
7 3 10 6 5 11 12 8 4 2 9 1
4 2 9 10 1 3 11 5 12 6 8 7
2 8 10 5 12 1 6 11 3 4 7 9
11 5 4 2 1 3 9 12 7 6 8 10
5 9 4 6 12 3 7 10 11 8 1 2
12 1 11 7 6 9 10 5 2 4 8 3
10 2 1 11 5 6 4 3 9 12 8 7
12 7 3 2 4 6 5 10 1 8 11 9
8 10 12 7 2 3 9 5 4 1 6 11
7 1 9 2 10 12 11 6 4 3 8 5
10 12 2 7 5 1 4 6 3 8 9 11
7 6 3 8 9 5 12 2 1 10 4 11
11 9 8 5 4 1 6 3 12 2 7 10
8 5 4 10 7 11 9 1 2 12 3 6
6 7 9 12 8 4 1 11 10 2 5 3
7 6 11 10 12 4 9 3 1 8 5 2
11 10 12 5 7 3 2 1 6 9 4 8
12 7 5 3 6 1 4 11 9 8 2 10

6
Emily Brown
Sean Hartsock
Jojo Thurston
Zach Lawson
Matt Higgins
Michelle Underwood
1 6 5 4 2 3
3 2 4 1 6 5
3 1 6 5 2 4
4 3 2 6 1 5
6 3 5 1 2 4
2 3 1 6 5 4
1 2 6 4 3 5
3 2 6 5 1 4
1 6 2 5 4 3
4 1 3 5 6 2
1 3 2 4 6 5
6 4 5 3 1 2
1 6 4 3 5 2
6 1 2 5 3 4
1 3 6 2 4 5
6 5 2 3 4 1
2 1 4 5 3 6
4 1 5 2 6 3
6 3 2 1 4 5
4 6 2 1 3 5
5 6 1 3 2 4
6 2 4 1 3 5
4 6 1 3 2 5
6 3 1 4 2 5
2 1 4 3 5 6
3 5 2 4 1 6
6 5 2 1 3 4
4 5 6 3 2 1
4 2 3 5 1 6
3 2 1 6 4 5
5 1 6 2 4 3
1 2 6 4 5 3
2 6 5 1 3 4

16
Matt Soules
Gabby Viall
Matt Weber
Ashley Viall
Joey Viall
Katie Dorfman
Peter Graziadei
Ben Crawley
Peter Weber
Chris Underwood
Charity Brown
Chris Underwood
Peter Echard
Andi Shallcross
Colton Lawson
Brad Lowe
14 10 16 13 8 7 1 11 4 12 6 5 9 2 15 3
7 15 12 14 10 16 11 6 8 2 1 4 3 5 9 13
2 3 10 13 5 15 11 8 7 12 1 14 6 4 16 9
12 16 7 2 13 4 8 10 6 9 3 11 14 1 5 15
8 9 2 11 13 4 12 3 15 1 5 14 10 16 6 7
12 14 6 10 3 1 16 9 13 11 8 5 15 2 4 7
5 9 3 4 16 10 8 1 13 7 15 2 14 11 6 12
5 2 6 4 7 10 9 13 12 16 14 11 1 15 8 3
4 16 10 2 14 15 8 12 1 11 13 9 3 6 5 7
13 5 15 8 1 4 11 2 10 7 9 6 12 16 3 14
10 1 11 16 2 8 7 12 5 9 13 14 15 4 6 3
10 8 1 14 9 12 6 13 3 7 15 4 11 5 2 16
5 15 11 14 4 16 1 2 6 3 13 9 7 12 10 8
6 12 9 11 3 10 16 2 15 8 4 14 7 5 1 13
8 11 4 7 1 6 13 2 5 14 9 3 12 16 15 10
12 16 3 9 11 5 7 8 13 4 1 10 15 2 6 14
1 12 8 6 7 16 15 2 3 5 13 9 4 11 10 14
8 11 16 1 7 15 12 13 4 3 9 14 10 2 5 6
16 4 1 9 10 2 11 13 3 14 8 7 5 12 6 15
1 12 4 11 2 3 16 13 5 8 10 15 9 7 6 14
9 3 4 2 13 10 5 8 7 15 11 16 6 12 14 1
12 5 1 4 8 6 9 3 7 14 15 16 11 10 2 13
10 2 5 9 13 16 3 8 12 14 1 11 15 7 6 4
1 11 16 9 7 3 15 8 5 6 12 14 2 4 10 13
8 14 9 5 7 15 1 2 12 6 16 11 3 10 4 13
7 8 14 2 3 11 10 1 15 5 4 16 13 12 6 9

5
Ben Echard
Tayshia Windey
Desiree Echard
Charity Soules
Tayshia Young
1 2 4 3 5
5 1 4 3 2
3 2 5 4 1
3 4 1 5 2
3 2 4 1 5
5 3 2 1 4
1 4 3 5 2
4 3 2 5 1
3 4 1 5 2
4 2 5 1 3
1 3 4 5 2
1 2 3 4 5
3 5 4 1 2
2 3 1 4 5
3 5 4 1 2
3 2 1 5 4
4 5 2 3 1
4 1 5 3 2
5 2 4 3 1
5 4 2 1 3
5 4 1 3 2
4 5 3 1 2
3 5 2 1 4
5 4 3 1 2
5 3 4 2 1
3 1 5 2 4
4 3 5 2 1
1 5 2 4 3
3 5 1 4 2
3 4 2 1 5
1 4 5 2 3
2 5 1 3 4
2 5 1 4 3
2 1 5 3 4
1 5 3 4 2
4 5 2 1 3
2 1 4 3 5
4 5 1 2 3
3 1 2 4 5
4 2 5 3 1
3 4 5 1 2
2 3 1 5 4
1 2 3 4 5
2 5 3 1 4
1 5 4 3 2

6
Clayton Weber
Becca Adams
Clayton Lindsay
Charity Underwood
Ashley James
Rachel Lawson
2 1 6 5 3 4
5 2 4 3 1 6
6 5 1 4 2 3
4 6 5 3 1 2
2 3 1 5 6 4
6 5 2 3 1 4
3 4 6 2 5 1
1 2 4 3 5 6
1 5 4 3 6 2
5 2 3 4 6 1
2 5 4 1 6 3
3 4 6 5 1 2
1 6 2 4 3 5
4 3 2 6 5 1
2 1 5 6 3 4
5 4 3 1 2 6
5 2 1 6 4 3
4 1 3 6 2 5
3 6 4 5 2 1
4 6 2 5 1 3
5 2 3 1 6 4
3 5 1 2 6 4
6 4 2 1 3 5
3 5 6 1 4 2
4 2 6 1 3 5
3 2 6 5 1 4
6 3 5 2 1 4
4 2 5 3 6 1
4 3 6 1 5 2
1 2 3 5 4 6
4 2 1 6 5 3
6 4 1 5 2 3
4 1 5 6 2 3
6 1 5 4 2 3
1 5 6 4 2 3
4 1 2 5 6 3
6 4 3 2 1 5
2 3 1 6 5 4
5 3 2 1 6 4
3 4 2 6 5 1
4 3 5 2 1 6
2 4 3 6 1 5
5 1 6 2 4 3
1 2 4 3 6 5
2 6 5 3 1 4
2 5 6 1 3 4
2 1 4 6 3 5
4 6 5 1 3 2
5 6 3 4 2 1
5 3 4 6 1 2

1
Brad Shallcross
1
1
1
1
1
1
1
1
1
1
1
1
1
1
1

20
Brad Maynard
Tayshia Adams
Arie Luyendyk
Desiree Maynard
Clare Kufrin
Gabby Underwood
Arie Lawson
Chris Brown
Chris Shallcross
Matt Recchia
Rachel Maynard
Gabby Hartsock
Charity Higgins
Tayshia Fletcher
Desiree Soules
Gabby Echard
Chris Shallcross
Zach Hartsock
Rachel Soules
Joey Underwood
2 19 4 14 17 11 13 16 12 3 6 15 1 5 7 8 10 18 9 20
16 15 18 1 6 20 12 8 7 5 14 9 2 10 17 13 4 3 19 11
5 4 6 10 13 7 1 20 19 2 16 14 9 3 15 8 12 17 11 18
11 13 19 5 18 2 7 16 12 1 10 3 9 6 4 20 15 17 8 14
4 12 3 2 17 13 6 7 11 1 16 19 18 8 5 9 10 20 14 15
1 16 18 19 6 5 4 17 9 12 15 3 7 2 13 8 20 11 10 14
14 15 3 10 4 12 20 1 2 16 6 7 18 9 5 19 11 8 13 17
4 17 9 10 6 11 1 2 8 12 14 3 19 13 15 7 5 20 16 18
6 15 12 19 4 9 3 7 1 2 5 8 10 20 14 11 16 17 13 18
1 3 11 13 15 10 9 20 12 16 17 2 8 14 4 18 5 19 7 6
2 15 3 7 16 17 14 13 1 19 5 12 6 9 10 8 18 4 11 20
10 1 11 2 9 18 8 12 15 5 4 20 17 16 7 19 6 13 14 3
16 18 5 14 19 4 20 17 15 13 12 7 10 8 9 11 1 3 2 6
9 18 8 10 1 12 4 5 16 17 6 15 13 2 3 11 7 20 19 14
10 6 11 7 4 18 9 15 17 2 13 12 5 20 1 14 3 19 16 8
5 1 3 6 4 19 10 15 20 12 16 7 2 9 13 18 8 14 17 11
15 3 18 19 12 16 1 5 2 13 9 17 7 20 14 10 11 6 4 8
16 7 13 17 19 18 15 4 11 6 14 2 10 3 20 8 5 1 12 9
13 9 18 16 4 10 8 14 12 3 5 20 11 7 6 17 15 2 19 1
13 6 16 19 3 8 9 18 2 10 7 15 12 17 5 11 20 1 14 4
19 3 8 12 2 9 16 17 13 14 20 18 11 10 6 4 1 5 15 7
18 4 13 10 3 8 12 19 1 20 6 11 16 7 14 17 5 15 2 9
12 19 10 13 5 20 9 16 2 18 17 1 7 4 6 14 3 8 11 15
3 13 4 2 20 1 10 6 17 5 12 14 15 18 8 9 7 11 19 16
13 16 3 2 11 12 8 1 19 10 17 6 9 7 5 18 4 14 20 15
6 8 16 18 4 13 7 14 1 2 5 17 19 11 9 20 3 15 12 10
20 10 16 1 13 8 17 11 2 9 18 3 19 5 6 14 4 12 7 15
19 11 12 13 1 20 8 18 5 16 7 17 15 14 9 10 4 2 6 3
17 20 5 12 4 13 16 10 8 3 1 19 9 15 7 11 18 14 6 2
14 18 5 2 11 8 19 15 7 13 6 16 12 1 3 10 20 17 4 9
13 1 10 3 4 12 9 16 11 20 7 6 5 19 17 18 15 2 14 8
13 5 20 3 14 6 11 16 17 15 4 18 9 12 19 1 10 2 7 8
9 1 19 17 6 15 8 20 4 2 5 14 11 16 3 18 7 10 13 12
12 7 5 18 3 19 1 16 9 11 14 20 8 4 2 15 17 13 10 6
2 13 9 5 8 20 11 3 17 7 15 19 12 1 18 4 10 16 6 14
14 11 7 20 15 9 3 4 13 1 18 19 12 2 10 5 8 17 6 16
3 18 11 2 16 19 20 5 14 6 4 15 10 12 1 13 17 8 7 9
6 7 20 12 13 11 1 3 15 19 16 4 14 9 10 5 18 2 17 8
14 13 5 11 10 20 6 19 2 9 16 12 8 4 3 18 1 17 7 15
13 16 15 1 18 17 9 2 10 19 6 12 14 8 5 7 20 3 4 11
13 19 17 18 2 16 1 12 20 3 4 10 15 6 8 7 9 14 11 5
10 3 14 17 6 15 19 9 5 1 12 20 11 8 7 16 4 13 2 18
7 18 14 13 19 4 12 11 9 15 1 3 6 8 2 17 16 20 5 10
6 12 14 1 17 20 3 5 15 13 4 11 10 8 18 16 19 9 2 7
6 14 15 10 16 7 12 5 4 9 3 17 2 18 1 8 19 13 11 20
6 4 10 16 17 9 7 13 3 2 18 5 12 19 11 1 15 14 20 8
4 2 8 18 16 17 20 19 3 14 1 10 7 5 13 6 12 9 11 15
2 7 4 14 10 5 19 15 11 1 20 6 3 9 16 17 12 8 13 18
9 7 15 10 2 5 6 14 13 17 18 16 4 11 12 20 1 19 8 3
6 12 14 20 13 5 10 15 8 19 17 18 4 11 16 1 3 9 2 7
20 12 17 16 15 8 3 5 11 13 9 6 2 10 7 1 18 19 4 14

20
Matt Lawson
Gabby Windey
Colton Echard
Sean Maynard
Katie Crawley
Peter Crawley
Hannah Fletcher
Kaitlyn Bristowe
Charity Brown
Brad Fletcher
Hannah Hebert
Jojo Young
Zach Underwood
Sean Hartsock
Emily Soules
Clayton Underwood
Nick Echard
Chris Luyendyk
Ben Underwood
Gabby Lawson
11 16 6 19 9 10 17 7 14 5 3 18 2 8 15 20 12 4 13 1
15 3 20 13 5 1 2 4 6 7 14 18 19 9 11 16 17 12 10 8
6 8 3 14 12 16 17 13 19 15 20 5 4 18 9 7 11 2 10 1
12 7 5 9 18 2 16 11 13 17 15 4 14 19 10 3 8 1 20 6
12 20 17 3 18 7 8 6 19 16 2 1 14 10 13 9 11 5 15 4
7 3 19 18 8 11 17 15 12 14 9 1 10 4 13 20 5 6 2 16
12 18 14 9 15 13 17 16 11 7 19 8 10 20 5 3 4 6 1 2
2 6 7 18 11 9 16 17 20 4 13 12 19 1 3 8 14 15 10 5
18 9 8 19 1 5 7 20 4 10 2 16 14 3 11 6 17 15 13 12
20 9 8 3 6 1 11 16 13 12 14 19 10 5 7 18 15 4 17 2
18 9 19 12 10 15 17 6 20 2 8 1 13 14 4 7 16 11 5 3
18 17 6 12 19 13 5 14 8 16 2 10 20 4 9 3 1 11 15 7
19 3 13 1 14 18 4 16 2 15 9 11 6 7 5 8 12 10 17 20
15 16 11 1 7 18 12 19 3 4 13 20 9 2 5 6 17 10 14 8
14 20 6 4 13 9 5 10 3 8 2 12 7 16 19 17 11 15 18 1
17 2 5 18 4 20 19 7 12 3 10 16 6 9 15 13 11 8 1 14
8 3 7 4 18 1 12 19 5 14 2 11 15 17 6 20 16 10 13 9
17 14 13 8 16 20 10 19 2 4 18 6 12 11 1 7 3 15 5 9
16 19 4 12 7 8 2 15 5 10 3 1 14 11 18 17 6 13 9 20

13
Matt Bristowe
Desiree Higgins
Matt Hartsock
Arie Maynard
Peter Thurston
Clayton James
Jojo Underwood
Chris Thurston
Sean Crawley
Clayton Viall
Brad Graziadei
Sean Adams
Chris Windey
10 9 5 8 7 13 12 1 11 4 6 3 2
10 11 1 6 12 5 4 3 13 9 2 8 7
8 1 3 2 6 11 5 7 13 12 9 10 4
6 3 7 4 13 9 12 2 1 8 5 11 10
8 5 3 10 7 6 1 11 13 12 4 9 2
2 11 5 1 8 13 12 7 9 3 10 4 6
1 3 8 11 4 9 2 6 12 13 5 10 7
5 10 2 11 1 12 6 7 3 4 8 9 13
4 1 12 7 8 3 9 13 5 10 2 6 11
1 2 7 6 8 11 9 3 13 10 4 5 12
13 10 11 5 8 3 2 7 6 9 1 12 4
12 13 11 7 1 9 8 4 5 10 3 2 6
1 2 11 12 13 4 8 6 10 3 5 9 7
10 3 11 1 4 2 13 8 7 5 12 9 6
12 6 7 4 2 9 10 1 3 13 5 11 8
13 12 3 1 2 10 5 9 4 11 7 6 8
12 1 6 5 3 8 4 13 10 2 11 7 9
10 8 9 12 11 13 2 6 3 5 1 7 4
4 5 1 6 12 3 11 8 7 9 10 2 13
13 6 12 8 11 9 5 3 2 1 10 4 7
10 12 13 7 11 1 2 3 6 8 4 5 9

16
Peter Graziadei
Michelle Thurston
Joey Graziadei
Gabby Kufrin
Michelle Higgins
Desiree Weber
Desiree Maynard
Rachel Recchia
Colton Shallcross
Peter Soules
Joey Shallcross
Zach Windey
Matt Lowe
Nick Shallcross
Hannah Lawson
Clare Soules
1 10 12 15 11 8 3 4 13 6 5 2 16 9 7 14
16 13 10 7 1 11 14 9 6 3 12 5 2 8 4 15
3 7 14 12 8 2 13 4 6 5 11 15 10 9 1 16
15 12 10 8 13 9 1 2 3 6 4 11 7 14 16 5
12 4 1 14 5 7 2 11 9 3 13 15 8 16 6 10
2 9 8 5 16 15 7 11 14 1 10 3 12 13 6 4
7 2 15 11 12 1 9 8 16 14 5 6 4 3 13 10
6 1 16 2 8 14 11 10 13 12 3 5 15 7 9 4
5 14 2 15 9 10 16 4 8 13 11 3 12 1 7 6
12 13 1 6 8 7 11 9 10 14 2 3 16 4 5 15
1 7 3 8 2 5 9 15 6 10 4 11 12 13 16 14
14 10 2 11 9 16 1 4 7 12 15 5 13 8 6 3
15 3 13 9 2 12 10 7 1 8 5 6 4 16 14 11

11
Michelle Lawson
Peter Dorfman
Nick Luyendyk
Chris Weber
Hannah Lindsay
Katie Luyendyk
Hannah Soules
Kaitlyn Viall
Matt Young
Colton Recchia
Sean Recchia
7 10 6 11 3 2 1 8 4 5 9
1 2 11 9 6 4 7 3 10 5 8
3 1 8 9 6 7 2 4 10 5 11
5 11 2 10 3 8 7 6 4 1 9
8 10 5 1 2 7 4 6 3 9 11
5 9 3 6 11 10 1 7 8 4 2
10 6 5 11 4 9 2 3 1 8 7
9 11 3 6 10 1 5 8 2 7 4

9
Hannah Lowe
Zach Lindsay
Matt Recchia
Jojo Bristowe
Hannah Thurston
Tayshia Adams
Clare Brown
Hannah Kufrin
Clare Higgins
6 9 3 5 7 2 1 8 4
5 4 6 8 2 3 1 9 7
2 3 9 8 5 1 4 6 7
1 8 4 6 3 2 7 5 9
2 6 1 7 5 3 9 4 8
1 9 8 5 4 3 6 2 7

14
Kaitlyn Luyendyk
Andi Bristowe
Tayshia James
Kaitlyn Weber
Desiree Lawson
Brad Kufrin
Hannah Underwood
Chris Windey
Zach Hartsock
Zach Hebert
Charity Thurston
Zach Luyendyk
Michelle Higgins
Kaitlyn Higgins
7 5 4 9 13 8 11 6 14 12 2 3 10 1
9 13 1 11 2 8 6 14 7 5 12 3 10 4
3 1 11 6 13 12 2 9 8 5 14 4 10 7
11 1 14 13 3 7 2 5 6 9 4 8 10 12
4 6 14 13 2 9 5 7 1 11 12 3 8 10
6 11 12 14 8 5 2 9 13 10 4 3 1 7
2 6 11 5 8 12 3 13 10 9 14 4 7 1
4 1 12 7 3 9 5 8 6 13 2 10 14 11
8 14 13 11 4 6 5 7 12 9 3 10 1 2
12 4 3 1 14 2 13 7 8 6 9 10 11 5
14 5 4 1 3 12 8 9 13 2 7 11 10 6
7 12 4 9 3 11 8 6 14 2 5 1 13 10
8 3 6 14 12 13 11 4 7 9 10 1 2 5
2 12 5 14 4 11 13 8 7 9 3 10 1 6
10 8 3 11 14 4 7 6 2 13 12 5 1 9
11 13 8 10 2 3 7 5 12 6 9 4 1 14
7 6 8 3 13 10 5 9 2 14 4 12 11 1
7 6 11 12 9 5 3 4 8 2 14 10 13 1
9 10 4 7 11 13 5 6 12 1 3 8 14 2
12 3 7 5 2 8 1 13 6 11 10 14 4 9
6 9 7 5 10 11 3 12 13 14 4 1 8 2
5 14 9 6 13 4 12 1 8 3 2 7 10 11
7 13 6 14 4 11 2 3 9 8 12 10 5 1
6 4 2 12 7 11 10 3 13 9 5 8 1 14
1 10 6 4 11 8 3 9 7 14 13 12 5 2
11 13 7 3 6 14 1 8 12 5 4 10 2 9
11 10 13 7 14 6 1 2 9 3 12 4 5 8
6 1 2 11 13 10 7 5 14 9 12 3 4 8
3 10 5 12 11 13 6 8 2 14 4 7 9 1
7 4 3 8 12 11 2 14 1 9 5 6 10 13
9 3 1 4 13 7 10 11 6 2 5 14 8 12
13 6 5 10 11 12 9 3 1 7 14 2 4 8
7 4 13 1 6 9 12 5 8 3 2 14 11 10
8 10 12 6 7 11 2 1 9 13 4 14 3 5
12 9 11 10 8 4 6 2 5 13 14 3 7 1
13 5 10 11 3 4 1 2 8 12 7 9 6 14
11 2 13 9 4 1 8 10 6 14 3 7 5 12
7 13 8 14 3 10 9 4 1 11 2 5 12 6
3 6 4 8 11 10 12 13 2 1 7 9 14 5

5
Becca Higgins
Gabby Graziadei
Ben Viall
Ben Fletcher
Desiree James
2 5 1 3 4
4 5 2 3 1
2 1 5 3 4
3 5 4 2 1
1 4 3 2 5
3 2 4 5 1
3 5 2 4 1
5 2 1 4 3
2 5 3 4 1
3 1 5 2 4
4 2 3 5 1
1 5 4 2 3
2 3 4 1 5
4 2 3 5 1
1 3 4 2 5
3 2 1 5 4
3 4 1 5 2
2 1 5 3 4

13
Gabby Windey
Jojo Hartsock
Brad Recchia
Colton Kufrin
Gabby Hebert
Peter Underwood
Sean Windey
Arie Crawley
Rachel Flajnik
Kaitlyn Shallcross
Emily Crawley
Ashley Adams
Clayton Higgins
7 1 10 5 9 4 8 11 2 6 3 13 12
11 12 10 2 5 7 4 6 13 1 3 8 9
13 1 6 7 2 12 8 5 4 11 3 10 9
4 9 10 12 6 13 11 2 3 1 5 7 8
8 5 10 1 7 12 6 13 3 11 4 9 2
11 1 12 4 13 2 7 6 5 3 10 8 9
3 12 5 10 2 13 6 8 4 9 7 1 11
4 7 6 9 8 2 12 10 5 11 1 3 13
8 2 6 1 12 11 10 3 13 9 4 5 7
13 10 4 6 1 11 3 8 7 9 12 5 2
2 11 13 8 9 1 4 3 12 5 10 6 7
9 3 1 13 2 12 7 5 8 6 4 11 10
12 13 11 3 10 4 1 5 9 6 2 8 7
9 4 8 1 13 11 2 10 5 7 12 3 6
9 6 12 8 2 11 4 5 10 1 13 3 7
7 6 11 3 2 9 13 10 4 5 12 1 8
5 9 1 4 8 10 13 2 6 12 7 3 11
4 10 9 12 3 1 11 6 13 7 8 5 2
8 7 11 10 2 6 9 13 5 1 4 12 3
13 4 6 5 1 7 2 11 10 9 8 12 3
4 5 9 7 11 6 10 2 3 1 8 12 13
12 5 9 10 11 8 2 1 3 4 6 7 13
6 3 4 7 1 11 10 13 5 9 12 8 2
5 1 4 12 2 7 11 9 3 8 6 13 10
9 2 3 7 10 8 1 4 6 13 5 12 11
1 13 3 11 5 8 10 4 2 12 9 7 6
8 4 6 7 12 13 5 3 1 2 11 9 10
4 6 12 8 10 13 5 2 3 7 11 1 9
6 8 12 2 10 3 11 1 7 13 9 4 5
9 8 5 2 6 1 11 7 10 13 12 3 4
1 13 2 8 5 7 4 10 3 12 6 9 11
12 2 13 4 5 6 1 8 3 10 11 7 9
8 7 5 2 12 9 3 1 13 11 10 4 6
11 12 3 5 13 8 6 1 9 2 4 10 7
12 13 9 5 2 4 3 7 6 1 11 8 10
5 11 13 2 9 3 7 4 1 10 8 6 12
11 4 1 9 6 2 3 7 5 10 12 13 8
6 12 10 5 11 9 4 7 3 2 8 1 13
8 11 6 13 1 3 2 9 5 12 4 7 10
6 7 8 1 3 4 2 13 9 5 11 12 10
6 4 3 8 7 11 13 2 9 5 10 12 1
4 6 7 10 12 13 1 11 5 9 3 2 8
9 4 1 10 11 6 2 3 5 8 7 12 13
4 10 6 11 1 13 12 7 5 3 2 9 8
12 8 10 5 6 4 7 13 1 9 3 2 11
1 3 11 5 4 13 12 8 7 2 10 9 6
7 3 12 6 8 9 1 5 11 10 4 2 13
2 12 5 1 9 11 10 4 3 6 13 8 7
4 11 8 13 12 2 10 9 6 1 5 3 7
11 7 12 9 10 6 8 13 1 4 3 5 2
3 13 10 11 12 7 8 9 2 1 4 6 5
2 13 4 9 11 8 12 5 3 1 10 7 6
2 11 10 6 5 8 7 1 12 4 13 3 9
7 10 1 3 9 4 13 11 12 6 5 2 8

9
Nick Lindsay
Sean Flajnik
Arie Shallcross
Desiree Kufrin
Tayshia Young
Ben Hebert
Michelle Echard
Arie Bristowe
Joey Flajnik
1 8 5 2 6 4 7 9 3
1 4 8 6 9 3 5 7 2
4 3 7 9 2 6 5 1 8
5 7 6 4 9 1 8 2 3
9 8 3 7 4 6 1 2 5
3 6 8 2 4 9 7 5 1
9 6 8 5 1 7 3 2 4
4 3 2 7 8 9 6 1 5
7 2 3 8 1 9 6 5 4
2 3 9 7 8 1 6 5 4
5 4 8 1 3 9 7 6 2
5 6 9 2 7 3 1 4 8
8 3 1 5 6 9 4 7 2
3 7 6 9 1 8 4 2 5
6 2 9 3 8 1 5 7 4
3 2 4 7 5 8 9 1 6
9 5 7 4 1 8 2 6 3
5 3 2 1 7 4 9 8 6
6 8 5 9 4 1 2 3 7
5 1 4 2 3 7 8 9 6
9 1 7 4 5 2 8 6 3
2 3 6 8 9 7 5 1 4
1 2 3 7 9 8 5 6 4
7 9 1 5 2 8 4 3 6
6 1 2 7 4 5 9 3 8
6 3 4 7 8 2 1 9 5
3 9 2 7 8 5 4 1 6
9 1 4 5 3 2 8 7 6
8 5 2 7 1 4 6 9 3
8 3 5 9 4 6 2 7 1
7 3 9 8 1 5 4 2 6
8 3 1 6 2 9 7 5 4
5 1 3 7 8 6 9 2 4
1 3 5 6 2 7 4 9 8
7 5 8 3 9 4 2 6 1
7 3 8 9 2 4 5 6 1
5 3 8 4 2 9 7 1 6

10
Becca Bristowe
Sean Recchia
Colton Thurston
Tayshia Brown
Rachel Lindsay
Chris Echard
Sean Higgins
Ashley Young
Colton Fletcher
Ashley Shallcross
10 3 4 9 2 7 6 5 1 8
3 2 4 9 5 6 1 8 10 7
1 7 9 10 5 8 3 4 2 6
2 10 9 4 7 3 6 1 8 5
9 2 1 3 10 7 8 6 5 4
6 10 2 7 3 1 5 4 8 9
8 6 1 2 5 7 3 10 9 4
6 4 10 8 2 5 1 3 7 9
5 9 6 3 1 10 2 8 7 4
5 6 9 10 1 4 3 8 2 7
8 6 3 2 4 10 1 5 7 9
2 8 3 10 7 9 1 5 6 4
4 1 5 6 7 2 3 10 9 8
2 4 3 9 6 10 5 1 7 8
2 5 3 4 7 10 1 6 8 9
2 8 9 1 10 7 3 5 4 6
1 2 4 3 6 10 9 7 8 5
1 7 9 2 6 10 3 5 4 8
6 4 8 3 7 5 2 1 9 10
1 6 8 7 5 10 2 4 9 3
6 9 4 1 5 7 8 2 3 10
3 5 8 2 4 10 7 9 1 6
7 2 8 1 6 9 10 5 4 3
6 1 3 10 8 4 9 2 5 7
5 9 3 8 1 2 7 10 6 4
4 8 7 10 3 6 5 9 1 2
8 7 4 10 1 6 3 5 9 2
3 8 5 9 1 6 10 7 2 4
8 3 1 2 10 6 7 4 9 5
7 5 1 10 9 6 8 3 2 4
2 10 3 5 8 9 4 7 6 1
2 4 5 6 1 10 9 3 7 8
8 5 1 4 2 7 3 10 6 9
6 3 4 1 8 9 5 10 7 2
4 10 3 1 2 9 8 6 5 7
1 10 9 7 2 3 4 6 5 8
4 5 7 9 1 10 6 3 2 8
8 1 6 3 10 9 5 4 7 2
8 5 1 6 7 9 4 3 2 10
6 7 8 1 10 3 2 5 4 9
6 1 8 2 3 4 7 9 10 5
1 6 2 4 7 3 10 5 9 8
10 8 1 5 3 6 2 4 7 9
6 5 9 10 8 1 3 4 7 2
8 6 1 3 4 2 10 9 7 5
10 5 9 2 1 3 8 4 7 6
10 4 9 7 6 3 1 5 2 8
6 9 8 2 5 7 1 3 4 10
1 9 7 6 3 4 8 2 10 5

19
Hannah Luyendyk
Brad James
Gabby Windey
Matt Lowe
Colton Lindsay
Ben Hebert
Gabby Thurston
Desiree Lawson
Nick Higgins
Becca Hartsock
Charity Maynard
Ashley Flajnik
Peter Windey
Charity Viall
Rachel Lowe
Chris Hebert
Katie Lowe
Clare Weber
Rachel Higgins
14 4 12 18 13 16 17 11 3 10 19 8 9 15 1 2 7 5 6
13 2 4 10 12 1 14 5 15 3 8 18 9 16 7 11 19 6 17
3 11 5 12 8 9 16 10 15 14 1 17 7 4 18 6 13 19 2
9 15 12 18 3 11 7 13 14 16 5 4 10 1 19 8 17 2 6
14 4 2 6 15 5 17 8 10 1 9 16 3 13 12 19 11 7 18
6 3 1 14 9 11 12 8 18 13 7 5 16 2 15 10 19 4 17
4 10 2 5 12 15 3 7 1 9 13 14 19 8 11 17 6 16 18
17 1 15 4 13 12 19 8 7 14 18 10 11 3 2 6 9 5 16
12 3 17 18 2 6 7 8 16 5 4 9 13 19 14 15 1 11 10
13 12 2 15 10 9 7 18 17 5 1 6 19 8 16 4 14 3 11
2 6 3 7 4 1 13 10 19 15 16 14 12 5 9 11 18 8 17
11 4 2 3 5 15 7 14 17 8 13 12 19 16 1 9 6 18 10
6 1 8 9 15 2 5 17 19 11 12 4 18 10 14 13 16 7 3
7 3 18 2 15 5 11 8 9 19 6 4 1 10 16 14 17 13 12
7 19 2 17 14 6 18 13 12 1 16 8 9 4 11 3 15 5 10
8 12 1 2 3 4 5 6 19 17 10 18 13 15 11 7 9 14 16
3 1 5 13 7 10 15 2 4 18 12 8 11 19 14 6 17 16 9
11 16 3 6 7 4 9 13 8 10 12 19 1 18 2 15 14 17 5
6 9 5 10 16 14 2 4 1 18 7 11 17 13 3 19 8 12 15
16 1 9 14 3 10 11 18 12 17 2 6 7 8 5 15 13 4 19
3 14 17 16 18 10 6 8 19 12 7 11 2 1 13 5 9 4 15
10 2 14 19 12 3 11 18 7 6 5 9 13 17 8 16 15 4 1
16 4 14 8 15 5 18 12 17 11 10 1 9 19 7 6 2 13 3
9 12 4 10 8 17 14 11 16 18 1 2 15 7 3 19 13 6 5
11 12 3 14 17 7 13 6 18 4 2 15 8 19 1 9 5 16 10

8
Ben Dorfman
Ashley Viall
Colton Viall
Kaitlyn Hartsock
Desiree Viall
Andi Luyendyk
Andi Echard
Joey Windey
3 8 2 6 4 7 1 5
4 1 6 3 8 5 2 7
4 2 7 1 8 6 5 3
6 8 3 7 4 2 5 1
2 5 3 7 1 8 6 4
6 7 2 4 1 8 5 3
2 8 3 1 6 5 7 4
2 3 7 8 4 6 5 1
6 8 5 4 2 3 1 7
6 5 8 4 1 3 2 7
1 8 7 3 2 4 5 6
8 6 2 7 5 4 3 1
8 7 3 6 4 1 2 5
1 6 7 2 3 4 8 5
5 4 1 8 2 6 7 3
8 4 5 7 2 6 1 3
3 6 5 4 2 1 8 7
4 6 2 7 8 1 5 3
8 4 1 5 2 7 6 3
4 7 5 1 8 3 2 6
5 4 1 3 7 6 8 2
1 8 5 4 7 2 3 6
7 3 2 1 5 6 4 8
7 8 2 6 3 4 1 5
5 7 6 8 4 3 2 1
7 3 6 5 8 4 1 2
6 3 7 1 8 5 2 4
5 6 7 1 4 8 3 2
1 7 8 2 6 5 3 4
4 2 1 5 3 8 6 7
3 5 2 1 4 6 8 7
5 6 3 1 4 2 7 8
2 4 1 8 5 7 6 3
3 7 1 8 4 2 5 6
8 2 4 1 7 5 6 3
2 3 4 8 5 7 1 6
3 5 4 2 1 7 6 8

6
Andi Bristowe
Matt James
Jojo Lawson
Becca Young
Nick Lawson
Joey Young
1 2 3 4 5 6
1 2 6 3 4 5
3 5 4 2 6 1
6 4 2 1 3 5
1 4 2 6 3 5
5 4 2 1 6 3
1 4 5 6 3 2
6 4 1 5 3 2
2 5 4 3 6 1
5 2 4 3 6 1
3 2 5 6 1 4
4 3 2 1 5 6
2 4 3 1 5 6
1 6 4 5 3 2
4 2 3 5 6 1
4 2 5 1 3 6
6 4 1 5 2 3
1 2 6 5 3 4
3 6 2 5 1 4
3 5 4 6 1 2
6 1 2 3 5 4
1 6 2 3 4 5
1 6 2 4 5 3
6 5 4 3 1 2
5 4 1 3 2 6
2 4 1 5 6 3
1 2 5 6 3 4
2 1 6 5 3 4
6 4 1 5 2 3
3 5 2 4 6 1
6 5 2 3 4 1
4 2 1 3 6 5
1 2 5 6 4 3
4 2 1 5 3 6
5 4 1 3 2 6
1 4 2 3 5 6
1 6 3 4 2 5
1 4 2 5 6 3

7
Joey Bristowe
Tayshia Hartsock
Colton Hartsock
Jojo Echard
Jojo Flajnik
Peter Maynard
Jojo Lowe
5 6 7 1 4 3 2
2 5 7 3 1 4 6
4 5 3 2 6 7 1
6 3 1 5 2 4 7
3 2 1 5 4 6 7
2 6 3 5 4 1 7
6 1 4 7 5 3 2
6 5 1 4 3 2 7
3 6 4 2 1 5 7
7 1 5 6 2 3 4
3 5 6 1 7 2 4
4 3 5 1 7 2 6
1 2 3 6 5 7 4
3 1 6 7 2 5 4
3 7 1 5 2 6 4
2 1 6 3 4 5 7
1 4 2 3 5 7 6
2 4 3 7 5 1 6
3 4 2 7 6 1 5

12
Rachel Graziadei
Nick Crawley
Kaitlyn Weber
Rachel Dorfman
Zach Underwood
Chris Kufrin
Nick Kufrin
Charity Shallcross
Tayshia James
Emily Young
Becca Lindsay
Kaitlyn Viall
6 1 7 8 12 9 3 11 10 2 4 5
11 9 4 8 6 5 2 12 1 3 7 10
3 8 6 5 1 2 12 4 7 11 9 10
3 7 11 9 5 4 2 6 8 1 12 10
7 6 8 5 2 12 11 3 4 10 9 1
7 11 5 2 9 6 12 1 8 3 4 10
9 5 11 2 6 10 4 7 1 12 3 8
11 5 4 12 6 7 2 9 3 1 8 10
8 3 6 1 4 10 9 5 2 7 12 11
5 11 3 8 12 1 7 9 6 2 4 10
12 3 4 6 8 1 7 11 5 10 9 2
11 9 5 6 3 1 8 4 12 2 7 10
11 7 8 6 9 5 4 1 10 12 2 3
9 7 4 2 10 3 6 8 1 11 12 5
7 5 3 11 8 2 12 1 9 6 4 10
11 7 6 8 5 1 2 9 12 4 10 3
4 11 2 7 9 3 5 8 6 10 1 12
2 6 4 7 1 12 9 10 11 3 8 5
10 8 7 12 1 2 11 4 9 6 5 3

1
Peter Shallcross
1
1
1
1
1
1
1
1
1
1
1
1
1
1
1
1
1
1
1
1
1
1
1
1
1
1
1
1
1
1
1
1
1
1
1
1
1
1
1
1
1
1
1
1

9
Gabby Recchia
Peter Hebert
Matt Higgins
Matt Maynard
Emily Windey
Kaitlyn Brown
Hannah Luyendyk
Hannah Brown
Zach Adams
7 9 6 8 3 4 2 1 5
8 3 2 5 4 6 1 7 9
1 7 5 4 3 2 9 8 6
2 1 5 8 6 9 4 3 7
9 2 6 3 1 5 4 7 8
7 9 8 5 3 1 6 4 2
2 9 7 1 6 4 3 5 8
5 2 4 1 3 7 9 6 8
2 5 9 1 6 7 3 8 4
2 5 8 3 9 6 4 7 1
1 4 2 6 3 9 8 5 7
4 6 5 3 8 2 9 7 1
7 6 2 1 3 8 4 9 5
9 1 2 8 3 6 5 7 4
4 5 3 1 2 8 9 7 6
2 8 6 7 5 4 3 1 9
5 7 4 2 1 9 8 3 6
4 2 7 9 5 6 3 1 8
7 4 2 5 9 8 6 1 3
6 3 9 8 1 7 4 2 5
4 1 8 7 3 6 9 5 2
5 1 9 3 2 6 8 7 4
6 1 4 3 8 9 7 2 5
1 6 2 8 3 9 5 7 4
6 1 7 8 3 4 9 2 5
1 8 6 2 5 7 3 9 4
9 5 6 8 7 4 3 1 2
1 4 8 6 9 3 5 7 2
3 1 9 2 5 7 8 4 6
2 5 9 3 8 7 1 4 6
1 7 9 4 8 5 6 2 3
8 2 4 7 5 6 1 9 3
4 8 6 1 3 9 2 7 5
8 2 3 5 9 7 4 6 1
1 8 3 2 9 4 6 7 5
6 5 3 7 9 4 8 2 1
8 9 5 2 6 7 1 3 4
1 3 6 5 7 8 9 4 2
8 9 2 1 4 5 6 3 7
3 5 2 1 8 6 9 4 7
1 9 3 8 2 7 4 6 5
8 2 1 6 5 9 3 4 7
4 2 5 3 6 1 8 9 7
2 7 4 1 9 6 3 5 8
7 4 8 6 9 5 1 3 2
3 7 9 8 5 4 2 6 1
8 6 3 4 2 7 5 1 9

17
Emily Flajnik
Ben Hartsock
Katie Echard
Ashley Viall
Sean Dorfman
Colton Luyendyk
Hannah Hebert
Ashley Windey
Sean Crawley
Zach Luyendyk
Becca Weber
Chris Flajnik
Brad Dorfman
Colton Lowe
Tayshia Bristowe
Tayshia Maynard
Chris Weber
6 12 4 3 7 9 15 1 5 10 8 11 17 14 16 2 13
4 14 6 3 8 7 16 5 12 13 11 15 10 2 17 1 9
16 6 4 3 9 15 12 7 14 2 8 13 10 11 5 1 17
11 5 9 8 1 12 7 4 17 13 3 15 14 2 10 6 16
8 14 16 10 5 7 2 11 15 3 6 12 9 17 13 4 1
11 1 9 17 14 15 13 3 10 16 5 7 4 8 12 6 2
4 9 1 13 8 14 2 5 3 15 11 6 12 16 17 10 7
7 16 13 15 8 2 3 5 10 14 6 4 11 12 1 9 17
3 14 12 9 17 8 4 13 5 16 15 2 7 11 10 1 6
13 3 16 1 2 5 8 17 10 4 11 6 15 14 12 7 9
1 6 10 9 7 8 12 15 11 4 17 13 16 3 2 14 5
17 13 10 15 14 3 2 1 12 4 16 7 9 6 5 8 11
10 16 8 5 2 13 6 12 3 17 4 15 14 11 9 1 7
12 11 2 9 1 17 15 3 14 10 7 4 5 16 6 13 8
17 4 15 1 16 13 6 2 14 10 8 7 3 9 12 11 5
1 17 5 4 2 3 13 11 10 7 16 8 15 6 12 9 14
7 6 17 14 2 1 13 11 10 4 16 8 3 9 12 5 15
1 4 14 7 12 8 9 5 11 13 10 16 3 6 15 17 2
14 15 1 12 6 7 4 16 3 13 5 2 17 10 11 9 8
12 5 11 13 3 10 16 7 17 9 2 8 4 6 1 14 15
2 5 6 4 12 9 16 14 11 13 1 15 8 7 10 17 3
9 6 5 15 2 13 4 7 16 17 11 3 14 8 1 10 12
11 3 8 17 10 2 4 9 16 1 14 7 6 5 15 12 13
8 3 7 16 15 12 13 6 1 9 17 14 10 2 11 4 5
13 9 17 14 12 8 1 4 7 15 10 6 5 11 2 3 16
3 7 8 15 17 10 2 1 9 11 12 5 6 4 14 16 13
15 1 8 10 4 6 13 5 16 2 9 17 14 3 7 12 11
14 12 17 5 16 13 4 8 7 1 11 9 6 10 3 15 2
2 14 10 7 11 6 17 12 15 13 5 8 1 9 4 3 16
16 1 5 17 4 11 9 12 8 2 15 3 6 14 13 7 10
2 9 6 12 5 16 10 3 17 4 1 15 13 7 11 14 8
8 5 15 6 17 3 12 11 1 9 14 10 7 13 16 2 4
3 1 2 5 4 7 11 13 10 14 9 8 6 12 17 16 15
11 13 5 12 16 2 3 8 14 7 10 6 4 9 1 17 15
5 10 6 11 13 9 1 4 17 12 3 16 14 7 15 2 8
9 2 3 11 14 10 12 7 15 5 13 6 1 16 17 4 8
6 1 13 15 3 7 12 11 16 8 17 10 4 14 2 9 5
10 15 14 9 11 1 7 17 16 6 5 12 8 13 4 3 2
5 15 17 11 13 8 2 14 7 16 3 12 4 6 9 1 10
3 6 14 16 8 1 13 11 15 4 2 17 10 12 7 9 5
4 14 11 6 9 3 12 1 17 5 2 15 16 10 13 8 7

1
Rachel Fletcher
1
1
1
1
1
1
1
1
1
1
1
1
1
1
1
1
1
1
1
1
1
1

18
Nick Hartsock
Peter Maynard
Andi Lowe
Brad Soules
Clare Thurston
Hannah Viall
Ben Shallcross
Kaitlyn Bristowe
Gabby Flajnik
Katie Hartsock
Joey Hebert
Brad Lindsay
Chris Windey
Emily Adams
Andi Young
Becca Higgins
Hannah Crawley
Brad Adams
10 16 17 8 9 13 7 2 18 12 6 1 15 3 11 5 14 4
2 15 13 16 1 12 9 5 11 7 8 4 17 14 6 3 10 18
16 3 2 9 8 10 18 4 14 15 6 11 13 1 5 12 17 7
9 13 14 8 12 6 1 5 11 10 2 18 17 3 4 7 16 15
14 18 6 13 4 8 3 7 17 10 11 5 2 16 12 1 9 15
14 4 12 15 3 7 16 2 9 5 1 6 8 11 10 17 13 18
5 12 1 18 16 8 3 7 10 14 17 9 15 6 11 13 2 4
3 11 12 8 15 10 16 14 9 18 17 7 4 2 13 1 5 6
9 2 16 17 18 15 7 5 13 6 10 3 14 8 4 12 11 1
13 12 2 4 9 6 1 10 5 3 17 14 16 7 11 8 15 18
11 14 18 9 1 4 12 7 16 2 8 5 17 10 15 13 3 6
11 7 4 2 14 5 10 15 9 18 12 8 17 1 13 3 16 6
1 5 2 7 13 12 18 17 8 15 4 16 11 14 6 10 3 9
18 2 11 5 12 6 10 16 7 13 3 9 1 8 17 14 4 15
14 8 4 12 7 10 9 16 11 2 13 5 6 1 3 17 18 15
9 14 3 12 15 6 10 4 1 2 17 16 7 18 5 13 8 11
15 5 7 10 18 6 14 3 2 12 1 17 4 9 13 16 8 11
7 11 12 15 18 6 14 17 9 4 1 8 5 2 16 10 13 3
13 14 5 16 12 10 17 6 4 2 9 1 8 15 11 7 18 3
16 2 6 1 17 15 3 10 9 11 14 8 12 13 4 18 7 5
2 17 13 5 11 14 8 3 4 6 18 16 7 12 15 10 1 9
14 18 7 9 1 13 6 2 16 3 15 4 11 17 10 5 12 8
8 12 15 11 17 10 9 13 1 4 14 7 5 2 16 3 6 18
13 6 17 14 15 9 10 5 12 8 16 11 1 7 3 18 2 4
18 12 15 2 6 16 14 9 10 8 4 11 1 3 17 13 5 7
4 13 3 7 6 1 10 11 16 15 2 12 18 17 8 5 9 14

15
Emily Underwood
Becca Luyendyk
Jojo Luyendyk
Chris Crawley
Brad Flajnik
Charity Lindsay
Charity Hebert
Jojo Bristowe
Nick Adams
Colton Graziadei
Charity Hartsock
Desiree Thurston
Matt Lindsay
Rachel Hartsock
Rachel Soules
5 15 1 12 14 8 3 6 11 4 2 13 10 7 9
10 1 2 13 15 6 11 8 12 14 3 9 5 7 4
2 10 13 9 8 1 15 11 12 4 5 7 3 14 6
2 13 15 9 14 11 7 10 12 5 8 1 4 3 6
5 10 9 2 4 12 8 3 7 1 14 6 15 11 13
5 6 11 12 8 14 13 9 1 3 15 10 2 4 7
13 15 12 8 7 10 2 1 6 4 14 11 5 3 9
13 14 6 3 10 11 15 7 2 12 1 9 5 8 4
11 1 3 6 15 12 5 10 8 14 9 4 2 7 13
7 6 14 11 12 1 8 10 4 13 15 2 9 3 5
7 3 9 4 15 11 5 6 14 1 2 8 12 13 10
9 8 5 11 14 2 1 15 6 10 13 4 3 12 7
4 3 13 11 5 14 6 8 2 7 10 9 15 12 1
7 13 6 3 8 10 15 11 12 5 9 14 2 4 1
10 13 12 15 3 14 11 1 4 6 5 2 8 9 7
10 4 7 1 12 6 5 8 14 15 9 2 13 3 11
7 14 9 1 11 5 13 15 8 3 12 2 6 10 4
9 15 7 13 14 3 8 11 6 1 12 5 10 2 4
1 11 2 4 8 12 7 3 14 9 6 10 5 13 15
11 4 14 2 8 13 7 12 3 15 6 5 1 9 10
5 6 1 11 8 12 15 14 4 13 7 10 2 3 9
6 3 12 4 5 13 8 2 14 15 9 1 10 11 7
9 14 1 15 8 2 10 13 5 7 12 4 6 3 11
12 4 2 5 13 1 11 9 8 6 10 3 7 15 14
12 3 11 10 8 2 13 4 6 9 14 1 15 7 5
7 6 13 12 5 14 8 3 15 2 9 11 4 10 1
3 12 6 9 13 10 14 7 1 2 4 11 8 5 15
6 11 9 5 12 2 8 14 3 1 10 7 13 15 4

10
Andi Graziadei
Kaitlyn Luyendyk
Joey Viall
Andi Echard
Desiree Hebert
Arie Viall
Sean Young
Katie Weber
Peter Hebert
Tayshia Graziadei
4 5 1 9 8 6 2 10 3 7
6 9 3 8 7 1 10 5 2 4
6 7 4 8 9 5 10 3 2 1
10 1 5 2 7 8 4 3 9 6
4 2 7 1 9 6 3 10 5 8
8 5 2 4 10 7 3 9 6 1
10 8 1 7 4 9 5 2 3 6
1 4 5 9 7 2 8 6 10 3
8 6 4 9 7 2 5 3 10 1
7 10 4 9 6 3 5 8 2 1
4 1 5 9 2 7 10 6 3 8
10 6 3 7 2 5 4 1 9 8
5 1 9 7 3 6 8 2 10 4
2 8 10 4 1 9 3 5 6 7
4 2 8 9 6 10 3 1 7 5
4 7 10 2 3 1 9 5 8 6
8 3 9 10 2 1 7 5 6 4

11
Peter Thurston
Nick Shallcross
Zach Graziadei
Arie Young
Andi Dorfman
Kaitlyn Crawley
Tayshia Young
Andi Soules
Kaitlyn Windey
Becca Soules
Colton Echard
5 2 1 8 4 11 3 6 10 7 9
2 10 5 4 3 8 9 11 7 1 6
11 2 7 5 10 8 6 1 9 4 3
5 8 7 3 4 11 10 2 9 6 1

10
Emily Flajnik
Sean Bristowe
Ben Higgins
Rachel Luyendyk
Michelle Lowe
Jojo Luyendyk
Rachel Kufrin
Ben Fletcher
Chris Flajnik
Charity Lowe
7 3 4 9 2 1 5 8 10 6
5 8 2 10 7 4 3 6 1 9
10 8 1 4 2 9 7 6 5 3
9 3 1 6 5 8 7 10 4 2
6 8 2 10 3 5 4 1 9 7
4 1 8 2 7 9 5 10 3 6
10 3 6 5 2 9 8 4 1 7
6 5 8 3 1 4 7 10 2 9

11
Ben Dorfman
Andi James
Kaitlyn Hartsock
Brad Young
Ben Flajnik
Tayshia Thurston
Nick Recchia
Colton Recchia
Zach Lindsay
Matt Weber
Peter Hebert
6 8 7 9 10 2 5 4 1 11 3
6 10 9 8 11 4 7 3 2 1 5
2 3 1 10 5 9 8 11 6 4 7
3 6 10 8 4 2 9 7 1 5 11
1 2 4 5 10 9 11 7 8 3 6
1 11 10 5 4 7 2 9 3 8 6
9 11 5 4 1 6 2 3 8 7 10
10 6 3 2 1 4 7 9 5 8 11
6 11 8 9 10 1 7 5 2 3 4
3 10 9 2 8 11 5 4 7 6 1
10 2 5 8 4 1 7 11 3 9 6
10 6 4 8 5 11 9 1 3 2 7
3 4 10 1 7 9 2 11 6 8 5
7 9 10 2 6 4 1 8 3 11 5
9 3 5 4 2 11 7 1 10 8 6
9 1 4 10 3 5 7 8 11 6 2
6 2 3 4 1 8 7 10 9 5 11
8 7 6 4 3 9 2 5 10 1 11
1 9 6 5 10 4 11 7 8 3 2
4 8 3 5 1 7 11 10 2 6 9
7 2 5 8 6 11 3 1 10 4 9
8 2 6 7 3 10 1 11 5 9 4
5 4 3 2 1 10 9 8 7 11 6
6 1 11 2 8 9 4 10 5 7 3
6 11 8 9 10 2 3 1 7 4 5
1 3 7 4 8 6 2 5 9 11 10
11 8 7 2 1 6 4 5 10 3 9
7 11 3 8 5 1 10 6 2 4 9
5 11 2 8 1 9 4 10 7 3 6
5 10 1 6 7 8 9 11 2 4 3
1 4 3 11 5 8 2 6 9 7 10
3 6 10 5 7 2 9 1 11 8 4

1
Clayton Maynard
1
1
1
1
1
1
1
1
1

5
Ben Shallcross
Sean Flajnik
Andi Lindsay
Katie Lawson
Becca Lindsay
3 5 4 1 2
5 1 3 2 4
3 1 2 4 5
3 4 5 2 1
4 1 2 5 3
4 5 2 1 3
3 4 2 1 5
1 3 4 5 2
1 5 2 4 3
5 2 1 4 3
3 2 4 5 1
3 4 5 2 1
1 2 5 4 3
2 1 4 3 5
2 5 3 4 1
2 3 4 5 1
1 5 4 2 3
2 4 3 5 1
5 4 1 3 2
2 5 3 4 1

13
Ben Crawley
Sean Young
Clare Soules
Clayton Luyendyk
Tayshia Hebert
Ashley Thurston
Sean Echard
Peter Soules
Katie Kufrin
Chris Recchia
Peter Fletcher
Nick Viall
Clare James
8 1 7 9 3 4 6 10 5 13 12 11 2
13 5 2 12 10 6 11 4 8 9 1 3 7
1 8 9 6 7 2 12 11 5 13 3 10 4
1 12 6 2 13 8 4 3 11 9 7 5 10
6 13 10 8 1 3 9 11 4 7 2 12 5
9 3 5 6 13 7 2 11 1 10 4 8 12
9 6 1 11 5 10 4 2 12 3 13 8 7
4 10 2 3 7 11 5 9 13 1 6 12 8
8 9 13 11 1 3 7 10 12 6 2 5 4
12 3 7 1 4 13 10 9 6 11 8 2 5
11 6 10 1 8 2 4 9 5 7 13 12 3
5 9 11 7 2 10 1 12 13 4 3 6 8
11 2 12 4 5 7 1 10 8 3 13 9 6
3 12 5 1 6 4 8 11 2 7 10 9 13
3 11 1 7 4 8 2 10 6 5 9 12 13
11 1 6 12 5 2 7 8 10 13 9 3 4
5 8 13 11 2 4 6 9 3 12 10 7 1
6 13 3 4 5 12 9 7 10 11 1 2 8
11 1 12 5 6 9 3 13 4 10 7 2 8
9 7 10 6 8 13 11 3 4 5 12 1 2
9 12 2 4 1 8 3 5 6 13 7 10 11
7 4 3 2 6 5 11 13 12 1 10 9 8
1 6 11 8 2 3 12 4 10 13 7 9 5
12 6 9 10 4 5 13 1 8 7 3 2 11
3 6 7 5 11 1 8 4 9 12 13 10 2
4 11 3 12 6 5 1 2 8 7 9 13 10
10 11 5 8 6 7 9 2 1 13 3 12 4

18
Ben Maynard
Emily Higgins
Hannah Hartsock
Matt Luyendyk
Sean Hebert
Ashley Echard
Andi Recchia
Charity Flajnik
Zach Young
Zach Lawson
Clayton Underwood
Tayshia Brown
Gabby Graziadei
Zach Hartsock
Joey Graziadei
Katie Young
Katie Thurston
Joey Lindsay
13 8 9 2 4 6 14 7 12 3 16 17 11 1 10 15 18 5
5 14 13 3 17 12 10 15 8 9 16 18 11 6 2 4 1 7
11 14 6 5 17 4 15 18 9 3 1 16 10 13 2 12 8 7
4 17 1 14 6 7 8 15 12 9 5 3 16 11 18 13 10 2
5 7 3 2 13 1 11 17 8 6 14 18 15 4 10 12 16 9
3 6 12 10 14 11 8 5 15 13 1 7 9 18 17 16 2 4
13 8 10 12 7 16 2 15 17 18 11 14 4 5 9 6 3 1
9 5 16 17 1 12 10 11 2 15 8 18 3 4 7 14 13 6
5 9 8 3 13 6 4 14 12 15 2 11 16 10 18 7 17 1
10 18 15 5 13 1 11 17 14 2 12 7 3 6 4 8 16 9
14 4 2 1 7 13 9 11 18 5 12 8 17 10 16 3 6 15
7 17 12 2 16 3 14 4 1 8 13 9 18 15 5 10 11 6
14 10 3 17 18 9 13 7 1 11 4 6 16 12 2 15 8 5
3 4 13 5 6 2 10 1 9 11 12 17 8 7 16 18 14 15
18 16 5 17 13 2 10 9 12 1 7 8 15 14 11 3 6 4
6 11 16 4 15 5 1 12 18 14 17 10 8 9 2 7 3 13
2 13 17 8 15 18 1 10 14 7 16 3 11 4 6 5 9 12
15 8 12 1 18 6 14 11 16 17 5 10 7 9 13 2 3 4
12 17 2 9 15 10 8 5 13 6 3 16 14 4 18 1 7 11
12 7 2 13 17 11 18 16 14 6 3 5 8 4 10 15 1 9
5 15 9 11 10 4 1 2 12 17 6 13 18 3 8 7 14 16
2 11 16 17 12 4 5 8 10 9 1 7 18 14 15 3 13 6
12 3 10 16 9 11 6 8 2 13 15 14 17 18 5 1 7 4

12
Arie Soules
Joey Soules
Michelle Fletcher
Desiree Thurston
Joey Maynard
Ashley Flajnik
Peter Crawley
Hannah Flajnik
Matt Higgins
Emily Adams
Peter Adams
Charity Hartsock
8 4 6 11 1 12 3 2 10 9 7 5
8 4 1 12 2 7 6 5 10 3 9 11
4 9 12 3 11 6 2 10 7 5 8 1
8 2 4 9 11 3 12 5 10 6 7 1
12 2 1 4 3 6 10 7 5 8 11 9
8 4 6 5 11 7 1 12 10 3 9 2
4 9 6 7 5 2 12 3 11 8 10 1
5 4 6 2 1 8 11 3 7 10 9 12
12 2 4 6 7 11 8 9 3 1 10 5
3 5 6 7 4 8 10 11 9 12 2 1
8 3 1 11 7 4 2 6 9 5 12 10
7 11 12 4 6 9 3 5 10 8 2 1
3 7 11 12 6 1 10 5 2 8 4 9
1 5 9 12 8 11 6 4 3 2 7 10
10 11 12 8 4 3 5 9 2 1 6 7
5 4 8 1 2 10 3 9 6 12 7 11
12 3 1 7 8 2 5 6 11 9 10 4
6 7 10 1 11 9 4 2 3 12 5 8
11 3 2 8 12 6 5 9 1 7 4 10
8 2 11 5 12 3 4 9 7 10 6 1
7 6 5 11 1 2 9 8 10 4 12 3
7 5 4 10 2 1 9 12 8 11 6 3
12 4 7 8 3 5 6 2 10 1 9 11
4 1 2 3 9 7 8 12 11 5 6 10
10 6 12 5 7 8 9 3 4 1 2 11
10 5 11 3 6 8 9 2 7 4 12 1
10 1 12 5 8 2 11 3 7 6 4 9
11 5 9 10 1 7 6 4 3 2 12 8
9 1 4 7 6 11 2 5 8 3 10 12
4 12 7 8 6 2 9 11 10 1 5 3
6 5 7 8 9 2 4 12 3 10 1 11
7 9 8 11 6 4 12 2 1 3 5 10
10 7 5 11 6 9 1 4 8 3 12 2
6 3 1 2 4 7 8 11 12 10 9 5
3 7 10 9 5 1 8 12 11 6 4 2
4 2 1 8 11 10 7 9 12 5 3 6
11 10 4 9 1 3 2 5 12 8 7 6
5 11 7 1 9 4 6 3 8 12 2 10
3 9 1 5 8 10 4 11 2 12 6 7
8 9 4 12 2 7 3 6 11 1 10 5
5 1 10 7 11 3 12 9 2 6 4 8
5 11 9 4 2 10 6 7 12 3 8 1

7
Matt Shallcross
Tayshia Maynard
Kaitlyn Kufrin
Michelle Brown
Sean Echard
Zach Luyendyk
Sean Young
7 2 4 6 5 1 3
5 3 7 1 6 4 2
3 2 4 6 5 1 7
6 4 1 2 7 5 3
1 7 4 2 3 6 5
1 7 5 2 3 4 6
3 6 4 7 2 5 1
4 7 5 3 2 6 1
2 1 5 4 7 6 3
2 3 4 5 1 6 7
4 7 1 6 2 5 3
4 1 2 6 7 3 5
2 5 3 6 4 7 1
1 3 6 4 2 5 7
1 2 5 7 6 4 3
6 4 5 3 2 7 1
1 3 5 7 4 2 6
3 2 4 5 7 1 6
5 2 3 4 1 6 7
6 2 5 7 3 1 4
2 6 5 3 4 1 7
2 4 5 7 6 3 1
1 7 5 6 2 4 3
5 6 7 2 1 4 3
3 2 1 6 4 7 5
1 5 2 6 7 4 3
5 3 4 6 2 7 1
3 2 4 1 7 5 6
3 2 7 5 4 6 1
2 1 7 5 3 4 6
3 7 5 2 1 4 6
5 4 6 3 7 1 2
4 5 3 2 6 1 7
6 1 7 5 3 4 2
3 6 2 4 7 1 5
2 1 7 3 6 5 4
7 6 1 2 3 4 5
3 1 6 5 7 2 4
4 5 3 7 2 1 6

19
Desiree Soules
Katie Maynard
Becca Hebert
Charity Hebert
Matt Kufrin
Nick Echard
Ben Underwood
Tayshia Windey
Jojo Soules
Clare Crawley
Charity James
Hannah Lindsay
Ashley Soules
Kaitlyn Luyendyk
Rachel Maynard
Joey Recchia
Clayton James
Andi James
Gabby Bristowe
12 4 1 15 14 10 5 7 19 9 3 13 6 16 2 11 17 8 18
2 3 8 19 14 10 18 7 1 15 6 12 11 4 5 17 9 13 16
6 14 15 4 11 19 12 8 9 5 3 7 17 18 2 16 1 13 10
13 6 8 11 16 9 19 4 7 17 18 5 2 12 3 15 14 1 10
16 3 8 15 9 14 5 10 7 19 12 17 11 13 1 6 2 4 18
9 6 7 12 3 15 8 18 19 10 4 5 13 14 2 1 16 11 17
2 11 15 12 4 5 18 16 3 7 19 9 1 14 13 6 17 10 8
11 12 17 13 9 19 8 18 3 2 15 10 14 1 16 5 4 7 6
2 4 8 16 5 14 13 10 19 11 12 3 6 17 18 1 7 15 9
13 14 6 3 12 5 2 18 7 16 4 17 15 11 10 19 9 8 1
1 18 4 16 9 17 7 10 6 12 11 2 3 15 5 14 19 13 8
15 14 4 8 1 18 3 13 5 2 19 17 12 6 10 16 11 9 7
2 6 15 4 9 17 1 16 19 11 8 7 10 18 14 12 13 5 3
13 2 15 9 11 7 3 14 4 8 1 16 10 18 12 19 17 6 5
6 11 12 19 1 2 15 18 4 7 5 8 3 17 10 16 13 14 9
16 18 12 4 7 1 13 14 8 11 9 2 3 15 19 17 5 10 6
5 12 17 14 3 6 9 18 10 2 13 11 8 7 19 1 16 4 15
16 8 13 7 14 4 11 9 12 5 1 6 10 17 2 19 15 3 18
4 6 16 11 2 13 17 10 9 18 1 8 12 7 19 14 3 15 5
19 12 15 16 4 8 18 9 17 2 1 7 13 11 14 3 5 10 6
11 1 19 9 14 17 7 2 5 12 4 13 3 10 16 18 15 6 8
2 1 13 5 15 12 10 7 3 4 9 19 6 17 14 18 8 16 11
1 15 14 4 16 13 10 5 2 3 6 7 12 17 19 11 9 18 8
9 2 1 16 3 4 10 14 7 15 11 19 12 6 13 17 18 8 5
6 12 2 3 10 14 18 16 9 17 1 8 5 4 19 15 7 13 11
11 7 12 13 5 15 2 9 19 14 17 6 4 18 8 16 3 1 10
13 7 4 6 14 17 15 1 19 12 3 8 16 2 18 9 5 11 10
4 14 15 8 2 3 10 18 5 17 11 6 19 12 9 1 16 13 7
16 9 8 11 14 7 3 19 1 17 10 12 2 5 6 4 13 18 15

20
Andi Crawley
Jojo Young
Colton Lindsay
Hannah Windey
Peter Shallcross
Jojo Higgins
Zach Adams
Rachel Fletcher
Rachel Bristowe
Jojo Recchia
Kaitlyn Dorfman
Becca Luyendyk
Desiree Hartsock
Tayshia Higgins
Colton Bristowe
Matt Lowe
Andi Hebert
Ben Windey
Arie Thurston
Emily Recchia
17 16 6 11 1 12 18 9 5 8 13 14 15 19 4 7 20 10 3 2
18 19 7 11 14 15 16 8 10 13 1 6 12 5 17 3 20 2 4 9
